<svg width="41" height="52" viewBox="0 0 41 52" fill="none" xmlns="http://www.w3.org/2000/svg">
<path d="M39.6155 10.4333L20.2484 0.113546C19.9611 -0.0397984 19.6167 -0.0376464 19.3316 0.118926L0.500386 10.4387C0.191546 10.6082 0 10.9321 0 11.2845V24.7648C0.0112991 35.846 6.57658 45.8709 16.7296 50.3103L19.3434 51.4494C19.5877 51.5559 19.8659 51.5565 20.1107 51.4505L23.056 50.1785C33.3973 45.8354 40.125 35.7136 40.1261 24.4974V11.2845C40.1261 10.9283 39.9297 10.6007 39.6155 10.4333ZM38.1977 24.4974C38.1956 34.9404 31.93 44.3633 22.3011 48.4046L22.2946 48.4078L19.7297 49.5151L17.5011 48.5428C8.0503 44.4106 1.93859 35.0798 1.92783 24.7648V11.8554L19.8013 2.05967L38.1977 11.8624V24.4974Z" fill="white"/>
<path d="M12.6881 24.1395C12.3421 23.7344 11.7336 23.6865 11.3284 24.0325C10.9233 24.3779 10.8754 24.987 11.2214 25.3916L16.3145 31.3559C16.6546 31.754 17.2502 31.8084 17.6559 31.478L29.5177 21.8275C29.9309 21.4918 29.9934 20.8843 29.6571 20.4711C29.3213 20.0584 28.7139 19.9955 28.3007 20.3318L17.1695 29.3871L12.6881 24.1395Z" fill="white"/>
</svg>
