<svg width="58" height="58" viewBox="0 0 58 58" fill="none" xmlns="http://www.w3.org/2000/svg">
<path d="M1.8125 23.5625V54.375C1.8125 55.3719 2.62812 56.1875 3.625 56.1875H50.75C51.7469 56.1875 52.5625 55.3719 52.5625 54.375V23.5625H1.8125Z" fill="#E6E9ED"/>
<path d="M16.3125 36.25H25.375C25.375 41.2525 21.315 45.3125 16.3125 45.3125C13.8112 45.3125 11.5456 44.2975 9.90527 42.6572L16.3125 36.25Z" fill="#B4DD7F"/>
<path d="M25.375 36.25H16.3125L22.7197 29.8428C24.36 31.4831 25.375 33.7487 25.375 36.25Z" fill="#4FC1E9"/>
<path d="M22.7196 29.8428L16.3125 36.25L9.90527 29.8428C11.5456 28.2025 13.8112 27.1875 16.3125 27.1875C18.8137 27.1875 21.0793 28.2025 22.7196 29.8428Z" fill="#FCD770"/>
<path d="M16.3125 36.25L9.90531 42.6572C8.265 41.0168 7.25 38.7512 7.25 36.25C7.25 33.7487 8.265 31.4831 9.90531 29.8428L16.3125 36.25Z" fill="#FF826E"/>
<path d="M33.5312 43.5H46.2188V47.125H33.5312V43.5Z" fill="#FF826E"/>
<path d="M33.5312 34.4375H46.2188V38.0625H33.5312V34.4375Z" fill="#FF826E"/>
<path d="M48.9375 48.9375V50.75C48.9375 51.7469 48.1219 52.5625 47.125 52.5625H32.625C31.6281 52.5625 30.8125 51.7469 30.8125 50.75V48.9375C30.8125 47.9406 31.6281 47.125 32.625 47.125H33.5312H46.2188H47.125C48.1219 47.125 48.9375 47.9406 48.9375 48.9375Z" fill="#FCD770"/>
<path d="M48.9375 39.875V41.6875C48.9375 42.6844 48.1219 43.5 47.125 43.5H46.2188H33.5312H32.625C31.6281 43.5 30.8125 42.6844 30.8125 41.6875V39.875C30.8125 38.8781 31.6281 38.0625 32.625 38.0625H33.5312H46.2188H47.125C48.1219 38.0625 48.9375 38.8781 48.9375 39.875Z" fill="#FCD770"/>
<path d="M48.9375 30.8125V32.625C48.9375 33.6219 48.1219 34.4375 47.125 34.4375H46.2188H33.5312H32.625C31.6281 34.4375 30.8125 33.6219 30.8125 32.625V30.8125C30.8125 29.8156 31.6281 29 32.625 29H47.125C48.1219 29 48.9375 29.8156 48.9375 30.8125Z" fill="#FCD770"/>
<path d="M1.8125 23.5625V18.125C1.8125 17.1281 2.62812 16.3125 3.625 16.3125H23.5625C23.5625 18.3153 25.1847 19.9375 27.1875 19.9375H30.8125L33.8303 23.5625H1.8125Z" fill="#B4DD7F"/>
<path d="M52.5625 19.9375V23.5625H38.0625C38.0625 23.5534 38.0625 23.5353 38.0625 23.5262V19.9375H52.5625Z" fill="#B4DD7F"/>
<path d="M56.1875 5.4375V16.3125C56.1875 18.3153 54.5653 19.9375 52.5625 19.9375H38.0625V23.5262V23.5625C38.0534 24.0519 37.845 24.5141 37.5188 24.8312C37.1925 25.1666 36.7212 25.375 36.2137 25.375C35.6609 25.375 35.1444 25.1303 34.7909 24.7044L33.8303 23.5625L30.8125 19.9375H27.1875C25.1847 19.9375 23.5625 18.3153 23.5625 16.3125V5.4375C23.5625 3.43469 25.1847 1.8125 27.1875 1.8125H52.5625C54.5653 1.8125 56.1875 3.43469 56.1875 5.4375Z" fill="#F0D0B4"/>
<path d="M29.9062 8.15625C30.9058 8.15625 31.7188 8.96916 31.7188 9.96875H33.5312C33.5312 7.96956 31.9054 6.34375 29.9062 6.34375C27.9071 6.34375 26.2812 7.96956 26.2812 9.96875V11.7812C26.2812 13.7804 27.9071 15.4062 29.9062 15.4062C31.9054 15.4062 33.5312 13.7804 33.5312 11.7812H31.7188C31.7188 12.7808 30.9058 13.5938 29.9062 13.5938C28.9067 13.5938 28.0938 12.7808 28.0938 11.7812V9.96875C28.0938 8.96916 28.9067 8.15625 29.9062 8.15625Z" fill="black"/>
<path d="M39.875 6.34375H35.3438V15.4062H37.1562V11.7812H39.875C40.3743 11.7812 40.7812 12.1882 40.7812 12.6875V15.4062H42.5938V12.6875C42.5938 11.9888 42.321 11.3571 41.8869 10.875C42.3219 10.3929 42.5938 9.76122 42.5938 9.0625C42.5938 7.56356 41.3739 6.34375 39.875 6.34375ZM37.1562 9.96875V8.15625H39.875C40.3743 8.15625 40.7812 8.56316 40.7812 9.0625C40.7812 9.56184 40.3743 9.96875 39.875 9.96875H37.1562Z" fill="black"/>
<path d="M49.1903 11.7812H48.6847L46.8722 6.34375H44.4062V15.4062H46.2188V10.1156L47.3778 13.5938H50.4972L51.6562 10.1156V15.4062H53.4688V6.34375H51.0028L49.1903 11.7812Z" fill="black"/>
<path d="M11.7812 19.0312H13.5938V20.8438H11.7812V19.0312Z" fill="black"/>
<path d="M4.53125 19.0312H6.34375V20.8438H4.53125V19.0312Z" fill="black"/>
<path d="M8.15625 19.0312H9.96875V20.8438H8.15625V19.0312Z" fill="black"/>
<path d="M47.125 28.0938H32.625C31.1261 28.0938 29.9062 29.3136 29.9062 30.8125V32.625C29.9062 34.1239 31.1261 35.3438 32.625 35.3438V37.1562C31.1261 37.1562 29.9062 38.3761 29.9062 39.875V41.6875C29.9062 43.1864 31.1261 44.4062 32.625 44.4062V46.2188C31.1261 46.2188 29.9062 47.4386 29.9062 48.9375V50.75C29.9062 52.2489 31.1261 53.4688 32.625 53.4688H47.125C48.6239 53.4688 49.8438 52.2489 49.8438 50.75V48.9375C49.8438 47.4386 48.6239 46.2188 47.125 46.2188V44.4062C48.6239 44.4062 49.8438 43.1864 49.8438 41.6875V39.875C49.8438 38.3761 48.6239 37.1562 47.125 37.1562V35.3438C48.6239 35.3438 49.8438 34.1239 49.8438 32.625V30.8125C49.8438 29.3136 48.6239 28.0938 47.125 28.0938ZM48.0312 48.9375V50.75C48.0312 51.2502 47.6243 51.6562 47.125 51.6562H32.625C32.1257 51.6562 31.7188 51.2502 31.7188 50.75V48.9375C31.7188 48.4373 32.1257 48.0312 32.625 48.0312H47.125C47.6243 48.0312 48.0312 48.4373 48.0312 48.9375ZM45.3125 46.2188H34.4375V44.4062H45.3125V46.2188ZM48.0312 39.875V41.6875C48.0312 42.1877 47.6243 42.5938 47.125 42.5938H32.625C32.1257 42.5938 31.7188 42.1877 31.7188 41.6875V39.875C31.7188 39.3748 32.1257 38.9688 32.625 38.9688H47.125C47.6243 38.9688 48.0312 39.3748 48.0312 39.875ZM45.3125 37.1562H34.4375V35.3438H45.3125V37.1562ZM48.0312 32.625C48.0312 33.1252 47.6243 33.5312 47.125 33.5312H32.625C32.1257 33.5312 31.7188 33.1252 31.7188 32.625V30.8125C31.7188 30.3122 32.1257 29.9062 32.625 29.9062H47.125C47.6243 29.9062 48.0312 30.3122 48.0312 30.8125V32.625Z" fill="black"/>
<path d="M52.5625 0.90625H27.1875C24.689 0.90625 22.6562 2.93897 22.6562 5.4375V15.4062H3.625C2.12606 15.4062 0.90625 16.6261 0.90625 18.125V54.375C0.90625 55.8739 2.12606 57.0938 3.625 57.0938H50.75C52.2489 57.0938 53.4688 55.8739 53.4688 54.375V20.7522C55.5341 20.3308 57.0938 18.5011 57.0938 16.3125V5.4375C57.0938 2.93897 55.061 0.90625 52.5625 0.90625ZM3.625 17.2188H22.7478C23.1692 19.2841 24.9989 20.8438 27.1875 20.8438H30.3884L31.8991 22.6562H2.71875V18.125C2.71875 17.6257 3.12566 17.2188 3.625 17.2188ZM50.75 55.2812H3.625C3.12566 55.2812 2.71875 54.8753 2.71875 54.375V24.4688H33.4089L34.0922 25.2889C34.6178 25.9197 35.39 26.2812 36.211 26.2812C37.3982 26.2812 38.4033 25.5227 38.7911 24.4688H51.6562V54.375C51.6562 54.8753 51.2493 55.2812 50.75 55.2812ZM38.9688 22.6562V20.8438H51.6562V22.6562H38.9688ZM55.2812 16.3125C55.2812 17.8114 54.0614 19.0312 52.5625 19.0312H37.1562V23.5235C37.1562 24.0446 36.7321 24.4688 36.211 24.4688C35.9292 24.4688 35.6646 24.3446 35.4842 24.1289L31.2366 19.0312H27.1875C25.6886 19.0312 24.4688 17.8114 24.4688 16.3125V5.4375C24.4688 3.93856 25.6886 2.71875 27.1875 2.71875H52.5625C54.0614 2.71875 55.2812 3.93856 55.2812 5.4375V16.3125Z" fill="black"/>
<path d="M16.3125 46.2188C21.8089 46.2188 26.2812 41.7464 26.2812 36.25C26.2812 30.7536 21.8089 26.2812 16.3125 26.2812C10.8161 26.2812 6.34375 30.7536 6.34375 36.25C6.34375 41.7464 10.8161 46.2188 16.3125 46.2188ZM16.3125 44.4062C14.3894 44.4062 12.6232 43.7338 11.2275 42.6164L16.6877 37.1562H24.4153C23.9631 41.228 20.503 44.4062 16.3125 44.4062ZM22.6789 31.165C23.6178 32.3386 24.2404 33.7732 24.4153 35.3438H18.5002L22.6789 31.165ZM21.3975 29.8836L16.3125 34.9686L11.2275 29.8836C12.6232 28.7662 14.3894 28.0938 16.3125 28.0938C18.2356 28.0938 20.0018 28.7662 21.3975 29.8836ZM9.94609 31.165L15.0311 36.25L9.94609 41.335C8.82869 39.9393 8.15625 38.1731 8.15625 36.25C8.15625 34.3269 8.82869 32.5607 9.94609 31.165Z" fill="black"/>
<path d="M4.53125 48.0312H6.34375V49.8438H4.53125V48.0312Z" fill="black"/>
<path d="M8.15625 48.0312H28.0938V49.8438H8.15625V48.0312Z" fill="black"/>
<path d="M4.53125 51.6562H9.96875V53.4688H4.53125V51.6562Z" fill="black"/>
<path d="M11.7812 51.6562H28.0938V53.4688H11.7812V51.6562Z" fill="black"/>
</svg>
