<svg width="37" height="37" viewBox="0 0 37 37" fill="none" xmlns="http://www.w3.org/2000/svg">
<path d="M35.9138 11.5772H30.1212C29.5024 11.5772 28.9627 12.0444 28.9627 12.6634V13.8942H22.5909C21.9721 13.8942 21.4324 14.3614 21.4324 14.9804V27.217H1.15851C1.13847 27.217 1.08624 27.1648 1.08624 27.1448V24.8278H20.2739V23.7415H1.08624V5.13312C1.08624 5.11308 1.13847 5.13312 1.15851 5.13312H32.4382C32.4583 5.13312 32.4382 5.11308 32.4382 5.13312V10.3464H33.5245V5.13312C33.5245 4.51406 33.0573 4.04688 32.4382 4.04688H1.15851C0.539734 4.04688 0 4.51406 0 5.13312V27.1448C0 27.7635 0.539734 28.3033 1.15851 28.3033H13.3228V31.8511H11.0058V32.9373H22.5909V31.8511H20.2016V28.3033H21.4324V29.4618C21.4324 30.0806 21.9721 30.6203 22.5909 30.6203H32.4382C33.0573 30.6203 33.5245 30.0806 33.5245 29.4618V25.407H35.9138C36.5328 25.407 37 24.8673 37 24.2485V12.6634C37 12.0444 36.5328 11.5772 35.9138 11.5772ZM19.1154 31.8511H14.4091V28.3033H19.1154V31.8511ZM30.1212 12.6634H35.9138C35.9338 12.6634 35.9138 12.6434 35.9138 12.6634V13.8942H30.049V12.6634C30.049 12.6434 30.1015 12.6634 30.1212 12.6634ZM30.049 14.9804H35.9138V22.0038H30.049V14.9804ZM32.4382 29.5341H22.5909C22.5712 29.5341 22.5186 29.4818 22.5186 29.4618V28.3033H32.4382V29.4618C32.4382 29.4818 32.4583 29.5341 32.4382 29.5341ZM32.4382 27.217H22.5186V14.9804C22.5186 14.9604 22.5712 14.9804 22.5909 14.9804H28.9627V24.2485C28.9627 24.8673 29.5024 25.407 30.1212 25.407H32.4382V27.217ZM35.9138 24.3208H30.1212C30.1015 24.3208 30.049 24.2685 30.049 24.2485V23.09H35.9138V24.2485C35.9138 24.2685 35.9338 24.3208 35.9138 24.3208Z" fill="#F65D2D"/>
<path d="M13.9023 21.4246H15.0609V22.5108H13.9023V21.4246Z" fill="#F65D2D"/>
<path d="M16.2188 21.4246H17.3773V22.5108H16.2188V21.4246Z" fill="#F65D2D"/>
<path d="M18.5361 21.4246H19.6946V22.5108H18.5361V21.4246Z" fill="#F65D2D"/>
<path d="M3.40363 9.18802V7.45026H5.21365V6.36401H2.31738V9.18802H3.40363Z" fill="#F65D2D"/>
<path d="M23.1699 17.8768H24.2562V16.7183H25.4869V15.6321H23.1699V17.8768Z" fill="#F65D2D"/>
<path d="M30.7002 15.6321V17.8768H31.7864V16.7183H33.0172V15.6321H30.7002Z" fill="#F65D2D"/>
</svg>
