<svg width="59" height="58" viewBox="0 0 59 58" fill="none" xmlns="http://www.w3.org/2000/svg">
<path d="M55.0657 0H3.93433C1.76504 0 0 1.76516 0 3.93433V36.3833C0 36.926 0.440541 37.3666 0.983295 37.3666H58.0166C58.5593 37.3666 58.9999 36.926 58.9999 36.3833V3.93433C59 1.76516 57.235 0 55.0657 0ZM57.0333 35.4H1.9667V3.93433C1.9667 2.84871 2.84975 1.9667 3.93433 1.9667H55.0657C56.1503 1.9667 57.0333 2.84871 57.0333 3.93433V35.4Z" fill="white"/>
<path d="M58.0167 35.3999H0.983295C0.440541 35.3999 0 35.8404 0 36.3832V41.2989C0 43.4682 1.76504 45.2332 3.93433 45.2332H55.0657C57.235 45.2332 59 43.4682 59 41.2989V36.3832C59 35.8404 58.5595 35.3999 58.0167 35.3999ZM57.0333 41.299C57.0333 42.3846 56.1503 43.2666 55.0657 43.2666H3.93433C2.84975 43.2666 1.9667 42.3846 1.9667 41.299V37.3666H57.0334V41.299H57.0333Z" fill="white"/>
<path d="M32.4497 39.3334H26.5497C26.0069 39.3334 25.5664 39.7739 25.5664 40.3167C25.5664 40.8594 26.0069 41.3 26.5497 41.3H32.4497C32.9925 41.3 33.433 40.8594 33.433 40.3167C33.433 39.7739 32.9925 39.3334 32.4497 39.3334Z" fill="white"/>
<path d="M54.0835 3.93347H4.91689C4.37413 3.93347 3.93359 4.37401 3.93359 4.91677V36.3835C3.93359 36.9262 4.37413 37.3668 4.91689 37.3668H54.0836C54.6264 37.3668 55.0669 36.9262 55.0669 36.3835V4.91677C55.0669 4.37401 54.6264 3.93347 54.0835 3.93347ZM53.1002 35.4001H5.90018V5.90006H53.1002V35.4001Z" fill="white"/>
<path d="M42.2832 51.1335H16.7166C15.0902 51.1335 13.7666 52.4571 13.7666 54.0835C13.7666 55.71 15.0902 57.0335 16.7166 57.0335H42.2833C43.9097 57.0335 45.2333 55.71 45.2333 54.0835C45.2333 52.4571 43.9096 51.1335 42.2832 51.1335ZM42.2832 55.0668H16.7166C16.1738 55.0668 15.7333 54.6254 15.7333 54.0835C15.7333 53.5417 16.1738 53.1003 16.7166 53.1003H42.2833C42.8261 53.1003 43.2666 53.5417 43.2666 54.0835C43.2666 54.6254 42.8261 55.0668 42.2832 55.0668Z" fill="white"/>
<path d="M40.3168 51.1334C37.054 51.1334 35.4001 48.8177 35.4001 44.2501C35.4001 43.7074 34.9595 43.2668 34.4168 43.2668H24.5835C24.0407 43.2668 23.6002 43.7074 23.6002 44.2501C23.6002 48.8177 21.9462 51.1334 18.6835 51.1334C18.1407 51.1334 17.7002 51.574 17.7002 52.1167C17.7002 52.6595 18.1407 53.1 18.6835 53.1H40.3168C40.8595 53.1 41.3001 52.6595 41.3001 52.1167C41.3001 51.574 40.8595 51.1334 40.3168 51.1334ZM23.4732 51.1334C24.6837 49.7922 25.3966 47.795 25.5402 45.2334H33.4609C33.6035 47.795 34.3164 49.7922 35.5279 51.1334H23.4732Z" fill="white"/>
<path d="M46.9873 28.9729L44.6136 26.5992L45.9342 25.2786C46.179 25.0337 46.2773 24.6778 46.1927 24.3424C46.1082 24.0071 45.8535 23.7416 45.5221 23.6414L35.6888 20.6914C35.3417 20.5871 34.9671 20.6825 34.7114 20.9382C34.4547 21.1939 34.3604 21.5694 34.4645 21.9156L37.4145 31.7489C37.5139 32.0812 37.7803 32.3359 38.1156 32.4205C38.4499 32.5031 38.8069 32.4067 39.0518 32.1619L40.4422 30.7704L42.8159 33.1452C42.9998 33.33 43.2506 33.4333 43.5111 33.4333C43.7717 33.4333 44.0224 33.33 44.2063 33.1452L46.9872 30.3633C47.3717 29.9789 47.3717 29.3574 46.9873 28.9729ZM43.5111 31.0596L41.3498 28.8972C41.099 28.6464 40.7706 28.5215 40.4422 28.5215C40.1127 28.5215 39.7843 28.6474 39.5346 28.8962L38.8246 29.6061L36.8727 23.0994L43.3794 25.0514L42.6183 25.8125C42.4088 26.0229 42.2938 26.3022 42.2938 26.5992C42.2938 26.8972 42.4098 27.1784 42.6202 27.3868L44.9015 29.6681L43.5111 31.0596Z" fill="white"/>
<path d="M41.2998 7.8667H13.7665C13.2237 7.8667 12.7832 8.30724 12.7832 8.84999V13.7667C12.7832 14.3095 13.2237 14.75 13.7665 14.75H41.2998C41.8425 14.75 42.2831 14.3095 42.2831 13.7667V8.84999C42.2831 8.30724 41.8425 7.8667 41.2998 7.8667ZM40.3165 12.7834H14.7498V9.8334H40.3165V12.7834Z" fill="white"/>
<path d="M25.5668 18.6835H17.7001C17.1573 18.6835 16.7168 19.124 16.7168 19.6668V23.6001C16.7168 24.1428 17.1573 24.5834 17.7001 24.5834H25.5668C26.1096 24.5834 26.5501 24.1428 26.5501 23.6001V19.6668C26.5501 19.124 26.1096 18.6835 25.5668 18.6835ZM24.5834 22.6168H18.6834V20.6501H24.5834V22.6168Z" fill="white"/>
<path d="M41.2998 7.8667H13.7665C13.2237 7.8667 12.7832 8.30724 12.7832 8.84999V27.5333C12.7832 28.076 13.2237 28.5166 13.7665 28.5166H37.1758C37.4875 28.5166 37.7795 28.3701 37.9644 28.1203C38.1503 27.8706 38.2074 27.548 38.1178 27.25L36.873 23.0994L41.0177 24.3434C41.3157 24.4329 41.6382 24.3759 41.8869 24.19C42.1366 24.0052 42.2832 23.7121 42.2832 23.4013V8.84999C42.2831 8.30724 41.8425 7.8667 41.2998 7.8667ZM40.3165 22.0798L35.6879 20.6914C35.3408 20.5871 34.9662 20.6825 34.7105 20.9382C34.4538 21.1948 34.3595 21.5694 34.4636 21.9167L35.854 26.5501H14.7498V9.8334H40.3165V22.0798Z" fill="white"/>
</svg>
