<svg width="64" height="64" viewBox="0 0 64 64" fill="none" xmlns="http://www.w3.org/2000/svg">
<g clip-path="url(#clip0)">
<path d="M45.8489 17.3298L44.4873 12.6655C44.1801 11.6133 43.2154 10.89 42.1193 10.89H24.3805C23.2844 10.89 22.3197 11.6134 22.0125 12.6655L20.66 17.2988C20.4775 17.924 19.9606 18.3948 19.3211 18.5183L3.435 21.5849C1.985 21.8648 0.9375 23.1339 0.9375 24.6106V51.4208C0.9375 53.1226 2.31712 54.5024 4.01912 54.5024H59.9809C61.6827 54.5024 63.0625 53.1228 63.0625 51.4208V24.5406C63.0625 23.0955 62.0584 21.8446 60.6475 21.532L47.1413 18.5395C46.522 18.4023 46.0266 17.9386 45.8489 17.3298Z" fill="#818181"/>
<path d="M41.8425 11.9405L43.2042 16.6856C43.3819 17.3051 43.8773 17.7768 44.4965 17.9164L46.8532 18.4475C46.3714 18.248 45.9985 17.8404 45.8494 17.3296L44.4878 12.6654C44.1807 11.6131 43.2159 10.8899 42.1198 10.8899H41.2383C41.515 11.1776 41.7262 11.5349 41.8425 11.9405Z" fill="#595959"/>
<path d="M60.6478 21.5318L58.0026 20.9606C59.4134 21.2786 60.4176 22.5512 60.4176 24.0213V51.3672C60.4176 53.0986 59.0379 54.5022 57.3359 54.5022H59.9812C61.6831 54.5022 63.0628 53.1226 63.0628 51.4206V24.5406C63.0628 23.0954 62.0587 21.8444 60.6478 21.5318Z" fill="#595959"/>
<path d="M8.2535 54.5022H4.01912C2.31725 54.5022 0.9375 53.1226 0.9375 51.4206V24.6106C0.9375 23.1338 1.98512 21.8647 3.435 21.5848L7.572 20.7862C9.79037 20.3579 11.8495 22.0576 11.8495 24.3169V50.9063C11.8495 52.8923 10.2395 54.5022 8.2535 54.5022Z" fill="#595959"/>
<path d="M7.57184 20.7862L7.00796 20.8951C8.42984 21.3586 9.49334 22.6932 9.49334 24.3169V50.9063C9.49334 52.8923 7.88334 54.5022 5.89746 54.5022H8.25346C10.2395 54.5022 11.8493 52.8922 11.8493 50.9063V24.3169C11.8495 22.0576 9.79034 20.3579 7.57184 20.7862Z" fill="#454545"/>
<path d="M32.8515 54.4086C42.5148 54.4086 50.3485 46.5749 50.3485 36.9115C50.3485 27.2482 42.5148 19.4146 32.8515 19.4146C23.1882 19.4146 15.3545 27.2482 15.3545 36.9115C15.3545 46.5749 23.1882 54.4086 32.8515 54.4086Z" fill="#595959"/>
<path d="M32.8515 50.5638C40.3914 50.5638 46.5037 44.4515 46.5037 36.9115C46.5037 29.3716 40.3914 23.2593 32.8515 23.2593C25.3115 23.2593 19.1992 29.3716 19.1992 36.9115C19.1992 44.4515 25.3115 50.5638 32.8515 50.5638Z" fill="#F1F1F4"/>
<path d="M32.8513 23.2592C32.4339 23.2592 32.0212 23.2789 31.6133 23.3157C38.5729 23.9414 44.0275 29.7889 44.0275 36.9115C44.0275 44.034 38.5729 49.8817 31.6133 50.5074C32.0212 50.544 32.4339 50.5639 32.8513 50.5639C40.3913 50.5639 46.5035 44.4515 46.5035 36.9117C46.5035 29.3715 40.3913 23.2592 32.8513 23.2592Z" fill="#DFDDE2"/>
<path d="M32.8521 46.3516C38.0657 46.3516 42.2921 42.1251 42.2921 36.9116C42.2921 31.698 38.0657 27.4716 32.8521 27.4716C27.6385 27.4716 23.4121 31.698 23.4121 36.9116C23.4121 42.1251 27.6385 46.3516 32.8521 46.3516Z" fill="#B1E4F9"/>
<path d="M32.8519 27.4716C32.398 27.4716 31.9524 27.5056 31.5156 27.5674C36.0961 28.2168 39.6194 32.1518 39.6194 36.9116C39.6194 41.6713 36.0961 45.6063 31.5156 46.2557C31.9524 46.3176 32.3981 46.3516 32.8519 46.3516C38.0654 46.3516 42.2919 42.1252 42.2919 36.9116C42.2919 31.6979 38.0655 27.4716 32.8519 27.4716Z" fill="#90D8F9"/>
<path d="M55.119 28.1077C56.1825 28.1077 57.0446 27.2456 57.0446 26.1821C57.0446 25.1186 56.1825 24.2565 55.119 24.2565C54.0555 24.2565 53.1934 25.1186 53.1934 26.1821C53.1934 27.2456 54.0555 28.1077 55.119 28.1077Z" fill="#B1E4F9"/>
<path d="M16.0994 19.1401V17.329C16.0994 16.6063 15.4402 16.0632 14.731 16.2012L9.07586 17.3018C8.53611 17.4068 8.14648 17.8797 8.14648 18.4296V20.6753L16.0994 19.1401Z" fill="#454545"/>
<path d="M53.6693 33.1172H49.9346C50.2047 34.3391 50.3484 35.6084 50.3484 36.9116C50.3484 38.2147 50.2048 39.4841 49.9346 40.7059H53.6693C55.7649 40.7059 57.4637 39.0072 57.4637 36.9116C57.4637 34.8159 55.7648 33.1172 53.6693 33.1172Z" fill="#F1F1F4"/>
<path d="M22.4746 36.9114C22.4746 42.6336 27.1299 47.2891 32.8521 47.2891C38.5744 47.2891 43.2297 42.6337 43.2297 36.9114C43.2297 31.1892 38.5744 26.5339 32.8521 26.5339C27.1299 26.5339 22.4746 31.1893 22.4746 36.9114ZM32.8521 28.4089C37.5405 28.4089 41.3547 32.2232 41.3547 36.9114C41.3547 41.5998 37.5405 45.4141 32.8521 45.4141C28.1639 45.4141 24.3496 41.5998 24.3496 36.9114C24.3496 32.2232 28.1639 28.4089 32.8521 28.4089Z" fill="black"/>
<path d="M27.5068 37.8489C28.0246 37.8489 28.4443 37.4293 28.4443 36.9114C28.4443 34.4812 30.4216 32.5038 32.8518 32.5038C33.3697 32.5038 33.7893 32.0842 33.7893 31.5663C33.7893 31.0484 33.3697 30.6288 32.8518 30.6288C29.3877 30.6288 26.5693 33.447 26.5693 36.9113C26.5693 37.4293 26.9891 37.8489 27.5068 37.8489Z" fill="black"/>
<path d="M52.127 48.3849C51.6091 48.3849 51.1895 48.8045 51.1895 49.3224C51.1895 49.8403 51.6091 50.2599 52.127 50.2599H57.8009C58.3188 50.2599 58.7384 49.8403 58.7384 49.3224C58.7384 48.8045 58.3188 48.3849 57.8009 48.3849H52.127Z" fill="black"/>
<path d="M52.2559 26.1821C52.2559 27.7608 53.5401 29.0452 55.1189 29.0452C56.6976 29.0452 57.982 27.7608 57.982 26.1821C57.982 24.6033 56.6976 23.319 55.1189 23.319C53.5401 23.319 52.2559 24.6033 52.2559 26.1821ZM56.1071 26.1821C56.1071 26.727 55.6639 27.1702 55.119 27.1702C54.5742 27.1702 54.131 26.727 54.131 26.1821C54.131 25.6372 54.5742 25.194 55.119 25.194C55.6639 25.194 56.1071 25.6372 56.1071 26.1821Z" fill="black"/>
<path d="M28.3887 13.3672C27.8709 13.3672 27.4512 13.7869 27.4512 14.3047C27.4512 14.8224 27.8709 15.2422 28.3887 15.2422H38.1111C38.6289 15.2422 39.0486 14.8224 39.0486 14.3047C39.0486 13.7869 38.6289 13.3672 38.1111 13.3672H28.3887Z" fill="black"/>
<path d="M9.47687 26.1333C9.26137 25.6624 8.70487 25.4553 8.23437 25.6709C6.99549 26.2377 5.79112 26.2377 4.55237 25.6709C4.08174 25.4553 3.52537 25.6624 3.30987 26.1333C3.09437 26.6042 3.30149 27.1604 3.77224 27.3758C4.64187 27.7738 5.51762 27.9727 6.39337 27.9727C7.26912 27.9727 8.14487 27.7737 9.01449 27.3758C9.48524 27.1604 9.69237 26.6042 9.47687 26.1333Z" fill="black"/>
<path d="M23.5742 17.1389V17.1705C23.5742 17.6883 23.994 18.108 24.5117 18.108C25.0295 18.108 25.4492 17.6883 25.4492 17.1705V17.1389C25.4492 16.6212 25.0295 16.2014 24.5117 16.2014C23.994 16.2014 23.5742 16.6212 23.5742 17.1389Z" fill="black"/>
<path d="M41.0508 17.1389V17.1705C41.0508 17.6883 41.4704 18.108 41.9883 18.108C42.5062 18.108 42.9258 17.6883 42.9258 17.1705V17.1389C42.9258 16.6212 42.5062 16.2014 41.9883 16.2014C41.4704 16.2014 41.0508 16.6212 41.0508 17.1389Z" fill="black"/>
<path d="M5.45605 42.6481V50.4808C5.45605 50.9987 5.8758 51.4183 6.39355 51.4183C6.9113 51.4183 7.33105 50.9987 7.33105 50.4808V42.6481C7.33105 42.1302 6.9113 41.7106 6.39355 41.7106C5.8758 41.7106 5.45605 42.1302 5.45605 42.6481Z" fill="black"/>
<path d="M47.4413 36.9114C47.4413 33.4396 46.2008 30.0757 43.9485 27.4397C41.7215 24.8333 38.6426 23.0876 35.279 22.5239C34.7671 22.4386 34.2851 22.7831 34.1995 23.2937C34.1138 23.8043 34.4585 24.2877 34.9691 24.3732C37.8988 24.8641 40.5816 26.3858 42.5231 28.6577C44.4856 30.9546 45.5665 33.8858 45.5665 36.9114C45.5665 43.9224 39.8626 49.6263 32.8516 49.6263C25.8407 49.6263 20.1368 43.9224 20.1368 36.9114C20.1368 30.4002 25.0116 24.9661 31.4758 24.2709C31.9906 24.2156 32.3631 23.7533 32.3077 23.2386C32.2523 22.7238 31.7907 22.3513 31.2753 22.4067C23.8563 23.2043 18.2617 29.4401 18.2617 36.9114C18.2617 44.9563 24.8066 51.5013 32.8515 51.5013C40.8963 51.5013 47.4413 44.9563 47.4413 36.9114Z" fill="black"/>
<path d="M63.0625 29.6297C63.5804 29.6297 64 29.2099 64 28.6922V24.5406C64 22.6411 62.7049 21.0274 60.8504 20.6166L54.1309 19.1278V18.4474C54.1309 17.9297 53.7113 17.5099 53.1934 17.5099C52.6755 17.5099 52.2559 17.9297 52.2559 18.4474V18.7124L47.3441 17.6242C47.0589 17.5609 46.8309 17.3474 46.7489 17.0669L45.3872 12.4026C44.966 10.9598 43.6221 9.95218 42.1193 9.95218H39.5225V9.49768C39.5225 8.97993 39.1029 8.56018 38.585 8.56018C38.0671 8.56018 37.6475 8.97993 37.6475 9.49768V9.95218H28.8524V9.49768C28.8524 8.97993 28.4326 8.56018 27.9149 8.56018C27.3971 8.56018 26.9774 8.97993 26.9774 9.49768V9.95218H24.3806C22.8778 9.95218 21.5339 10.9598 21.1126 12.4026L19.7603 17.0357C19.6758 17.3249 19.4395 17.5402 19.1435 17.5974L17.0366 18.0042V17.3288C17.0366 16.7033 16.7598 16.1164 16.2771 15.7187C15.7944 15.3209 15.1655 15.1614 14.5516 15.2808L8.8965 16.3816C7.9185 16.5718 7.20875 17.4332 7.20875 18.4294V19.9013L3.25725 20.6641C1.36988 21.0287 0 22.6883 0 24.6106V51.4206C0 53.6367 1.803 55.4397 4.01912 55.4397H59.9809C62.197 55.4397 63.9999 53.6367 63.9999 51.4206V32.4404C63.9999 31.9227 63.5802 31.5029 63.0624 31.5029C62.5445 31.5029 62.1249 31.9227 62.1249 32.4404V51.4206C62.1249 52.6028 61.1631 53.5647 59.9809 53.5647H40.7536C45.5891 51.2609 49.2696 46.9119 50.6701 41.6433H53.6698C56.2789 41.6433 58.4015 39.5207 58.4015 36.9114C58.4015 34.3023 56.2789 32.1797 53.6698 32.1797H50.6696C48.5752 24.3003 41.3812 18.4769 32.8517 18.4769C22.687 18.4769 14.4172 26.7467 14.4172 36.9114C14.4172 44.2502 18.7283 50.6006 24.9505 53.5648H11.9224C12.4655 52.8173 12.787 51.8989 12.787 50.9063V49.1191C12.787 48.6012 12.3672 48.1816 11.8495 48.1816C11.3317 48.1816 10.912 48.6012 10.912 49.1191V50.9063C10.912 52.3722 9.71937 53.5648 8.2535 53.5648H4.01912C2.83687 53.5648 1.875 52.6029 1.875 51.4207V24.6107C1.875 23.5852 2.60575 22.6998 3.61262 22.5054L7.74963 21.7068H7.74975C8.5315 21.5559 9.332 21.7602 9.94588 22.2668C10.5599 22.7737 10.912 23.5209 10.912 24.3171V45.3708C10.912 45.8887 11.3317 46.3083 11.8495 46.3083C12.3672 46.3083 12.787 45.8887 12.787 45.3708V24.3171C12.787 23.0556 12.2679 21.8664 11.3544 21.0109L16.2769 20.0607C16.2773 20.0607 16.2775 20.0606 16.2779 20.0604L19.499 19.4386C20.488 19.2477 21.2778 18.5283 21.5601 17.5613L22.9125 12.9281C23.1018 12.2799 23.7054 11.8273 24.3806 11.8273H42.1194C42.7945 11.8273 43.3981 12.2801 43.5875 12.9281L44.9491 17.5923C45.2227 18.5298 45.9851 19.2434 46.9386 19.4547L53.0013 20.7979C53.0029 20.7983 53.0044 20.7987 53.006 20.7989L60.4448 22.4471C61.434 22.6662 62.1249 23.5271 62.1249 24.5404V28.6921C62.125 29.2099 62.5446 29.6297 63.0625 29.6297ZM53.6698 34.0547C55.245 34.0547 56.5265 35.3363 56.5265 36.9114C56.5265 38.4868 55.2449 39.7683 53.6698 39.7683H51.0653C51.2108 38.8371 51.2863 37.8828 51.2863 36.9114C51.2863 35.9399 51.2101 34.9859 51.0646 34.0547H53.6698ZM16.2922 36.9114C16.2922 27.7806 23.7209 20.3519 32.8517 20.3519C41.9827 20.3519 49.4114 27.7806 49.4114 36.9114C49.4114 46.0424 41.9827 53.4711 32.8517 53.4711C23.7209 53.4711 16.2922 46.0424 16.2922 36.9114ZM9.08375 18.4296C9.08375 18.3286 9.15563 18.2414 9.25475 18.2221L14.9099 17.1213C14.9249 17.1184 14.9391 17.1171 14.9526 17.1171C15.0118 17.1171 15.056 17.1421 15.0846 17.1657C15.1198 17.1946 15.1616 17.2464 15.1616 17.3288V18.3661L9.08375 19.5393V18.4296Z" fill="black"/>
</g>
<defs>
<clipPath id="clip0">
<rect width="64" height="64" fill="white"/>
</clipPath>
</defs>
</svg>
