<svg width="16" height="16" viewBox="0 0 16 16" fill="none" xmlns="http://www.w3.org/2000/svg">
<path d="M0.561633 7.64728H7.71265C7.96408 6.61218 8.89796 5.84157 10.0114 5.84157C11.1249 5.84157 12.0555 6.61218 12.3102 7.64728H15.4384C15.7486 7.64728 16 7.89871 16 8.20892C16 8.51912 15.7486 8.76728 15.4384 8.76728H12.3102C12.0588 9.80239 11.1249 10.573 10.0114 10.573C8.89796 10.573 7.96735 9.80239 7.71265 8.76728H0.561633C0.251429 8.76728 0 8.51586 0 8.20892C0.00326531 7.89545 0.254694 7.64728 0.561633 7.64728ZM10.0114 9.44973C10.6971 9.44973 11.2555 8.89137 11.2555 8.20565C11.2555 7.51994 10.6971 6.96157 10.0114 6.96157C9.32571 6.96157 8.76408 7.51994 8.76408 8.20565C8.76408 8.89137 9.32245 9.44973 10.0114 9.44973Z" fill="white"/>
<path d="M0.561633 2.21711H3.99347C4.2449 1.18201 5.17878 0.411394 6.29224 0.411394C7.40571 0.411394 8.33633 1.18201 8.59102 2.21711H15.4384C15.7486 2.21711 16 2.46854 16 2.77548C16 3.08568 15.7486 3.33711 15.4384 3.33711H8.59102C8.33959 4.37221 7.40571 5.14282 6.29224 5.14282C5.17878 5.14282 4.24816 4.37221 3.99347 3.33711H0.561633C0.251429 3.33711 0 3.08568 0 2.77548C0.00326531 2.46854 0.254694 2.21711 0.561633 2.21711ZM6.29224 4.02282C6.97796 4.02282 7.53633 3.46445 7.53633 2.77874C7.53633 2.09303 6.97796 1.53466 6.29224 1.53466C5.61633 1.53466 5.06449 2.0767 5.04816 2.75262C5.04816 2.76241 5.04816 2.77221 5.04816 2.78201C5.04816 2.7918 5.04816 2.8016 5.04816 2.81139C5.06449 3.48078 5.61633 4.02282 6.29224 4.02282Z" fill="white"/>
<path d="M0.561633 13.0743H3.99347C4.2449 12.0392 5.17878 11.2686 6.29224 11.2686C7.40571 11.2686 8.33633 12.0392 8.59102 13.0743H15.4384C15.7486 13.0743 16 13.3257 16 13.6359C16 13.9461 15.7486 14.1943 15.4384 14.1943H8.59102C8.33959 15.2294 7.40571 16 6.29224 16C5.17878 16 4.24816 15.2294 3.99347 14.1943H0.561633C0.251429 14.1943 0 13.9429 0 13.6359C0.00326531 13.3257 0.254694 13.0743 0.561633 13.0743ZM6.29224 14.88C6.97796 14.88 7.53633 14.3216 7.53633 13.6359C7.53633 12.9502 6.97796 12.3918 6.29224 12.3918C5.61633 12.3918 5.06449 12.9339 5.04816 13.6098C5.04816 13.6196 5.04816 13.6294 5.04816 13.6392C5.04816 13.649 5.04816 13.6588 5.04816 13.6686C5.06449 14.3347 5.61633 14.88 6.29224 14.88Z" fill="white"/>
</svg>
