<svg width="81" height="81" viewBox="0 0 81 81" fill="none" xmlns="http://www.w3.org/2000/svg">
<path d="M40.4166 80.6687C62.5782 80.6687 80.5437 62.7032 80.5437 40.5416C80.5437 18.3801 62.5782 0.414551 40.4166 0.414551C18.2551 0.414551 0.289551 18.3801 0.289551 40.5416C0.289551 62.7032 18.2551 80.6687 40.4166 80.6687Z" fill="#3CA4FF"/>
<path d="M40.4165 30.2521C34.7561 30.2521 30.127 34.8583 30.127 40.5417C30.127 46.2021 34.7332 50.8313 40.4165 50.8313C46.077 50.8313 50.7061 46.225 50.7061 40.5417C50.7061 34.8583 46.0999 30.2521 40.4165 30.2521ZM40.4165 48.9062C35.8103 48.9062 32.0519 45.1479 32.0519 40.5417C32.0519 35.9354 35.8103 32.1771 40.4165 32.1771C45.0228 32.1771 48.7811 35.9354 48.7811 40.5417C48.804 45.1479 45.0457 48.9062 40.4165 48.9062Z" fill="#D7E6FF"/>
<path d="M66.4728 35.3625C66.4728 34.8354 66.0374 34.4 65.5103 34.4H63.3562C62.8291 32.3834 62.027 30.4584 60.9728 28.6479L62.4853 27.1354C62.852 26.7688 62.852 26.15 62.4853 25.7834L55.152 18.45C54.7853 18.0834 54.1666 18.0834 53.7999 18.45L52.2874 19.9625C50.477 18.9084 48.552 18.1292 46.5353 17.5792V15.425C46.5353 14.8979 46.0999 14.4625 45.5728 14.4625H35.2145C34.6874 14.4625 34.252 14.8979 34.252 15.425V17.5792C32.2354 18.1063 30.3104 18.9084 28.4999 19.9625L27.0103 18.45C26.827 18.2667 26.5978 18.175 26.3229 18.175C26.0708 18.175 25.8187 18.2667 25.6354 18.45L18.302 25.7834C17.9354 26.15 17.9354 26.7688 18.302 27.1354L19.8145 28.6479C18.7604 30.4584 17.9812 32.3834 17.4312 34.4H15.3229C14.7958 34.4 14.3604 34.8354 14.3604 35.3625V45.7209C14.3604 46.2479 14.7958 46.6834 15.3229 46.6834H17.477C18.0041 48.7 18.8062 50.625 19.8604 52.4354L18.3479 53.948C18.1645 54.1313 18.0728 54.3604 18.0728 54.6354C18.0728 54.8875 18.1645 55.1396 18.3479 55.323L25.6812 62.6563C26.0478 63.0229 26.6666 63.0229 27.0333 62.6563L28.5458 61.1438C30.3562 62.198 32.2812 62.9771 34.2978 63.5271V65.6813C34.2978 66.2084 34.7333 66.6438 35.2603 66.6438H45.6187C46.1458 66.6438 46.5812 66.2084 46.5812 65.6813V63.5271C48.5978 63 50.5228 62.198 52.3333 61.1438L53.8458 62.6563C54.2124 63.0229 54.8312 63.0229 55.1978 62.6563L62.5312 55.323C62.7145 55.1396 62.8062 54.9104 62.8062 54.6354C62.8062 54.3834 62.7145 54.1313 62.5312 53.948L61.0187 52.4354C62.0728 50.625 62.852 48.7 63.402 46.6834H65.5562C65.8083 46.6834 66.0603 46.5917 66.2437 46.4084C66.427 46.225 66.5187 45.9959 66.5187 45.7209L66.4728 35.3625ZM62.6228 44.7584C62.1874 44.7584 61.7978 45.0563 61.6832 45.4917C61.1332 47.8292 60.2166 50.0292 58.9562 52.0459C58.727 52.4125 58.7728 52.9167 59.0937 53.2375L60.4687 54.6125L54.5103 60.5938L53.1353 59.2188C52.8145 58.8979 52.3332 58.8521 51.9437 59.0813C49.927 60.3417 47.7041 61.2584 45.3895 61.8084C44.9541 61.9 44.6562 62.2896 44.6562 62.7479V64.6959H36.1999V62.7479C36.1999 62.3125 35.902 61.923 35.4666 61.8084C33.1291 61.2584 30.9291 60.3417 28.9124 59.0813C28.5458 58.8521 28.0416 58.8979 27.7208 59.2188L26.3458 60.5938L20.3645 54.6125L21.7395 53.2375C22.0604 52.9167 22.1062 52.4355 21.877 52.0459C20.6166 50.0292 19.6999 47.8063 19.1499 45.4917C19.0583 45.0563 18.6687 44.7584 18.2104 44.7584H16.2624V36.3021H18.2104C18.6458 36.3021 19.0354 36.0042 19.1499 35.5688C19.6999 33.2313 20.6166 31.0313 21.877 29.0146C22.1062 28.6479 22.0604 28.1438 21.7395 27.8229L20.3645 26.4479L26.3458 20.4667L27.7208 21.8417C28.0416 22.1625 28.5229 22.2084 28.9124 21.9792C30.9291 20.7188 33.152 19.8021 35.4666 19.2521C35.902 19.1604 36.1999 18.7709 36.1999 18.3125V16.3646H44.6562V18.3125C44.6562 18.7479 44.9541 19.1375 45.3895 19.2521C47.727 19.8021 49.927 20.7188 51.9437 21.9792C52.3103 22.2084 52.8145 22.1625 53.1353 21.8417L54.5103 20.4667L60.4916 26.4479L59.1166 27.8229C58.7958 28.1438 58.7499 28.625 58.9791 29.0146C60.2395 31.0313 61.1562 33.2542 61.7062 35.5688C61.7978 36.0042 62.1874 36.3021 62.6458 36.3021H64.5937V44.7584H62.6228Z" fill="#D7E6FF"/>
<path d="M40.4164 26.3792C32.6018 26.3792 26.2539 32.7271 26.2539 40.5417C26.2539 48.3562 32.6018 54.7041 40.4164 54.7041C48.231 54.7041 54.5789 48.3562 54.5789 40.5417C54.5789 32.7271 48.231 26.3792 40.4164 26.3792ZM40.4164 52.7792C33.656 52.7792 28.1789 47.2792 28.1789 40.5417C28.1789 33.7812 33.6789 28.3042 40.4164 28.3042C47.1768 28.3042 52.6539 33.8042 52.6539 40.5417C52.6768 47.2792 47.1768 52.7792 40.4164 52.7792Z" fill="#D7E6FF"/>
</svg>
