<svg width="81" height="81" viewBox="0 0 81 81" fill="none" xmlns="http://www.w3.org/2000/svg">
<path d="M40.4166 80.6687C62.5782 80.6687 80.5437 62.7032 80.5437 40.5416C80.5437 18.3801 62.5782 0.414551 40.4166 0.414551C18.2551 0.414551 0.289551 18.3801 0.289551 40.5416C0.289551 62.7032 18.2551 80.6687 40.4166 80.6687Z" fill="#4A83EF"/>
<path d="M67.6188 34.3541C67.5043 34.0333 67.2292 33.8041 66.8855 33.7583L48.5064 32.0854L41.2188 15.1271C41.0813 14.8062 40.7834 14.6 40.4168 14.6C40.0501 14.6 39.7522 14.8062 39.6147 15.1271L32.3272 32.0854L13.948 33.7583C13.6043 33.7812 13.3064 34.0333 13.2147 34.3541C13.1001 34.675 13.2147 35.0416 13.4668 35.2708L27.3314 47.4396L23.2522 65.4291C23.1834 65.7729 23.298 66.1166 23.5959 66.3229C23.8709 66.5291 24.2376 66.5521 24.5355 66.3687L40.3938 56.9271L56.2522 66.3687C56.3897 66.4604 56.5501 66.4833 56.6876 66.4833C56.8709 66.4833 57.0543 66.4375 57.1918 66.3229C57.4668 66.1166 57.6043 65.7729 57.5355 65.4291L53.4563 47.4396L67.3209 35.2708C67.6188 35.0416 67.7105 34.675 67.6188 34.3541ZM40.4168 17.6479L46.9022 32.7271L40.4168 40.1521L33.9314 32.7271L40.4168 17.6479ZM16.1251 35.2937L32.5793 33.7812L39.0189 41.1833L28.4543 46.1104L16.1251 35.2937ZM29.073 47.7146L39.5688 42.8333V55.4375L25.4293 63.8708L29.073 47.7146ZM55.4272 63.8479L41.2876 55.4146V42.8104L51.7834 47.6916L55.4272 63.8479ZM52.3793 46.1104L41.8147 41.1833L48.2543 33.7812L64.7084 35.2937L52.3793 46.1104Z" fill="#D7E6FF"/>
</svg>
