<svg width="25" height="25" viewBox="0 0 25 25" fill="none" xmlns="http://www.w3.org/2000/svg">
<g clip-path="url(#clip0)">
<path d="M24.9448 2.17305L24.8976 1.725C24.8033 0.805323 24.0487 0.0978754 23.1054 0.0271307L22.7281 0.00354912C21.5962 -0.043614 20.4879 0.380854 19.6861 1.18263L15.9131 4.9321L3.55632 4.90852C2.51873 4.90852 1.50472 5.33298 0.750111 6.08759L0.231316 6.60639C0.0662454 6.77146 -0.00449933 7.05444 0.0426638 7.29026C0.113409 7.52607 0.278479 7.71472 0.514295 7.78547L10.3478 10.4738L8.0604 12.7612L3.91004 12.9027C3.48557 12.9027 3.08469 13.0677 2.77813 13.3979L2.37724 13.7988C2.21217 13.9638 2.14142 14.2232 2.18859 14.4591C2.25933 14.6949 2.4244 14.8599 2.63664 14.9543L7.91891 16.9587L10.0412 22.4296C10.1356 22.6654 10.3478 22.8305 10.5836 22.8541C10.8194 22.8777 11.0317 22.8069 11.1967 22.6183L11.6212 22.1938C11.9042 21.9108 12.0693 21.5335 12.1164 21.0619L12.2579 16.888L14.5689 14.6241L17.2336 24.4812C17.3044 24.717 17.493 24.9057 17.7288 24.9764C17.7996 25 17.8467 25 17.9175 25C18.1061 25 18.2948 24.9293 18.4363 24.7878L18.9551 24.269C19.7097 23.5144 20.1342 22.5004 20.1342 21.4392V9.08245L23.7893 5.40373C24.6618 4.55479 25.0863 3.35213 24.9448 2.17305ZM23.129 4.74344L19.3088 8.56366C19.2145 8.65799 19.1673 8.77589 19.1673 8.8938V21.4392C19.1673 22.2646 18.8372 23.0192 18.2712 23.6087L18.0354 23.8445L15.2292 13.6337C15.182 13.4686 15.0641 13.3507 14.8991 13.3036C14.8519 13.3036 14.8283 13.28 14.7811 13.28C14.6632 13.28 14.5453 13.3271 14.451 13.4215L11.4326 16.3927C11.3382 16.4871 11.2911 16.5814 11.2911 16.7229L11.1496 21.0619C11.1496 21.2034 11.1024 21.4156 10.9373 21.5571L10.7723 21.7222L8.72068 16.4163C8.67352 16.2984 8.57919 16.2041 8.4377 16.1569L3.3205 14.1997L3.46199 14.0582C3.53274 13.9874 3.72139 13.8459 3.9572 13.8459L8.31979 13.7044C8.4377 13.7044 8.55561 13.6573 8.62635 13.563L11.6212 10.5681C11.7391 10.4502 11.7863 10.2851 11.7391 10.12C11.692 9.95497 11.574 9.83706 11.409 9.7899L1.17458 6.98369L1.41039 6.74788C1.97635 6.18192 2.75454 5.85178 3.55632 5.85178L16.1017 5.87536C16.2196 5.87536 16.3375 5.8282 16.4319 5.73387L20.3464 1.84291C20.9595 1.22979 21.8085 0.899649 22.681 0.946812L23.0583 0.970394C23.5299 0.993975 23.9072 1.37128 23.9544 1.81933L24.0015 2.26738C24.0959 3.18706 23.7893 4.08316 23.129 4.74344Z" fill="#F65D2D"/>
</g>
<defs>
<clipPath id="clip0">
<rect width="25" height="25" fill="white"/>
</clipPath>
</defs>
</svg>
