<svg width="16" height="16" viewBox="0 0 16 16" fill="none" xmlns="http://www.w3.org/2000/svg">
<mask id="path-2-inside-1" fill="white">
<path d="M12.7188 1H3.28125C1.47192 1 0 2.5053 0 4.35566V9.53845C0 11.0149 0.947876 12.3009 2.32141 12.7125L3.90613 14.3332C3.99414 14.4231 4.11328 14.4737 4.23767 14.4737C4.36194 14.4737 4.4812 14.4231 4.56909 14.3332L6.02283 12.8464H12.7188C14.5281 12.8464 16 11.3411 16 9.49076V4.35566C16 2.5053 14.5281 1 12.7188 1ZM15.0625 9.49076C15.0625 10.8124 14.0111 11.8877 12.7188 11.8877H5.82874C5.70447 11.8877 5.58521 11.9382 5.49731 12.0281L4.23767 13.3163L2.89612 11.9443C2.83594 11.8828 2.7605 11.8391 2.67786 11.8181C1.6532 11.5573 0.9375 10.6199 0.9375 9.53845V4.35566C0.9375 3.03399 1.98889 1.95876 3.28125 1.95876H12.7188C14.0111 1.95876 15.0625 3.03399 15.0625 4.35566V9.49076Z"/>
</mask>
<path d="M12.7188 1H3.28125C1.47192 1 0 2.5053 0 4.35566V9.53845C0 11.0149 0.947876 12.3009 2.32141 12.7125L3.90613 14.3332C3.99414 14.4231 4.11328 14.4737 4.23767 14.4737C4.36194 14.4737 4.4812 14.4231 4.56909 14.3332L6.02283 12.8464H12.7188C14.5281 12.8464 16 11.3411 16 9.49076V4.35566C16 2.5053 14.5281 1 12.7188 1ZM15.0625 9.49076C15.0625 10.8124 14.0111 11.8877 12.7188 11.8877H5.82874C5.70447 11.8877 5.58521 11.9382 5.49731 12.0281L4.23767 13.3163L2.89612 11.9443C2.83594 11.8828 2.7605 11.8391 2.67786 11.8181C1.6532 11.5573 0.9375 10.6199 0.9375 9.53845V4.35566C0.9375 3.03399 1.98889 1.95876 3.28125 1.95876H12.7188C14.0111 1.95876 15.0625 3.03399 15.0625 4.35566V9.49076Z" fill="#BDBDBD"/>
<path d="M2.32141 12.7125L3.03643 12.0134L2.85587 11.8287L2.60846 11.7545L2.32141 12.7125ZM3.90613 14.3332L3.19111 15.0323L3.19162 15.0329L3.90613 14.3332ZM4.56909 14.3332L5.28408 15.0324L5.28411 15.0323L4.56909 14.3332ZM6.02283 12.8464V11.8464H5.60201L5.30781 12.1473L6.02283 12.8464ZM4.23767 13.3163L3.52268 14.0154L4.23767 14.7466L4.95266 14.0154L4.23767 13.3163ZM2.67786 11.8181L2.43121 12.7872L2.43187 12.7874L2.67786 11.8181ZM12.7188 0H3.28125V2H12.7188V0ZM3.28125 0C0.898619 0 -1 1.97427 -1 4.35566H1C1 3.03633 2.04523 2 3.28125 2V0ZM-1 4.35566V9.53845H1V4.35566H-1ZM-1 9.53845C-1 11.4445 0.226165 13.1285 2.03436 13.6704L2.60846 11.7545C1.66959 11.4732 1 10.5853 1 9.53845H-1ZM1.6064 13.4116L3.19111 15.0323L4.62114 13.6341L3.03643 12.0134L1.6064 13.4116ZM3.19162 15.0329C3.46479 15.3119 3.84024 15.4737 4.23767 15.4737V13.4737C4.38633 13.4737 4.52349 13.5344 4.62063 13.6336L3.19162 15.0329ZM4.23767 15.4737C4.63473 15.4737 5.01064 15.312 5.28408 15.0324L3.8541 13.6341C3.95176 13.5342 4.08915 13.4737 4.23767 13.4737V15.4737ZM5.28411 15.0323L6.73785 13.5455L5.30781 12.1473L3.85407 13.6341L5.28411 15.0323ZM6.02283 13.8464H12.7188V11.8464H6.02283V13.8464ZM12.7188 13.8464C15.1014 13.8464 17 11.8721 17 9.49076H15C15 10.8101 13.9548 11.8464 12.7188 11.8464V13.8464ZM17 9.49076V4.35566H15V9.49076H17ZM17 4.35566C17 1.97427 15.1014 0 12.7188 0V2C13.9548 2 15 3.03633 15 4.35566H17ZM14.0625 9.49076C14.0625 10.2814 13.4378 10.8877 12.7188 10.8877V12.8877C14.5844 12.8877 16.0625 11.3435 16.0625 9.49076H14.0625ZM12.7188 10.8877H5.82874V12.8877H12.7188V10.8877ZM5.82874 10.8877C5.43168 10.8877 5.05576 11.0493 4.78233 11.329L6.2123 12.7272C6.11465 12.8271 5.97726 12.8877 5.82874 12.8877V10.8877ZM4.78233 11.329L3.52268 12.6172L4.95266 14.0154L6.2123 12.7272L4.78233 11.329ZM4.95266 12.6172L3.61111 11.2452L2.18113 12.6435L3.52268 14.0154L4.95266 12.6172ZM3.61111 11.2452C3.42423 11.0541 3.1872 10.9157 2.92384 10.8488L2.43187 12.7874C2.3338 12.7625 2.24765 12.7115 2.18113 12.6435L3.61111 11.2452ZM2.9245 10.849C2.35723 10.7046 1.9375 10.1775 1.9375 9.53845H-0.0625C-0.0625 11.0624 0.949167 12.41 2.43121 12.7872L2.9245 10.849ZM1.9375 9.53845V4.35566H-0.0625V9.53845H1.9375ZM1.9375 4.35566C1.9375 3.56502 2.5622 2.95876 3.28125 2.95876V0.958759C1.41559 0.958759 -0.0625 2.50296 -0.0625 4.35566H1.9375ZM3.28125 2.95876H12.7188V0.958759H3.28125V2.95876ZM12.7188 2.95876C13.4378 2.95876 14.0625 3.56502 14.0625 4.35566H16.0625C16.0625 2.50296 14.5844 0.958759 12.7188 0.958759V2.95876ZM14.0625 4.35566V9.49076H16.0625V4.35566H14.0625Z" fill="#828282" mask="url(#path-2-inside-1)"/>
</svg>
