<svg width="34" height="34" viewBox="0 0 34 34" fill="none" xmlns="http://www.w3.org/2000/svg">
<path d="M31.7641 4.54272H2.2359C1.00307 4.54272 0 5.54579 0 6.77862V27.2212C0 28.4541 1.00307 29.4571 2.2359 29.4571H31.7641C32.997 29.4571 34 28.454 34 27.2212V6.77862C34 5.54579 32.9969 4.54272 31.7641 4.54272ZM7.94989 28.3924H2.2359C1.5901 28.3924 1.06469 27.867 1.06469 27.2212V6.77862C1.06469 6.13282 1.5901 5.60742 2.2359 5.60742H7.94989V28.3924ZM32.9353 27.2213C32.9353 27.8671 32.4099 28.3925 31.7641 28.3925H9.01465V5.60748H31.7641C32.4099 5.60748 32.9353 6.13289 32.9353 6.77869V27.2213Z" fill="#F65D2D"/>
<path d="M13.0255 6.81421H10.7541C10.4601 6.81421 10.2217 7.05254 10.2217 7.34659C10.2217 7.64063 10.46 7.87897 10.7541 7.87897H13.0255C13.3195 7.87897 13.5579 7.64063 13.5579 7.34659C13.5579 7.05254 13.3195 6.81421 13.0255 6.81421Z" fill="#F65D2D"/>
<path d="M6.21097 6.81421H2.80386C2.50988 6.81421 2.27148 7.05254 2.27148 7.34659C2.27148 7.64063 2.50982 7.87897 2.80386 7.87897H6.21097C6.50495 7.87897 6.74335 7.64063 6.74335 7.34659C6.74335 7.05254 6.50502 6.81421 6.21097 6.81421Z" fill="#F65D2D"/>
<path d="M6.21097 12.4927H2.80386C2.50988 12.4927 2.27148 12.731 2.27148 13.0251C2.27148 13.3191 2.50982 13.5574 2.80386 13.5574H6.21097C6.50495 13.5574 6.74335 13.3191 6.74335 13.0251C6.74335 12.731 6.50502 12.4927 6.21097 12.4927Z" fill="#F65D2D"/>
<path d="M6.21097 17.0354H2.80386C2.50988 17.0354 2.27148 17.2737 2.27148 17.5678C2.27148 17.8618 2.50982 18.1002 2.80386 18.1002H6.21097C6.50495 18.1002 6.74335 17.8618 6.74335 17.5678C6.74335 17.2737 6.50502 17.0354 6.21097 17.0354Z" fill="#F65D2D"/>
<path d="M6.21097 21.5781H2.80386C2.50988 21.5781 2.27148 21.8165 2.27148 22.1105C2.27148 22.4045 2.50982 22.6429 2.80386 22.6429H6.21097C6.50495 22.6429 6.74335 22.4045 6.74335 22.1105C6.74335 21.8165 6.50502 21.5781 6.21097 21.5781Z" fill="#F65D2D"/>
<path d="M6.21097 14.7639H2.80386C2.50988 14.7639 2.27148 15.0022 2.27148 15.2963C2.27148 15.5903 2.50982 15.8287 2.80386 15.8287H6.21097C6.50495 15.8287 6.74335 15.5903 6.74335 15.2963C6.74335 15.0022 6.50502 14.7639 6.21097 14.7639Z" fill="#F65D2D"/>
<path d="M6.21097 19.3069H2.80386C2.50988 19.3069 2.27148 19.5452 2.27148 19.8393C2.27148 20.1333 2.50982 20.3716 2.80386 20.3716H6.21097C6.50495 20.3716 6.74335 20.1333 6.74335 19.8393C6.74335 19.5452 6.50502 19.3069 6.21097 19.3069Z" fill="#F65D2D"/>
<path d="M5.07529 24.9854H2.80386C2.50988 24.9854 2.27148 25.2237 2.27148 25.5177C2.27148 25.8117 2.50982 26.0501 2.80386 26.0501H5.07529C5.36927 26.0501 5.60767 25.8118 5.60767 25.5177C5.60767 25.2237 5.36927 24.9854 5.07529 24.9854Z" fill="#F65D2D"/>
<path d="M5.07529 9.08569H2.80386C2.50988 9.08569 2.27148 9.32403 2.27148 9.61807C2.27148 9.91212 2.50982 10.1505 2.80386 10.1505H5.07529C5.36927 10.1505 5.60767 9.91212 5.60767 9.61807C5.60767 9.32403 5.36927 9.08569 5.07529 9.08569Z" fill="#F65D2D"/>
<path d="M17.5675 6.81421H15.296C15.0021 6.81421 14.7637 7.05254 14.7637 7.34659C14.7637 7.64063 15.002 7.87897 15.296 7.87897H17.5675C17.8614 7.87897 18.0998 7.64063 18.0998 7.34659C18.0998 7.05254 17.8615 6.81421 17.5675 6.81421Z" fill="#F65D2D"/>
<path d="M22.1104 6.81421H19.839C19.545 6.81421 19.3066 7.05254 19.3066 7.34659C19.3066 7.64063 19.545 7.87897 19.839 7.87897H22.1104C22.4044 7.87897 22.6428 7.64063 22.6428 7.34659C22.6428 7.05254 22.4045 6.81421 22.1104 6.81421Z" fill="#F65D2D"/>
<path d="M26.6534 6.81421H24.382C24.088 6.81421 23.8496 7.05254 23.8496 7.34659C23.8496 7.64063 24.0879 7.87897 24.382 7.87897H26.6534C26.9474 7.87897 27.1858 7.64063 27.1858 7.34659C27.1858 7.05254 26.9474 6.81421 26.6534 6.81421Z" fill="#F65D2D"/>
<path d="M31.1964 6.81421H28.925C28.631 6.81421 28.3926 7.05254 28.3926 7.34659C28.3926 7.64063 28.6309 7.87897 28.925 7.87897H31.1964C31.4904 7.87897 31.7288 7.64063 31.7288 7.34659C31.7288 7.05254 31.4904 6.81421 31.1964 6.81421Z" fill="#F65D2D"/>
<path d="M16.752 18.8459C16.5169 18.6693 16.1832 18.7167 16.0067 18.9518C15.566 19.5383 14.8932 19.8748 14.1607 19.8748C12.8887 19.8748 11.8538 18.8399 11.8538 17.5679C11.8538 16.2959 12.8887 15.261 14.1607 15.261C14.8937 15.261 15.5669 15.5979 16.0075 16.1852C16.1839 16.4203 16.5176 16.468 16.7527 16.2915C16.9879 16.115 17.0355 15.7814 16.8591 15.5463C16.2155 14.6883 15.232 14.1963 14.1606 14.1963C12.3016 14.1963 10.7891 15.7088 10.7891 17.5679C10.7891 19.4269 12.3016 20.9394 14.1606 20.9394C15.2311 20.9394 16.2142 20.448 16.8579 19.5912C17.0346 19.3561 16.9872 19.0224 16.752 18.8459Z" fill="#F65D2D"/>
<path d="M22.0044 18.6199C23.0169 18.4068 23.7794 17.5069 23.7794 16.4319C23.7794 15.199 22.7764 14.196 21.5435 14.196H18.7043C18.4103 14.196 18.1719 14.4344 18.1719 14.7284V20.4069C18.1719 20.7009 18.4102 20.9393 18.7043 20.9393C18.9983 20.9393 19.2366 20.701 19.2366 20.4069V18.6679H20.7095L22.2533 20.7263C22.358 20.8658 22.5178 20.9393 22.6797 20.9393C22.7908 20.9393 22.9029 20.9046 22.9987 20.8328C23.2338 20.6565 23.2816 20.3227 23.1051 20.0876L22.0044 18.6199ZM19.2366 17.6032V15.2609H21.5435C22.1893 15.2609 22.7147 15.7863 22.7147 16.4321C22.7147 17.0779 22.1893 17.6033 21.5435 17.6033H19.2366V17.6032Z" fill="#F65D2D"/>
<path d="M31.1576 20.3541L30.5898 14.6757C30.5654 14.4317 30.3774 14.2359 30.1346 14.2016C29.892 14.1672 29.6569 14.3032 29.5658 14.531L27.7886 18.9738L26.0115 14.531C25.9204 14.3033 25.6856 14.1675 25.4427 14.2016C25.1999 14.2359 25.0119 14.4317 24.9875 14.6757L24.4197 20.3542C24.3904 20.6468 24.6039 20.9076 24.8965 20.9369C25.1887 20.9661 25.4498 20.7527 25.4792 20.4601L25.8307 16.9454L27.2945 20.6049C27.3753 20.8069 27.571 20.9395 27.7887 20.9395C28.0065 20.9395 28.2022 20.8069 28.283 20.6049L29.7468 16.9454L30.0983 20.4601C30.1257 20.7346 30.3571 20.9395 30.6274 20.9395C30.6451 20.9395 30.663 20.9386 30.681 20.9368C30.9734 20.9076 31.1868 20.6467 31.1576 20.3541Z" fill="#F65D2D"/>
</svg>
