<svg width="15" height="14" viewBox="0 0 15 14" fill="none" xmlns="http://www.w3.org/2000/svg">
<path d="M14.8888 5.76263L14.8888 5.7626L12.9735 4.49278V0.248432C12.9735 0.111231 12.8622 0 12.725 0H2.27464C2.13744 0 2.02621 0.111231 2.02621 0.248432V4.49308L0.111165 5.7626L0.111198 5.76266C0.0442209 5.80715 0 5.8832 0 5.96966V13.6631C0 13.8003 0.111231 13.9115 0.248432 13.9115H14.7516C14.8888 13.9115 15 13.8003 15 13.6631V5.96966C15 5.8832 14.9558 5.80715 14.8888 5.76263V5.76263ZM2.02621 6.63145L1.24696 6.21809H2.02621V6.63145ZM0.496864 6.38265L6.20998 9.41319L0.496864 13.2002V6.38265V6.38265ZM7.4999 9.15419L13.9272 13.4147H1.0726L7.4999 9.15419V9.15419ZM8.78993 9.41323L14.5031 6.38265V13.2003L8.78993 9.41323V9.41323ZM12.9735 6.21809H13.7531L12.9735 6.63161V6.21809ZM13.9272 5.72123H12.9735V5.08888L13.9272 5.72123ZM12.4766 0.496864V6.89518L8.3186 9.1008L7.63713 8.64908C7.55396 8.59393 7.44581 8.59393 7.36263 8.64908L6.68127 9.10073L2.52308 6.89502V0.496864H12.4766V0.496864ZM2.02621 5.72123H1.07283L2.02621 5.08922V5.72123Z" fill="black"/>
<path d="M7.5002 6.53346H9.47951C9.61671 6.53346 9.72794 6.42223 9.72794 6.28502C9.72794 6.14782 9.61671 6.03659 9.47951 6.03659H7.5002C6.54579 6.03659 5.76933 5.26013 5.76933 4.30572V4.23241C5.76933 3.278 6.54579 2.50154 7.5002 2.50154C8.45461 2.50154 9.23108 3.278 9.23108 4.23241V4.41569C9.23108 4.62228 9.06301 4.79039 8.85638 4.79039C8.64975 4.79039 8.48168 4.62232 8.48168 4.41569V4.06749C8.48168 3.47575 8.00028 2.99433 7.40855 2.99433C6.81681 2.99433 6.33542 3.47572 6.33542 4.06749C6.33542 4.65922 6.81681 5.14061 7.40855 5.14061C7.67914 5.14061 7.92648 5.03975 8.11542 4.8739C8.26925 5.12177 8.54378 5.28722 8.85638 5.28722C9.33694 5.28722 9.72794 4.89626 9.72794 4.41566V4.23238C9.72794 3.004 8.72858 2.00464 7.5002 2.00464C6.27182 2.00464 5.27246 3.004 5.27246 4.23238V4.30568C5.27246 5.5341 6.27182 6.53346 7.5002 6.53346V6.53346ZM7.40855 4.64375C7.09079 4.64375 6.83228 4.38525 6.83228 4.06749C6.83228 3.74973 7.09082 3.49119 7.40855 3.49119C7.72628 3.49119 7.98481 3.74973 7.98481 4.06749C7.98481 4.38525 7.72631 4.64375 7.40855 4.64375Z" fill="black"/>
</svg>
