<svg width="65" height="65" viewBox="0 0 65 65" fill="none" xmlns="http://www.w3.org/2000/svg">
<rect width="64.6707" height="64.6707" rx="10" fill="#FC4A35"/>
<path d="M49.4074 35.8725C49.9617 35.2539 50.2993 34.4373 50.2993 33.5439C50.2993 31.618 48.7321 30.0508 46.8063 30.0508H40.0267C40.6982 28.0133 40.9846 25.3097 40.9846 24.1508V22.9872C40.9846 20.4194 38.895 18.3298 36.3272 18.3298H35.1629C34.6289 18.3298 34.1631 18.6931 34.0335 19.2116L33.3993 21.7491C32.5105 25.3027 29.689 29.2234 26.7688 29.936C26.2573 28.6412 24.9943 27.7222 23.5195 27.7222H16.5335C15.8908 27.7222 15.3691 28.2438 15.3691 28.8865V49.8446C15.3691 50.4873 15.8908 51.009 16.5335 51.009H23.5195C24.9082 51.009 26.1098 50.1947 26.6725 49.0179L30.6732 50.3515C31.9812 50.7877 33.3442 51.009 34.7236 51.009H44.4776C46.4034 51.009 47.9706 49.4418 47.9706 47.5159C47.9706 47.0618 47.8837 46.6272 47.7253 46.229C49.2064 45.8245 50.2993 44.4669 50.2993 42.8586C50.2993 41.9651 49.9617 41.1486 49.4074 40.5299C49.9617 39.9112 50.2993 39.0947 50.2993 38.2012C50.2993 37.3078 49.9617 36.4912 49.4074 35.8725ZM24.6839 47.5159C24.6839 48.1579 24.1615 48.6803 23.5195 48.6803H17.6978V30.0508H23.5195C24.1615 30.0508 24.6839 30.5732 24.6839 31.2152V47.5159ZM44.4776 37.0369H46.8063C47.4482 37.0369 47.9706 37.5593 47.9706 38.2012C47.9706 38.8432 47.4482 39.3656 46.8063 39.3656H44.4776C43.8349 39.3656 43.3133 39.8872 43.3133 40.5299C43.3133 41.1726 43.8349 41.6942 44.4776 41.6942H46.8063C47.4482 41.6942 47.9706 42.2166 47.9706 42.8586C47.9706 43.5005 47.4482 44.0229 46.8063 44.0229H44.4776C43.8349 44.0229 43.3133 44.5445 43.3133 45.1873C43.3133 45.83 43.8349 46.3516 44.4776 46.3516C45.1196 46.3516 45.642 46.874 45.642 47.5159C45.642 48.1579 45.1196 48.6803 44.4776 48.6803H34.7236C33.5949 48.6803 32.4795 48.4994 31.4091 48.1423L27.0125 46.6768V32.2693C28.839 31.9223 30.6266 30.7658 32.2404 28.8725C33.8162 27.0236 35.0938 24.5722 35.6581 22.3142L36.0719 20.6585H36.3272C37.6111 20.6585 38.6559 21.7033 38.6559 22.9872V24.1508C38.6559 25.7141 38.1669 28.7126 37.5413 30.0508H35.1629C34.5202 30.0508 33.9986 30.5725 33.9986 31.2152C33.9986 31.8579 34.5202 32.3795 35.1629 32.3795H46.8063C47.4482 32.3795 47.9706 32.9019 47.9706 33.5439C47.9706 34.1858 47.4482 34.7082 46.8063 34.7082H44.4776C43.8349 34.7082 43.3133 35.2298 43.3133 35.8725C43.3133 36.5153 43.8349 37.0369 44.4776 37.0369Z" fill="white"/>
<path d="M21.1907 46.3514C21.8338 46.3514 22.355 45.8302 22.355 45.1871C22.355 44.5441 21.8338 44.0228 21.1907 44.0228C20.5477 44.0228 20.0264 44.5441 20.0264 45.1871C20.0264 45.8302 20.5477 46.3514 21.1907 46.3514Z" fill="white"/>
<path d="M37.4915 11.2661C36.8485 11.2661 36.3271 11.7874 36.3271 12.4305V14.8368C36.3271 15.4798 36.8485 16.0011 37.4915 16.0011C38.1345 16.0011 38.6558 15.4798 38.6558 14.8368V12.4305C38.6558 11.7874 38.1345 11.2661 37.4915 11.2661Z" fill="white"/>
<path d="M32.5512 16.4007L30.9046 14.7541C30.45 14.2994 29.7127 14.2994 29.258 14.7541C28.8033 15.2088 28.8033 15.946 29.258 16.4007L30.9046 18.0473C31.3593 18.502 32.0966 18.5021 32.5512 18.0473C33.006 17.5926 33.006 16.8554 32.5512 16.4007Z" fill="white"/>
<path d="M45.7251 14.7541C45.2704 14.2994 44.5332 14.2994 44.0785 14.7541L42.4319 16.4007C41.9771 16.8554 41.9771 17.5925 42.4319 18.0473C42.8865 18.502 43.6238 18.5021 44.0785 18.0473L45.7251 16.4007C46.1798 15.946 46.1798 15.2088 45.7251 14.7541Z" fill="white"/>
</svg>
