<svg width="64" height="64" viewBox="0 0 64 64" fill="none" xmlns="http://www.w3.org/2000/svg">
<path d="M61.0095 22.5132H3.15703C2.51811 22.5132 2 23.0313 2 23.6702V35.7035C2 45.6699 9.63022 53.8864 19.3557 54.821V58.3817C19.3557 59.0206 19.8738 59.5387 20.5127 59.5387H43.6537C44.2926 59.5387 44.8107 59.0206 44.8107 58.3817V54.821C54.5363 53.8866 62.1665 45.6699 62.1665 35.7036V23.6703C62.1665 23.0313 61.6484 22.5132 61.0095 22.5132ZM42.4967 57.2247H21.6699V54.9106H42.4968V57.2247H42.4967ZM59.8525 35.7036C59.8525 44.795 52.6331 52.2307 43.6262 52.5822H20.5403C11.5336 52.2307 4.31406 44.795 4.31406 35.7036V29.4556H11.2564C11.8953 29.4556 12.4134 28.9375 12.4134 28.2986C12.4134 27.6597 11.8953 27.1415 11.2564 27.1415H4.31406V24.8275H59.8523V35.7036H59.8525Z" fill="white"/>
<path d="M15.8613 28.0729C15.8475 27.9988 15.8243 27.926 15.7954 27.8554C15.7665 27.7858 15.7307 27.7188 15.6889 27.6563C15.6475 27.5925 15.5988 27.5335 15.5455 27.4803C15.4922 27.427 15.4332 27.3785 15.3695 27.3368C15.307 27.2953 15.2399 27.2592 15.1694 27.2303C15.1 27.2014 15.0272 27.1782 14.9532 27.1645C14.8039 27.1343 14.6512 27.1343 14.5019 27.1645C14.4279 27.1782 14.355 27.2014 14.2856 27.2303C14.215 27.2592 14.148 27.2952 14.0856 27.3368C14.0218 27.3784 13.9628 27.427 13.9096 27.4803C13.8563 27.5335 13.8078 27.5925 13.7661 27.6563C13.7233 27.7188 13.6885 27.7858 13.6596 27.8554C13.6307 27.926 13.6075 27.9988 13.5938 28.0729C13.5786 28.1469 13.5706 28.2233 13.5706 28.2985C13.5706 28.3736 13.5786 28.4501 13.5938 28.5241C13.6074 28.598 13.6307 28.671 13.6596 28.7403C13.6885 28.811 13.7245 28.8781 13.7661 28.9405C13.8077 29.0042 13.8563 29.0631 13.9096 29.1164C13.9628 29.1697 14.0218 29.2183 14.0856 29.2599C14.1481 29.3015 14.2151 29.3374 14.2856 29.3663C14.3552 29.3952 14.4279 29.4172 14.5019 29.4323C14.576 29.4473 14.6524 29.4554 14.7276 29.4554C14.8027 29.4554 14.8792 29.4473 14.9532 29.4323C15.0272 29.4172 15.1001 29.3952 15.1694 29.3663C15.24 29.3374 15.3071 29.3016 15.3695 29.2599C15.4332 29.2184 15.4922 29.1697 15.5455 29.1164C15.5988 29.0631 15.6473 29.0042 15.6889 28.9405C15.7305 28.8779 15.7665 28.8108 15.7954 28.7403C15.8243 28.6709 15.8475 28.5981 15.8613 28.5241C15.8764 28.45 15.8845 28.3736 15.8845 28.2985C15.8845 28.2233 15.8764 28.1468 15.8613 28.0729Z" fill="white"/>
<path d="M32.0833 31.7695C28.8933 31.7695 26.298 34.3648 26.298 37.5548C26.298 40.7448 28.8933 43.3401 32.0833 43.3401C35.2733 43.3401 37.8685 40.7448 37.8685 37.5548C37.8685 34.3648 35.2733 31.7695 32.0833 31.7695ZM32.0833 41.0259C30.1693 41.0259 28.6122 39.4687 28.6122 37.5547C28.6122 35.6408 30.1693 34.0836 32.0833 34.0836C33.9972 34.0836 35.5544 35.6408 35.5544 37.5547C35.5544 39.4687 33.9972 41.0259 32.0833 41.0259Z" fill="white"/>
<path d="M21.3592 11.3097C20.3197 10.2702 20.0832 8.69868 20.7707 7.39922L21.6707 5.69869C21.9697 5.13393 21.7543 4.43367 21.1894 4.13483C20.6245 3.83553 19.9244 4.05128 19.6255 4.61616L18.7254 6.31669C17.5596 8.51959 17.9606 11.1836 19.7227 12.9461C20.7372 13.9607 20.9878 15.5045 20.3462 16.7879L19.4778 18.5245C19.192 19.0961 19.4236 19.7912 19.9952 20.077C20.1615 20.16 20.3379 20.1994 20.5118 20.1994C20.9363 20.1994 21.3448 19.965 21.5476 19.5597L22.416 17.823C23.5039 15.6471 23.0791 13.0296 21.3592 11.3097Z" fill="white"/>
<path d="M44.4437 11.3098C43.4042 10.2702 43.1679 8.69859 43.8554 7.39925L44.7553 5.69872C45.0542 5.13384 44.8387 4.4337 44.2739 4.13474C43.709 3.83603 43.0088 4.05155 42.7099 4.61619L41.81 6.31672C40.6443 8.51938 41.0451 11.1836 42.8072 12.9461C43.8219 13.9607 44.0725 15.5047 43.4307 16.788L42.5624 18.5247C42.2766 19.0961 42.5083 19.7912 43.08 20.077C43.2461 20.1601 43.4225 20.1994 43.5964 20.1994C44.0209 20.1994 44.4295 19.965 44.6322 19.5596L45.5005 17.8231C46.5885 15.6472 46.1639 13.0298 44.4437 11.3098Z" fill="white"/>
<path d="M32.9014 11.3098C31.8619 10.2702 31.6255 8.69859 32.3131 7.39925L33.213 5.69872C33.5119 5.13384 33.2963 4.4337 32.7316 4.13474C32.1668 3.83603 31.4664 4.05155 31.1676 4.61619L30.2677 6.31672C29.102 8.51938 29.5028 11.1836 31.2649 12.9461C32.2795 13.9607 32.5301 15.5046 31.8884 16.7879L31.02 18.5245C30.7342 19.0961 30.9658 19.7912 31.5374 20.077C31.7037 20.1601 31.8801 20.1994 32.054 20.1994C32.4784 20.1994 32.887 19.965 33.0897 19.5597L33.9582 17.823C35.0461 15.6471 34.6214 13.0296 32.9014 11.3098Z" fill="white"/>
</svg>
