<svg width="27" height="28" viewBox="0 0 27 28" fill="none" xmlns="http://www.w3.org/2000/svg">
<path d="M21.0893 17.4164C20.5425 16.847 19.8829 16.5426 19.1839 16.5426C18.4905 16.5426 17.8254 16.8414 17.256 17.4108L15.4747 19.1865C15.3281 19.1075 15.1815 19.0343 15.0406 18.961C14.8377 18.8595 14.646 18.7637 14.4825 18.6622C12.8139 17.6024 11.2975 16.2213 9.84314 14.4343C9.13849 13.5437 8.66497 12.7939 8.3211 12.0329C8.78335 11.6101 9.21178 11.1704 9.62893 10.7476C9.78677 10.5898 9.94461 10.4263 10.1024 10.2685C11.2863 9.08466 11.2863 7.55135 10.1024 6.36755L8.5635 4.8286C8.38875 4.65385 8.20836 4.47346 8.03924 4.29307C7.70101 3.94357 7.34587 3.58279 6.97946 3.24456C6.43265 2.70339 5.77874 2.41589 5.09101 2.41589C4.40327 2.41589 3.73809 2.70339 3.17437 3.24456C3.16873 3.25019 3.16873 3.25019 3.1631 3.25583L1.24646 5.18938C0.524904 5.91094 0.113391 6.79033 0.0231961 7.81066C-0.112096 9.45671 0.3727 10.99 0.744753 11.9934C1.65797 14.4569 3.02217 16.7399 5.05718 19.1865C7.52626 22.1347 10.497 24.4628 13.8906 26.1033C15.1872 26.7177 16.9178 27.4449 18.8513 27.5689C18.9697 27.5746 19.0937 27.5802 19.2065 27.5802C20.5087 27.5802 21.6023 27.1123 22.4591 26.1822C22.4648 26.1709 22.476 26.1653 22.4817 26.154C22.7748 25.7989 23.113 25.4775 23.4682 25.1337C23.7106 24.9025 23.9586 24.6601 24.201 24.4065C24.7591 23.8258 25.0522 23.1494 25.0522 22.456C25.0522 21.757 24.7534 21.0862 24.1841 20.5225L21.0893 17.4164ZM23.1074 23.3523C23.1018 23.3523 23.1018 23.358 23.1074 23.3523C22.8875 23.5891 22.6621 23.8033 22.4197 24.0401C22.0532 24.3896 21.6812 24.756 21.3317 25.1675C20.7623 25.7763 20.0915 26.0638 19.2121 26.0638C19.1276 26.0638 19.0374 26.0638 18.9528 26.0582C17.2786 25.9511 15.7227 25.2971 14.5558 24.7391C11.3652 23.1945 8.5635 21.0016 6.23535 18.2225C4.31308 15.9056 3.02781 13.7635 2.17659 11.4635C1.65234 10.0599 1.46067 8.96628 1.54523 7.93468C1.6016 7.27513 1.85527 6.72832 2.32316 6.26044L4.24543 4.33817C4.52165 4.07886 4.81479 3.93793 5.10228 3.93793C5.45742 3.93793 5.74492 4.15214 5.92531 4.33253C5.93095 4.33817 5.93658 4.3438 5.94222 4.34944C6.28609 4.67076 6.61304 5.00335 6.95691 5.35849C7.13166 5.53888 7.31205 5.71927 7.49244 5.9053L9.03139 7.44424C9.62893 8.04178 9.62893 8.59423 9.03139 9.19177C8.86791 9.35524 8.71007 9.51872 8.54659 9.67656C8.07307 10.1614 7.6221 10.6123 7.13166 11.052C7.12039 11.0633 7.10911 11.0689 7.10348 11.0802C6.61868 11.565 6.70887 12.0385 6.81034 12.3599C6.81598 12.3768 6.82162 12.3937 6.82725 12.4106C7.22749 13.3802 7.79121 14.2934 8.64806 15.3814L8.6537 15.387C10.2096 17.3036 11.85 18.7975 13.6595 19.9418C13.8906 20.0884 14.1274 20.2068 14.3529 20.3195C14.5558 20.421 14.7475 20.5168 14.9109 20.6183C14.9335 20.6296 14.956 20.6465 14.9786 20.6578C15.1703 20.7536 15.3506 20.7987 15.5367 20.7987C16.0046 20.7987 16.2977 20.5056 16.3935 20.4097L18.3214 18.4818C18.5131 18.2901 18.8175 18.059 19.1726 18.059C19.5222 18.059 19.8096 18.2789 19.9844 18.4705C19.99 18.4762 19.99 18.4762 19.9957 18.4818L23.1018 21.5879C23.6824 22.1629 23.6824 22.7548 23.1074 23.3523Z" fill="white"/>
<path d="M14.4145 7.22427C15.8914 7.47231 17.2331 8.17132 18.3041 9.24238C19.3752 10.3134 20.0686 11.6551 20.3222 13.132C20.3843 13.5041 20.7056 13.7634 21.072 13.7634C21.1171 13.7634 21.1566 13.7577 21.2016 13.7521C21.6188 13.6845 21.895 13.2899 21.8274 12.8727C21.523 11.0857 20.6774 9.45659 19.3865 8.16568C18.0956 6.87477 16.4664 6.0292 14.6794 5.72479C14.2623 5.65714 13.8733 5.93336 13.8 6.34488C13.7268 6.75639 13.9974 7.15663 14.4145 7.22427Z" fill="white"/>
<path d="M26.6592 12.653C26.1575 9.71037 24.7708 7.03272 22.6399 4.90187C20.5091 2.77102 17.8314 1.38428 14.8888 0.882574C14.4773 0.809291 14.0883 1.09115 14.0151 1.50266C13.9474 1.91981 14.2236 2.30878 14.6408 2.38206C17.2677 2.8274 19.6635 4.07321 21.5689 5.97293C23.4742 7.8783 24.7144 10.2741 25.1597 12.901C25.2218 13.2731 25.5431 13.5324 25.9095 13.5324C25.9546 13.5324 25.994 13.5267 26.0391 13.5211C26.4507 13.4591 26.7325 13.0645 26.6592 12.653Z" fill="white"/>
</svg>
