<svg width="22" height="23" viewBox="0 0 22 23" fill="none" xmlns="http://www.w3.org/2000/svg">
<path d="M17.3962 13.6481C16.9452 13.1784 16.4011 12.9273 15.8245 12.9273C15.2526 12.9273 14.7039 13.1738 14.2342 13.6434L12.7648 15.1082C12.6439 15.0431 12.523 14.9826 12.4068 14.9222C12.2394 14.8385 12.0813 14.7594 11.9464 14.6757C10.57 13.8015 9.31915 12.6623 8.11945 11.1882C7.5382 10.4535 7.1476 9.83508 6.86395 9.20733C7.24525 8.85858 7.59865 8.49588 7.94275 8.14713C8.07295 8.01693 8.20315 7.88208 8.33335 7.75188C9.30985 6.77537 9.30985 5.51057 8.33335 4.53407L7.0639 3.26462C6.91975 3.12047 6.77095 2.97167 6.63145 2.82287C6.35245 2.53457 6.0595 2.23697 5.75725 1.95797C5.30619 1.51156 4.76679 1.27441 4.19949 1.27441C3.63219 1.27441 3.08349 1.51156 2.61849 1.95797C2.61384 1.96262 2.61384 1.96262 2.60919 1.96727L1.02819 3.56222C0.432985 4.15742 0.0935343 4.88282 0.0191341 5.72447C-0.0924661 7.08228 0.307435 8.34708 0.614335 9.17478C1.36764 11.2068 2.49294 13.0901 4.17159 15.1082C6.2083 17.5401 8.65885 19.4606 11.4582 20.8138C12.5277 21.3206 13.9552 21.9205 15.5502 22.0228C15.6478 22.0274 15.7501 22.0321 15.8431 22.0321C16.9173 22.0321 17.8194 21.6461 18.5262 20.8789C18.5308 20.8696 18.5401 20.8649 18.5448 20.8556C18.7866 20.5627 19.0656 20.2976 19.3585 20.014C19.5585 19.8233 19.7631 19.6234 19.963 19.4141C20.4234 18.9351 20.6652 18.3771 20.6652 17.8052C20.6652 17.2286 20.4187 16.6752 19.9491 16.2102L17.3962 13.6481ZM19.0609 18.5445C19.0563 18.5445 19.0563 18.5492 19.0609 18.5445C18.8796 18.7398 18.6936 18.9165 18.4936 19.1118C18.1914 19.4002 17.8845 19.7024 17.5962 20.0419C17.1265 20.5441 16.5732 20.7812 15.8478 20.7812C15.778 20.7812 15.7036 20.7812 15.6339 20.7766C14.2528 20.6882 12.9694 20.1488 12.0069 19.6884C9.37495 18.4143 7.0639 16.6055 5.14344 14.313C3.55779 12.4019 2.49759 10.6349 1.79544 8.73768C1.36299 7.57983 1.20489 6.67772 1.27464 5.82677C1.32114 5.28272 1.53039 4.83167 1.91634 4.44572L3.50199 2.86007C3.72984 2.64617 3.97164 2.52992 4.20879 2.52992C4.50174 2.52992 4.73889 2.70662 4.88769 2.85542C4.89234 2.86007 4.89699 2.86472 4.90164 2.86937C5.18529 3.13442 5.455 3.40877 5.73865 3.70172C5.8828 3.85052 6.0316 3.99932 6.1804 4.15277L7.44985 5.42222C7.94275 5.91512 7.94275 6.37082 7.44985 6.86373C7.315 6.99858 7.1848 7.13342 7.04995 7.26363C6.65935 7.66353 6.28735 8.03553 5.8828 8.39823C5.8735 8.40753 5.8642 8.41218 5.85955 8.42148C5.45965 8.82138 5.53405 9.21198 5.61775 9.47703C5.6224 9.49098 5.62705 9.50493 5.6317 9.51888C5.96185 10.3187 6.42685 11.072 7.13365 11.9694L7.1383 11.9741C8.4217 13.5551 9.77485 14.7873 11.2675 15.7313C11.4582 15.8522 11.6535 15.9498 11.8395 16.0428C12.0069 16.1265 12.165 16.2056 12.2998 16.2893C12.3184 16.2986 12.337 16.3125 12.3556 16.3218C12.5137 16.4009 12.6625 16.4381 12.816 16.4381C13.2019 16.4381 13.4437 16.1963 13.5228 16.1172L15.1131 14.5269C15.2712 14.3688 15.5223 14.1782 15.8152 14.1782C16.1035 14.1782 16.3407 14.3595 16.4848 14.5176C16.4895 14.5223 16.4895 14.5223 16.4941 14.5269L19.0563 17.0891C19.5352 17.5634 19.5352 18.0516 19.0609 18.5445Z" fill="#F65D2D"/>
<path d="M11.8907 5.24067C13.109 5.44527 14.2157 6.02187 15.0992 6.90537C15.9828 7.78887 16.5547 8.89558 16.764 10.1139C16.8151 10.4208 17.0802 10.6347 17.3824 10.6347C17.4196 10.6347 17.4522 10.63 17.4894 10.6254C17.8335 10.5696 18.0613 10.2441 18.0055 9.89998C17.7544 8.42592 17.0569 7.08207 15.9921 6.01722C14.9272 4.95237 13.5833 4.25487 12.1093 4.00377C11.7652 3.94797 11.4443 4.17582 11.3839 4.51527C11.3234 4.85472 11.5466 5.18487 11.8907 5.24067Z" fill="#F65D2D"/>
<path d="M21.9901 9.71879C21.5763 7.29148 20.4324 5.08273 18.6747 3.32503C16.917 1.56732 14.7082 0.423421 12.2809 0.00957041C11.9415 -0.0508797 11.6206 0.181621 11.5602 0.521071C11.5044 0.865172 11.7322 1.18602 12.0763 1.24647C14.2432 1.61382 16.2195 2.64148 17.7912 4.20853C19.3629 5.78023 20.3859 7.75649 20.7532 9.92339C20.8044 10.2303 21.0694 10.4442 21.3717 10.4442C21.4089 10.4442 21.4414 10.4395 21.4786 10.4349C21.8181 10.3837 22.0506 10.0582 21.9901 9.71879Z" fill="#F65D2D"/>
</svg>
