<svg width="26" height="25" viewBox="0 0 26 25" fill="none" xmlns="http://www.w3.org/2000/svg">
<path d="M25.8073 9.98856L25.8073 9.9885L22.4873 7.78748V0.430616C22.4873 0.192801 22.2945 0 22.0567 0H3.94272C3.7049 0 3.5121 0.192801 3.5121 0.430616V7.788L0.192686 9.9885L0.192744 9.98862C0.0766496 10.0657 0 10.1976 0 10.3474V23.6827C0 23.9205 0.192801 24.1133 0.430616 24.1133H25.5694C25.8072 24.1133 26 23.9205 26 23.6827V10.3474C26 10.1976 25.9233 10.0657 25.8073 9.98856ZM3.5121 11.4945L2.1614 10.778H3.5121V11.4945ZM0.861231 11.0633L10.764 16.3162L0.861231 22.8803V11.0633ZM12.9998 15.8673L24.1405 23.2521H1.85917L12.9998 15.8673ZM15.2359 16.3163L25.1387 11.0633V22.8806L15.2359 16.3163ZM22.4873 10.778H23.8387L22.4873 11.4948V10.778ZM24.1405 9.91679H22.4873V8.82073L24.1405 9.91679ZM21.6261 0.861231V11.9517L14.4189 15.7747L13.2377 14.9917C13.0935 14.8961 12.9061 14.8961 12.7619 14.9917L11.5809 15.7746L4.37333 11.9514V0.861231H21.6261ZM3.5121 9.91679H1.85957L3.5121 8.82131V9.91679Z" fill="#3FBC5F"/>
<path d="M13.0001 11.3246H16.4309C16.6687 11.3246 16.8615 11.1318 16.8615 10.8939C16.8615 10.6561 16.6687 10.4633 16.4309 10.4633H13.0001C11.3458 10.4633 9.9999 9.11745 9.9999 7.46314V7.33608C9.9999 5.68177 11.3458 4.3359 13.0001 4.3359C14.6544 4.3359 16.0003 5.68177 16.0003 7.33608V7.65376C16.0003 8.01186 15.709 8.30325 15.3508 8.30325C14.9926 8.30325 14.7013 8.01192 14.7013 7.65376V7.05021C14.7013 6.02454 13.8669 5.19007 12.8412 5.19007C11.8156 5.19007 10.9811 6.02449 10.9811 7.05021C10.9811 8.07588 11.8156 8.9103 12.8412 8.9103C13.3102 8.9103 13.739 8.73547 14.0665 8.44799C14.3331 8.87763 14.809 9.16442 15.3508 9.16442C16.1838 9.16442 16.8615 8.48674 16.8615 7.6537V7.33603C16.8615 5.20683 15.1293 3.47461 13.0001 3.47461C10.8709 3.47461 9.13867 5.20683 9.13867 7.33603V7.46309C9.13867 9.59234 10.8709 11.3246 13.0001 11.3246ZM12.8412 8.04907C12.2904 8.04907 11.8424 7.601 11.8424 7.05021C11.8424 6.49943 12.2905 6.0513 12.8412 6.0513C13.392 6.0513 13.8401 6.49943 13.8401 7.05021C13.8401 7.601 13.392 8.04907 12.8412 8.04907Z" fill="#3FBC5F"/>
</svg>
