<svg width="60" height="60" viewBox="0 0 60 60" fill="none" xmlns="http://www.w3.org/2000/svg">
<path d="M15.0195 21.1011H24.3945C24.3945 23.6888 22.2943 25.7886 19.707 25.7886C17.1092 25.7886 15.0195 23.6888 15.0195 21.1011Z" fill="#FFCE54"/>
<path d="M50.662 22.0386H50.6816C50.6816 24.6355 48.5723 26.7357 45.9745 26.7357C43.3776 26.7357 41.2773 24.6355 41.2773 22.0386H50.662Z" fill="#FFCE54"/>
<path d="M34.2188 5.15442H31.4062V3.74817C31.4062 2.96997 32.0343 2.34192 32.8125 2.34192C33.5907 2.34192 34.2188 2.96997 34.2188 3.74817V5.15442Z" fill="#FFCE54"/>
<path d="M31.4061 5.15442H46.4258C47.204 5.15442 47.832 5.78247 47.832 6.56067C47.832 7.33887 47.204 7.96692 46.4258 7.96692H19.2383C18.4601 7.96692 17.832 7.33887 17.832 6.56067C17.832 5.78247 18.4601 5.15442 19.2383 5.15442H31.4061Z" fill="#FFCE54"/>
<path d="M31.4062 7.96692H34.2188V32.3511H31.4062V7.96692Z" fill="#FFCE54"/>
<path d="M24.3746 32.3511H41.2496C42.2901 32.3511 43.1246 33.1865 43.1246 34.2261V38.8564L36.5621 39.8598C36.5621 38.0035 35.2213 36.4668 33.459 36.167L22.5088 34.0302L22.5193 34.0013C22.6319 33.073 23.4184 32.3511 24.3746 32.3511Z" fill="#656D78"/>
<path d="M55.3125 37.0482C57.3843 37.0482 59.0625 38.7273 59.0625 40.7982C59.0625 42.1857 58.3127 43.3951 57.1875 44.0428L31.875 57.6732L10.3125 54.8607V33.2982H18.75L22.5092 34.0302L33.4593 36.167C35.2217 36.4669 36.5625 38.0036 36.5625 39.8598L43.125 38.8564L54.6748 37.1045V37.0949C54.8813 37.0661 55.0978 37.0482 55.3125 37.0482Z" fill="#EAC6BB"/>
<path d="M10.3125 54.8607V56.7357H0.9375V31.4232H10.3125V54.8607Z" fill="#656D78"/>
<path d="M57.1875 41.2275L31.875 54.8579L10.3125 52.0454V54.8607L31.875 57.6732L57.1875 44.0428C58.3118 43.3969 59.0625 42.1866 59.0625 40.7982C59.0625 40.301 58.9613 39.8295 58.7833 39.3983C58.4683 40.1701 57.9057 40.8142 57.1875 41.2275Z" fill="#D3B1A9"/>
<path d="M5.65302 54.8589C5.13483 54.8589 4.71094 54.4396 4.71094 53.9214C4.71094 53.4027 5.12521 52.9839 5.64294 52.9839H5.65302C6.17075 52.9839 6.59052 53.4027 6.59052 53.9214C6.59052 54.4396 6.17075 54.8589 5.65302 54.8589Z" fill="black"/>
<path d="M57.1893 44.9822C56.8648 44.9822 56.5498 44.8142 56.3777 44.5143C56.1177 44.0653 56.2715 43.4926 56.7188 43.234C57.5867 42.7323 58.125 41.7984 58.125 40.7964C58.125 39.2455 56.8629 37.9839 55.3125 37.9839C54.7939 37.9839 54.375 37.5646 54.375 37.0464C54.375 36.5277 54.7939 36.1089 55.3125 36.1089C57.897 36.1089 60 38.2114 60 40.7964C60 42.464 59.1028 44.0204 57.6581 44.8558C57.5102 44.9419 57.3486 44.9822 57.1893 44.9822Z" fill="black"/>
<path d="M31.8755 58.6089C31.5418 58.6089 31.2181 58.4308 31.0488 58.1159C30.8029 57.6599 30.9746 57.0909 31.4301 56.8465L56.7426 43.2179C57.1962 42.9721 57.7675 43.1438 58.012 43.5993C58.2569 44.0552 58.0861 44.6242 57.6306 44.8686L32.3181 58.4972C32.1776 58.5732 32.0256 58.6089 31.8755 58.6089Z" fill="black"/>
<path d="M31.8759 58.6089C31.8356 58.6089 31.7953 58.6061 31.7541 58.6002L10.1916 55.7877C9.67804 55.7213 9.31503 55.2507 9.38324 54.738C9.45007 54.2239 9.91699 53.8563 10.4333 53.9296L31.9958 56.7421C32.5095 56.8089 32.8725 57.2795 32.8043 57.7922C32.7429 58.2646 32.3401 58.6089 31.8759 58.6089Z" fill="black"/>
<path d="M10.3125 57.6714H0.9375C0.418854 57.6714 0 57.2521 0 56.7339V31.4214C0 30.9027 0.418854 30.4839 0.9375 30.4839H10.3125C10.8311 30.4839 11.25 30.9027 11.25 31.4214V56.7339C11.25 57.2521 10.8311 57.6714 10.3125 57.6714ZM1.875 55.7964H9.375V32.3589H1.875V55.7964Z" fill="black"/>
<path d="M36.5619 40.7964C36.1064 40.7964 35.7068 40.4645 35.6368 39.9994C35.5589 39.4877 35.9105 39.0093 36.4223 38.9315L54.5319 36.1744C55.0446 36.0965 55.522 36.4481 55.5999 36.9599C55.6777 37.4721 55.3261 37.95 54.8139 38.0279L36.7034 40.785C36.6567 40.7928 36.6086 40.7964 36.5619 40.7964Z" fill="black"/>
<path d="M32.8125 44.5464C32.2939 44.5464 31.875 44.1271 31.875 43.6089C31.875 43.0902 32.2939 42.6714 32.8125 42.6714C34.3629 42.6714 35.625 41.4093 35.625 39.8589C35.625 38.4851 34.6463 37.3201 33.2973 37.0876C32.7873 36.9992 32.4449 36.5149 32.5333 36.0045C32.6212 35.4946 33.1078 35.1563 33.6159 35.2405C35.8667 35.6269 37.5 37.5696 37.5 39.8589C37.5 42.4434 35.397 44.5464 32.8125 44.5464Z" fill="black"/>
<path d="M33.4571 37.1007C33.3981 37.1007 33.3372 37.0948 33.2772 37.0829L18.5698 34.215C18.0616 34.1166 17.7298 33.6236 17.8291 33.1154C17.9284 32.6069 18.4187 32.275 18.9286 32.3748L33.6361 35.2422C34.1442 35.3406 34.4761 35.8341 34.3768 36.3422C34.2898 36.7904 33.897 37.1007 33.4571 37.1007Z" fill="black"/>
<path d="M18.75 34.2339H10.3125C9.79385 34.2339 9.375 33.8146 9.375 33.2964C9.375 32.7777 9.79385 32.3589 10.3125 32.3589H18.75C19.2686 32.3589 19.6875 32.7777 19.6875 33.2964C19.6875 33.8146 19.2686 34.2339 18.75 34.2339Z" fill="black"/>
<path d="M32.419 44.5239C32.3956 44.5239 32.37 44.523 32.3457 44.5207L20.5528 43.6052C20.0365 43.5649 19.6501 43.1145 19.6904 42.5981C19.7307 42.0808 20.1843 41.6936 20.6975 41.7357L32.4899 42.6517C33.0067 42.6919 33.3931 43.1419 33.3528 43.6583C33.3144 44.1508 32.9047 44.5239 32.419 44.5239Z" fill="black"/>
<path d="M54.6698 38.0361C54.2207 38.0361 53.8234 37.712 53.7465 37.2533C53.6609 36.7424 54.0051 36.2586 54.516 36.1743C54.7778 36.1304 55.0447 36.1089 55.312 36.1089C55.8307 36.1089 56.2495 36.5277 56.2495 37.0464C56.2495 37.5646 55.8307 37.9839 55.312 37.9839C55.1463 37.9839 54.9829 37.9976 54.8254 38.0242C54.7737 38.0333 54.7215 38.0361 54.6698 38.0361Z" fill="black"/>
<path d="M32.8123 44.5463C32.6434 44.5463 32.4777 44.5367 32.3147 44.5179C31.7997 44.4598 31.4303 43.9951 31.4884 43.482C31.5466 42.9674 32.0011 42.5848 32.5244 42.6562C32.62 42.6667 32.7148 42.6722 32.8123 42.6722C33.3309 42.6722 33.7498 43.091 33.7498 43.6097C33.7498 44.1279 33.3309 44.5463 32.8123 44.5463Z" fill="black"/>
<path d="M22.5148 34.9352C22.4773 34.9352 22.4397 34.9333 22.4022 34.9283C21.8877 34.8665 21.5219 34.3996 21.5828 33.886C21.7526 32.477 22.9524 31.4136 24.3747 31.4136C24.8933 31.4136 25.3122 31.8329 25.3122 32.3511C25.3122 32.8697 24.8933 33.2886 24.3747 33.2886C23.9004 33.2886 23.4999 33.6411 23.4445 34.1089C23.3864 34.5854 22.9826 34.9352 22.5148 34.9352Z" fill="black"/>
<path d="M43.126 35.1636C42.6078 35.1636 42.1885 34.7447 42.1885 34.2261C42.1885 33.7088 41.7687 33.2886 41.251 33.2886C40.7328 33.2886 40.3135 32.8697 40.3135 32.3511C40.3135 31.8329 40.7328 31.4136 41.251 31.4136C42.8014 31.4136 44.0635 32.6756 44.0635 34.2261C44.0635 34.7447 43.6446 35.1636 43.126 35.1636Z" fill="black"/>
<path d="M43.126 39.8643C42.6078 39.8643 42.1885 39.4455 42.1885 38.9268V34.2261C42.1885 33.7079 42.6078 33.2886 43.126 33.2886C43.6446 33.2886 44.0635 33.7079 44.0635 34.2261V38.9268C44.0635 39.4446 43.6446 39.8643 43.126 39.8643Z" fill="black"/>
<path d="M41.2509 33.2886H24.375C23.8564 33.2886 23.4375 32.8697 23.4375 32.3511C23.4375 31.8329 23.8564 31.4136 24.375 31.4136H41.2509C41.7696 31.4136 42.1884 31.8329 42.1884 32.3511C42.1884 32.8697 41.7696 33.2886 41.2509 33.2886Z" fill="black"/>
<path d="M31.4072 33.2867C30.889 33.2867 30.4697 32.8679 30.4697 32.3492V7.96875C30.4697 7.4501 30.889 7.03125 31.4072 7.03125C31.9259 7.03125 32.3447 7.4501 32.3447 7.96875V32.3492C32.3447 32.8679 31.9259 33.2867 31.4072 33.2867Z" fill="black"/>
<path d="M34.2188 33.2867C33.7001 33.2867 33.2812 32.8679 33.2812 32.3492V7.96875C33.2812 7.4501 33.7001 7.03125 34.2188 7.03125C34.7374 7.03125 35.1562 7.4501 35.1562 7.96875V32.3492C35.1562 32.8679 34.7374 33.2867 34.2188 33.2867Z" fill="black"/>
<path d="M34.2188 4.6875C33.7001 4.6875 33.2812 4.26865 33.2812 3.75C33.2812 3.49228 33.0702 3.28125 32.8125 3.28125C32.5548 3.28125 32.3438 3.49228 32.3438 3.75C32.3438 4.26865 31.9249 4.6875 31.4062 4.6875C30.8876 4.6875 30.4688 4.26865 30.4688 3.75C30.4688 2.45728 31.5198 1.40625 32.8125 1.40625C34.1052 1.40625 35.1562 2.45728 35.1562 3.75C35.1562 4.26865 34.7374 4.6875 34.2188 4.6875Z" fill="black"/>
<path d="M46.4209 8.90625C45.9023 8.90625 45.4834 8.4874 45.4834 7.96875C45.4834 7.4501 45.9023 7.03125 46.4209 7.03125C46.6786 7.03125 46.8896 6.82022 46.8896 6.5625C46.8896 6.30478 46.6786 6.09375 46.4209 6.09375C45.9023 6.09375 45.4834 5.6749 45.4834 5.15625C45.4834 4.6376 45.9023 4.21875 46.4209 4.21875C47.7136 4.21875 48.7646 5.26978 48.7646 6.5625C48.7646 7.85522 47.7136 8.90625 46.4209 8.90625Z" fill="black"/>
<path d="M19.2314 8.90625C17.9383 8.90625 16.8877 7.85522 16.8877 6.5625C16.8877 5.26978 17.9383 4.21875 19.2314 4.21875C19.7496 4.21875 20.1689 4.6376 20.1689 5.15625C20.1689 5.6749 19.7496 6.09375 19.2314 6.09375C18.9733 6.09375 18.7627 6.30478 18.7627 6.5625C18.7627 6.82022 18.9733 7.03125 19.2314 7.03125C19.7496 7.03125 20.1689 7.4501 20.1689 7.96875C20.1689 8.4874 19.7487 8.90625 19.2314 8.90625Z" fill="black"/>
<path d="M46.4215 6.09558H19.2939C18.7753 6.09558 18.3564 5.67673 18.3564 5.15808C18.3564 4.63989 18.7753 4.22058 19.2939 4.22058H46.4215C46.9397 4.22058 47.359 4.63989 47.359 5.15808C47.359 5.67673 46.9388 6.09558 46.4215 6.09558Z" fill="black"/>
<path d="M46.4215 8.90625H19.2939C18.7753 8.90625 18.3564 8.4874 18.3564 7.96875C18.3564 7.4501 18.7753 7.03125 19.2939 7.03125H46.4215C46.9397 7.03125 47.359 7.4501 47.359 7.96875C47.359 8.4874 46.9388 8.90625 46.4215 8.90625Z" fill="black"/>
<path d="M31.4062 6.09558C30.8876 6.09558 30.4688 5.67673 30.4688 5.15808V3.75C30.4688 3.23135 30.8876 2.8125 31.4062 2.8125C31.9249 2.8125 32.3438 3.23135 32.3438 3.75V5.15808C32.3438 5.67673 31.9249 6.09558 31.4062 6.09558Z" fill="black"/>
<path d="M34.2188 6.09375C33.7001 6.09375 33.2812 5.6749 33.2812 5.15625V3.75C33.2812 3.23135 33.7001 2.8125 34.2188 2.8125C34.7374 2.8125 35.1562 3.23135 35.1562 3.75V5.15625C35.1562 5.6749 34.7374 6.09375 34.2188 6.09375Z" fill="black"/>
<path d="M19.7011 26.7242C16.5988 26.7242 14.0752 24.2015 14.0752 21.0992C14.0752 20.5811 14.494 20.1617 15.0127 20.1617C15.5309 20.1617 15.9502 20.5811 15.9502 21.0992C15.9502 23.1674 17.6329 24.8492 19.7011 24.8492C21.7693 24.8492 23.452 23.1674 23.452 21.0992C23.452 20.5811 23.8709 20.1617 24.3895 20.1617C24.9077 20.1617 25.327 20.5811 25.327 21.0992C25.327 24.2015 22.802 26.7242 19.7011 26.7242Z" fill="black"/>
<path d="M24.3895 22.0367H15.0127C14.494 22.0367 14.0752 21.6179 14.0752 21.0992C14.0752 20.5811 14.494 20.1617 15.0127 20.1617H24.3895C24.9077 20.1617 25.327 20.5811 25.327 21.0992C25.327 21.6179 24.9068 22.0367 24.3895 22.0367Z" fill="black"/>
<path d="M15.0123 22.0367C14.9079 22.0367 14.8003 22.0188 14.6969 21.9813C14.2084 21.8074 13.9544 21.2709 14.1297 20.7843L18.8195 7.65377C18.9925 7.16533 19.529 6.90761 20.0165 7.0866C20.505 7.261 20.759 7.79705 20.5837 8.28365L15.8944 21.4141C15.7584 21.7977 15.3972 22.0367 15.0123 22.0367Z" fill="black"/>
<path d="M24.3896 22.0367C24.0042 22.0367 23.6435 21.7978 23.5075 21.4142L18.82 8.28367C18.6447 7.79616 18.8997 7.26012 19.3872 7.08662C19.8715 6.90947 20.4108 7.16627 20.5842 7.65379L25.2718 20.7843C25.4471 21.2718 25.1921 21.8083 24.7046 21.9813C24.6007 22.0189 24.4936 22.0367 24.3896 22.0367Z" fill="black"/>
<path d="M45.976 27.6768C42.8665 27.6768 40.3359 25.1477 40.3359 22.0367C40.3359 21.5186 40.7552 21.0992 41.2734 21.0992C41.7921 21.0992 42.2109 21.5186 42.2109 22.0367C42.2109 24.1127 43.9005 25.8018 45.976 25.8018C48.0515 25.8018 49.7411 24.1127 49.7411 22.0367C49.7411 21.5186 50.16 21.0992 50.6786 21.0992C51.1968 21.0992 51.6161 21.5186 51.6161 22.0367C51.6161 25.1468 49.0856 27.6768 45.976 27.6768Z" fill="black"/>
<path d="M50.6639 22.9742H41.2871C40.7685 22.9742 40.3496 22.5554 40.3496 22.0367C40.3496 21.5186 40.7685 21.0992 41.2871 21.0992H50.6639C51.1826 21.0992 51.6014 21.5186 51.6014 22.0367C51.6014 22.5554 51.1826 22.9742 50.6639 22.9742Z" fill="black"/>
<path d="M41.2879 22.9742C41.1904 22.9742 41.0902 22.9582 40.9917 22.9257C40.5015 22.7623 40.2351 22.2318 40.3989 21.7397L45.0887 7.67167C45.2526 7.1814 45.7776 6.91498 46.2743 7.07886C46.7646 7.24228 47.031 7.77283 46.8671 8.26493L42.1773 22.3329C42.0464 22.7261 41.6807 22.9742 41.2879 22.9742Z" fill="black"/>
<path d="M50.6647 22.9743C50.2719 22.9743 49.9062 22.7262 49.7762 22.333L45.0887 8.26501C44.9244 7.77383 45.1899 7.24237 45.681 7.07895C46.1768 6.91507 46.7028 7.18057 46.8671 7.67175L51.5546 21.7397C51.7185 22.2309 51.453 22.7624 50.9618 22.9258C50.8625 22.9583 50.7622 22.9743 50.6647 22.9743Z" fill="black"/>
</svg>
