<svg width="31" height="2" viewBox="0 0 31 2" fill="none" xmlns="http://www.w3.org/2000/svg">
<rect width="19.3019" height="1.75472" rx="0.877358" fill="#F65D2D"/>
<rect x="21.6416" width="5.84906" height="1.75472" rx="0.877358" fill="#F65D2D"/>
<rect x="29.2451" width="1.75472" height="1.75472" rx="0.877358" fill="#F65D2D"/>
</svg>
