<svg width="56" height="56" viewBox="0 0 56 56" fill="none" xmlns="http://www.w3.org/2000/svg">
<g clip-path="url(#clip0)">
<path d="M23.3203 53.0333C23.3203 54.626 24.6109 55.9174 26.2038 55.9174H30.0484C31.6408 55.9174 32.9319 54.626 32.9319 53.0333V47.265H23.3203V53.0333Z" fill="#EBEBEB"/>
<path d="M18.7914 36.8406C17.9509 36.2989 17.1582 35.6849 16.4232 35.0065C15.7958 37.4198 13.4243 38.9502 10.9674 38.5277C8.51011 38.1052 6.78584 35.8712 6.99938 33.3866C7.21292 30.9019 9.29339 28.9951 11.7869 28.9989C11.9338 28.9989 12.075 29.0294 12.2154 29.0421C11.3044 26.9001 10.8346 24.5967 10.8351 22.2693H9.61159L8.94751 25.429C8.88133 25.7439 8.66216 26.0049 8.36368 26.1242C8.06472 26.2439 7.72635 26.2058 7.46165 26.0232L4.80579 24.192L1.92232 27.0762L3.74843 29.7321C3.93099 29.9974 3.969 30.3358 3.84933 30.6344C3.73012 30.9334 3.46918 31.1526 3.15474 31.2183L0 31.883V35.7285L3.1585 36.3927C3.47294 36.4589 3.73388 36.6782 3.85355 36.9767C3.97276 37.2753 3.93474 37.6142 3.75218 37.8789L1.92232 40.5354L4.80579 43.4195L7.46165 41.5925C7.72635 41.4099 8.06519 41.3714 8.36415 41.4911C8.6631 41.6104 8.88227 41.8718 8.94845 42.1868L9.61159 45.3423H13.4562L14.1194 42.1821C14.1855 41.8667 14.4047 41.6057 14.7037 41.4864C15.0026 41.3667 15.3415 41.4048 15.6062 41.5878L18.262 43.4195L21.2793 40.4016C20.9629 38.9281 20.0661 37.6442 18.7914 36.8406Z" fill="#C9DFFF"/>
<path d="M45.427 22.2693C45.4261 13.9723 39.5375 6.84321 31.3916 5.27722C23.2457 3.71123 15.1345 8.1482 12.0586 15.8537C8.98274 23.5593 11.8071 32.3642 18.791 36.8406C20.3913 37.8329 21.3746 39.574 21.398 41.4573V45.3423C21.398 46.935 22.6886 48.2264 24.2815 48.2264H31.9708C33.5632 48.2264 34.8542 46.935 34.8542 45.3423V41.5371C34.8787 39.6092 35.8816 37.8264 37.5167 36.8049C42.4511 33.6185 45.4303 28.1441 45.427 22.2693Z" fill="#FFB41F"/>
<path d="M51.3799 12.0989L54.4018 9.83206L50.9415 5.21718L47.9196 7.48401C47.2978 7.95015 46.4563 7.99568 45.7875 7.59949C45.1187 7.2033 44.7545 6.44331 44.8639 5.67393L45.3975 1.93499L39.6883 1.11914L39.1547 4.85761C39.0453 5.62792 38.4826 6.25601 37.7293 6.44894C36.9761 6.64234 36.1806 6.36257 35.7141 5.74012L33.4482 2.71752L28.8349 6.17856L31.1003 9.20115C31.5663 9.82361 31.6118 10.6648 31.2157 11.3337C30.8196 12.0027 30.0598 12.3669 29.2906 12.2576L25.5525 11.7238L24.7363 17.4343L28.4754 17.9681C29.245 18.0779 29.873 18.6407 30.0659 19.3942C30.2588 20.1476 29.9791 20.9432 29.3567 21.4098L26.3358 23.6767L29.796 28.2911L32.817 26.0252C33.4389 25.5586 34.2808 25.5126 34.9501 25.9088C35.6188 26.305 35.9835 27.0654 35.8737 27.8353L35.3354 31.5733L41.0446 32.3896L41.5829 28.6497C41.6927 27.8799 42.2554 27.2523 43.0087 27.0593C43.7619 26.8659 44.5574 27.1462 45.0235 27.7681L47.2903 30.7898L51.9036 27.3288L49.6364 24.3071C49.1699 23.6851 49.1239 22.843 49.52 22.1736C49.9161 21.5047 50.6764 21.1399 51.446 21.2502L55.1842 21.7844L56.0003 16.0739L52.2622 15.5397C51.493 15.4294 50.8655 14.8671 50.6721 14.1136C50.4793 13.3607 50.7585 12.5655 51.3799 12.0989ZM40.3688 23.4833C36.6527 23.4833 33.6407 20.4705 33.6407 16.7537C33.6407 13.0373 36.6527 10.024 40.3688 10.024C44.0848 10.024 47.0969 13.0373 47.0969 16.7537C47.0969 20.4705 44.0848 23.4833 40.3688 23.4833Z" fill="#1CC8EB"/>
<path d="M23.3203 50.1492H32.9319V52.0719H23.3203V50.1492Z" fill="#9E9E9E"/>
<path d="M27.165 42.4581H29.0873V45.3423H27.165V42.4581Z" fill="#FFAA00"/>
<path d="M29.0875 40.5354H27.1652C27.1642 37.9935 25.5972 35.715 23.2243 34.8052C18.4941 32.9552 15.2079 28.599 14.7283 23.5415C14.2487 18.4839 16.6567 13.5874 20.9547 10.8807L21.9745 12.5073C18.2895 14.8267 16.224 19.0242 16.6351 23.3603C17.0458 27.6959 19.8626 31.4306 23.918 33.0163C27.0333 34.2081 29.0898 37.1993 29.0875 40.5354Z" fill="#FFAA00"/>
<path d="M47.3489 35.7285H52.1546C52.6854 35.7285 53.1158 36.1585 53.1158 36.6899C53.1158 37.2208 52.6854 37.6513 52.1546 37.6513H47.3489C46.8181 37.6513 46.3877 37.2208 46.3877 36.6899C46.3877 36.1585 46.8181 35.7285 47.3489 35.7285Z" fill="#FFAA00"/>
<path d="M45.4269 41.4972C45.7667 41.0892 46.3726 41.0338 46.7804 41.3737L51.0709 44.9493C51.4788 45.2891 51.5341 45.8952 51.1944 46.3031C50.8541 46.711 50.2482 46.7664 49.8404 46.4265L45.5499 42.851C45.1421 42.5111 45.0872 41.9051 45.4269 41.4972Z" fill="#FFAA00"/>
<path d="M41.5823 43.4196C42.1131 43.4196 42.5434 43.8495 42.5434 44.3809V49.1878C42.5434 49.7187 42.1131 50.1492 41.5823 50.1492C41.0515 50.1492 40.6211 49.7187 40.6211 49.1878V44.3809C40.6211 43.8495 41.0515 43.4196 41.5823 43.4196Z" fill="#FFAA00"/>
<path d="M0.952252 16.2955L6.77646 14.8403C7.29177 14.7117 7.81318 15.0248 7.94177 15.5397C8.07036 16.0547 7.75733 16.5762 7.24202 16.7048L1.41781 18.16C0.902504 18.2886 0.381094 17.9755 0.252502 17.4606C0.123909 16.9456 0.436943 16.4241 0.952252 16.2955Z" fill="#FFAA00"/>
<path d="M2.17408 5.92646C2.48242 5.49459 3.08268 5.39507 3.51445 5.70348L8.67786 9.39266C9.1101 9.70107 9.21006 10.3015 8.90172 10.7333C8.59338 11.1652 7.99313 11.2652 7.56136 10.9563L2.39794 7.26712C1.9657 6.95871 1.86574 6.35833 2.17408 5.92646Z" fill="#FFAA00"/>
<path d="M10.7829 0.156753C11.2973 0.025315 11.8206 0.335602 11.952 0.850087L13.4416 6.67794C13.573 7.19243 13.2628 7.7163 12.7484 7.84774C12.234 7.97918 11.7107 7.66842 11.5793 7.15441L10.0897 1.32655C9.95832 0.812064 10.2685 0.288191 10.7829 0.156753Z" fill="#FFAA00"/>
</g>
<defs>
<clipPath id="clip0">
<rect width="56" height="56" fill="white"/>
</clipPath>
</defs>
</svg>
