<svg width="35" height="33" viewBox="0 0 35 33" fill="none" xmlns="http://www.w3.org/2000/svg">
<path d="M34.7405 13.4461L34.7406 13.4461L30.2714 10.4832V0.579675C30.2714 0.25954 30.0119 0 29.6917 0H5.3075C4.98737 0 4.72783 0.25954 4.72783 0.579675V10.4838L0.259385 13.4461L0.259463 13.4462C0.103182 13.55 0 13.7275 0 13.9292V31.8806C0 32.2007 0.25954 32.4603 0.579675 32.4603H34.4203C34.7405 32.4603 35 32.2007 35 31.8806V13.9292C35 13.7275 34.8968 13.55 34.7405 13.4461ZM4.72783 15.4734L2.90958 14.5089H4.72783V15.4734ZM1.15935 14.8929L14.4899 21.9641L1.15935 30.8005V14.8929ZM17.4998 21.3598L32.4969 31.3009H2.50273L17.4998 21.3598ZM20.5098 21.9642L33.8406 14.8929V30.8008L20.5098 21.9642ZM30.2714 14.5089H32.0905L30.2714 15.4738V14.5089ZM32.4969 13.3495H30.2714V11.8741L32.4969 13.3495ZM29.112 1.15935V16.0888L19.4101 21.2352L17.82 20.1812C17.6259 20.0525 17.3736 20.0525 17.1795 20.1812L15.5896 21.235L5.88718 16.0884V1.15935H29.112ZM4.72783 13.3495H2.50327L4.72783 11.8748V13.3495Z" fill="white"/>
<path d="M17.4988 15.2447H22.1172C22.4374 15.2447 22.6969 14.9852 22.6969 14.6651C22.6969 14.3449 22.4374 14.0854 22.1172 14.0854H17.4988C15.2719 14.0854 13.4601 12.2736 13.4601 10.0467V9.87563C13.4601 7.64867 15.2719 5.83692 17.4988 5.83692C19.7258 5.83692 21.5376 7.64867 21.5376 9.87563V10.3033C21.5376 10.7853 21.1454 11.1776 20.6633 11.1776C20.1811 11.1776 19.7889 10.7854 19.7889 10.3033V9.4908C19.7889 8.11009 18.6657 6.98676 17.285 6.98676C15.9043 6.98676 14.781 8.11002 14.781 9.4908C14.781 10.8715 15.9043 11.9948 17.285 11.9948C17.9164 11.9948 18.4935 11.7594 18.9344 11.3724C19.2933 11.9508 19.9339 12.3369 20.6633 12.3369C21.7846 12.3369 22.6969 11.4246 22.6969 10.3032V9.87555C22.6969 7.00933 20.3651 4.67749 17.4988 4.67749C14.6326 4.67749 12.3008 7.00933 12.3008 9.87555V10.0466C12.3008 12.9129 14.6326 15.2447 17.4988 15.2447ZM17.285 10.8354C16.5435 10.8354 15.9404 10.2322 15.9404 9.4908C15.9404 8.74936 16.5436 8.14611 17.285 8.14611C18.0263 8.14611 18.6296 8.74936 18.6296 9.4908C18.6296 10.2322 18.0264 10.8354 17.285 10.8354Z" fill="white"/>
</svg>
