<svg width="20" height="19" viewBox="0 0 20 19" fill="none" xmlns="http://www.w3.org/2000/svg">
<path d="M15.2349 11.1702C14.8658 10.7858 14.4205 10.5803 13.9486 10.5803C13.4805 10.5803 13.0314 10.782 12.647 11.1663L11.4444 12.3652C11.3454 12.3119 11.2465 12.2624 11.1513 12.2129C11.0143 12.1444 10.8849 12.0797 10.7746 12.0112C9.64805 11.2957 8.62429 10.3633 7.6424 9.15689C7.16668 8.55558 6.84699 8.04941 6.61484 7.53563C6.92692 7.2502 7.21616 6.95335 7.49778 6.66791C7.60435 6.56135 7.71091 6.45098 7.81747 6.34442C8.61668 5.54521 8.61668 4.51004 7.81747 3.71082L6.77849 2.67184C6.66051 2.55386 6.53873 2.43208 6.42455 2.31029C6.19621 2.07434 5.95644 1.83077 5.70907 1.60242C5.3399 1.23706 4.89843 1.04297 4.43413 1.04297C3.96982 1.04297 3.52074 1.23706 3.14016 1.60242C3.13636 1.60622 3.13636 1.60622 3.13255 1.61003L1.83859 2.91541C1.35145 3.40255 1.07362 3.99626 1.01273 4.6851C0.921392 5.79639 1.24869 6.83156 1.49987 7.50899C2.11641 9.17212 3.03741 10.7135 4.41129 12.3652C6.07823 14.3556 8.08387 15.9274 10.375 17.0349C11.2503 17.4497 12.4187 17.9406 13.724 18.0244C13.804 18.0282 13.8877 18.032 13.9638 18.032C14.8429 18.032 15.5813 17.7161 16.1597 17.0881C16.1635 17.0805 16.1712 17.0767 16.175 17.0691C16.3729 16.8294 16.6012 16.6124 16.841 16.3803C17.0046 16.2242 17.1721 16.0606 17.3357 15.8893C17.7125 15.4973 17.9104 15.0406 17.9104 14.5725C17.9104 14.1006 17.7087 13.6477 17.3243 13.2671L15.2349 11.1702ZM16.5974 15.1776C16.5936 15.1776 16.5936 15.1814 16.5974 15.1776C16.449 15.3375 16.2968 15.4821 16.1331 15.6419C15.8857 15.8779 15.6345 16.1253 15.3986 16.4031C15.0142 16.8141 14.5613 17.0082 13.9676 17.0082C13.9105 17.0082 13.8496 17.0082 13.7925 17.0044C12.6622 16.9321 11.6118 16.4906 10.824 16.1139C8.66996 15.0711 6.77849 13.5906 5.2067 11.7144C3.90893 10.1502 3.04121 8.70401 2.46654 7.15125C2.1126 6.20361 1.9832 5.46529 2.04029 4.76883C2.07835 4.32355 2.24961 3.95439 2.56549 3.63851L3.86326 2.34074C4.04974 2.16567 4.24765 2.07053 4.44174 2.07053C4.6815 2.07053 4.8756 2.21515 4.99738 2.33693C5.00119 2.34074 5.005 2.34455 5.0088 2.34835C5.24095 2.56528 5.46169 2.78982 5.69384 3.02959C5.81182 3.15137 5.93361 3.27316 6.05539 3.39875L7.09437 4.43773C7.49778 4.84114 7.49778 5.21411 7.09437 5.61752C6.984 5.72789 6.87744 5.83825 6.76707 5.94481C6.44739 6.27211 6.14292 6.57657 5.81182 6.87343C5.80421 6.88104 5.7966 6.88484 5.79279 6.89245C5.4655 7.21975 5.52639 7.53944 5.59489 7.75637C5.5987 7.76778 5.6025 7.7792 5.60631 7.79062C5.87652 8.44521 6.2571 9.06175 6.83558 9.79627L6.83938 9.80007C7.88978 11.094 8.99726 12.1026 10.2189 12.8751C10.375 12.9741 10.5348 13.054 10.687 13.1301C10.824 13.1986 10.9534 13.2633 11.0638 13.3318C11.079 13.3394 11.0942 13.3509 11.1095 13.3585C11.2389 13.4232 11.3607 13.4536 11.4862 13.4536C11.8021 13.4536 12 13.2557 12.0647 13.191L13.3663 11.8894C13.4957 11.76 13.7012 11.604 13.941 11.604C14.1769 11.604 14.371 11.7524 14.489 11.8818C14.4928 11.8856 14.4928 11.8856 14.4966 11.8894L16.5936 13.9864C16.9856 14.3746 16.9856 14.7742 16.5974 15.1776Z" fill="black"/>
<path d="M10.7286 4.28924C11.7257 4.45669 12.6315 4.92861 13.3546 5.65171C14.0777 6.3748 14.5458 7.28058 14.717 8.27769C14.7589 8.52888 14.9758 8.70394 15.2232 8.70394C15.2536 8.70394 15.2803 8.70014 15.3107 8.69633C15.5924 8.65066 15.7788 8.38426 15.7332 8.10263C15.5277 6.8962 14.9568 5.79633 14.0853 4.9248C13.2137 4.05328 12.1139 3.48241 10.9074 3.2769C10.6258 3.23123 10.3632 3.41771 10.3137 3.69553C10.2643 3.97336 10.4469 4.24357 10.7286 4.28924Z" fill="black"/>
<path d="M18.9954 7.9543C18.6567 5.96769 17.7205 4.15994 16.2819 2.72135C14.8433 1.28277 13.0355 0.346547 11.0489 0.00783286C10.7711 -0.0416423 10.5085 0.148647 10.459 0.426469C10.4134 0.708097 10.5998 0.970695 10.8815 1.02017C12.655 1.32083 14.2724 2.1619 15.5588 3.44445C16.8451 4.73081 17.6824 6.34826 17.9831 8.12176C18.0249 8.37294 18.2418 8.54801 18.4892 8.54801C18.5197 8.54801 18.5463 8.5442 18.5768 8.54039C18.8546 8.49853 19.0449 8.23213 18.9954 7.9543Z" fill="black"/>
</svg>
