<svg width="27" height="28" viewBox="0 0 27 28" fill="none" xmlns="http://www.w3.org/2000/svg">
<path d="M21.3837 17.9884C19.7733 17.9884 18.3372 18.7558 17.4186 19.9419L9.72674 15.6453C9.90698 15.1279 10.0058 14.5698 10.0058 13.9942C10.0058 13.4128 9.90698 12.8605 9.72093 12.3372L17.407 8.04651C18.3198 9.23837 19.7616 10.0116 21.3779 10.0116C24.1337 10.0116 26.3837 7.76744 26.3837 5.00581C26.3837 2.24419 24.1395 0 21.3779 0C18.6163 0 16.3721 2.24419 16.3721 5.00581C16.3721 5.58721 16.4709 6.14535 16.657 6.66279L8.97674 10.9535C8.06395 9.75581 6.62209 8.98837 5.00581 8.98837C2.25 8.98837 0 11.2326 0 13.9942C0 16.7558 2.25 19 5.01163 19C6.62791 19 8.06977 18.2267 8.98837 17.0291L16.6744 21.3256C16.4884 21.8488 16.3837 22.4128 16.3837 22.9942C16.3837 25.75 18.6279 28 21.3895 28C24.1512 28 26.3953 25.7558 26.3953 22.9942C26.3953 20.2326 24.1454 17.9884 21.3837 17.9884ZM21.3837 1.57558C23.2791 1.57558 24.8198 3.11628 24.8198 5.01163C24.8198 6.90698 23.2791 8.44767 21.3837 8.44767C19.4884 8.44767 17.9477 6.90698 17.9477 5.01163C17.9477 3.11628 19.4942 1.57558 21.3837 1.57558ZM5.01163 17.4302C3.11628 17.4302 1.57558 15.8895 1.57558 13.9942C1.57558 12.0988 3.11628 10.5581 5.01163 10.5581C6.90698 10.5581 8.44767 12.0988 8.44767 13.9942C8.44767 15.8895 6.90116 17.4302 5.01163 17.4302ZM21.3837 26.4244C19.4884 26.4244 17.9477 24.8837 17.9477 22.9884C17.9477 21.093 19.4884 19.5523 21.3837 19.5523C23.2791 19.5523 24.8198 21.093 24.8198 22.9884C24.8198 24.8837 23.2791 26.4244 21.3837 26.4244Z" fill="#1F75FE"/>
</svg>
