<svg width="53" height="3" viewBox="0 0 53 3" fill="none" xmlns="http://www.w3.org/2000/svg">
<rect width="33" height="3" rx="1.5" fill="#1F75FE"/>
<rect x="37" width="10" height="3" rx="1.5" fill="#1F75FE"/>
<rect x="50" width="3" height="3" rx="1.5" fill="#1F75FE"/>
</svg>
