<svg width="65" height="71" viewBox="0 0 65 71" fill="none" xmlns="http://www.w3.org/2000/svg">
<path d="M49.0709 48.0274V36.3938C49.0647 30.614 44.3806 25.9299 38.6007 25.9236H19.987C14.2072 25.9299 9.52306 30.614 9.51682 36.3938V51.5174H11.8435V36.3938C11.8486 31.8983 15.4915 28.2554 19.987 28.2503H21.832L28.4713 34.8896C28.9258 35.3435 29.662 35.3435 30.1164 34.8896L36.7557 28.2503H38.6007C43.0962 28.2554 46.7391 31.8983 46.7442 36.3938V48.0274H49.0709ZM29.2939 32.422L25.1221 28.2503H33.4656L29.2939 32.422Z" fill="white"/>
<path d="M17.6603 38.7207H19.987V49.1909H17.6603V38.7207Z" fill="white"/>
<path d="M38.6006 38.7207H40.9273V46.8642H38.6006V38.7207Z" fill="white"/>
<path d="M63.0308 51.5175H48.1946C45.6305 50.1139 42.7624 49.359 39.8393 49.3186C39.7512 49.3107 39.6592 49.3073 39.5774 49.3073C36.5662 49.3073 33.6027 50.0622 30.9585 51.5033L22.3134 51.5175C19.7435 51.5175 17.66 53.6011 17.66 56.171C17.6588 56.263 17.6645 56.355 17.6764 56.4465C17.6935 56.7657 17.7446 57.0815 17.8275 57.39L11.2694 54.385L11.1638 54.3328L7.24655 52.5434C5.70999 51.8362 3.91838 51.9612 2.49429 52.874C1.06963 53.7875 0.208479 55.3632 0.209615 57.0548V57.311C0.201094 59.1941 1.26788 60.9164 2.95725 61.748L17.9996 69.2809C19.1318 69.8393 20.3763 70.1301 21.6385 70.1312H63.0308C63.6733 70.1312 64.1942 69.6103 64.1942 68.9679V52.6809C64.1942 52.0384 63.6733 51.5175 63.0308 51.5175ZM46.7438 67.8045H21.6385C20.7342 67.8028 19.8418 67.5943 19.0306 67.195L3.99507 59.661C3.09983 59.2208 2.53349 58.3091 2.53633 57.311V57.0548C2.53633 56.1562 2.9936 55.3195 3.75081 54.8344C4.50744 54.3492 5.45892 54.2834 6.2752 54.6588L10.1601 56.4328L10.2646 56.484L19.5004 60.7187C19.6532 60.7886 19.8191 60.8244 19.9867 60.8244H32.7836V58.4977H22.3134C21.0705 58.4994 20.048 57.5189 19.9975 56.2766C19.9958 56.238 19.9923 56.1988 19.9867 56.1607C19.9923 54.8798 21.0324 53.8443 22.3134 53.8443H31.2362C31.4356 53.8443 31.6316 53.7931 31.8054 53.6954L32.0843 53.5381C34.3735 52.2946 36.9354 51.6368 39.5405 51.6232C39.6109 51.6374 39.6825 51.6448 39.7546 51.6454C42.1876 51.6686 44.5819 52.2623 46.7438 53.379V67.8045ZM61.8675 67.8045H49.0706V53.8443H61.8675V67.8045Z" fill="white"/>
<path d="M51.3974 63.1509H53.7241V65.4776H51.3974V63.1509Z" fill="white"/>
<path d="M29.2935 23.5971C34.4315 23.5914 38.5947 19.4277 38.6004 14.2903V9.63683C38.6004 4.4966 34.4337 0.329987 29.2935 0.329987C24.1533 0.329987 19.9867 4.4966 19.9867 9.63683V14.2903C19.9923 19.4277 24.1561 23.5914 29.2935 23.5971ZM22.3134 9.63683C22.3134 5.78208 25.4388 2.6567 29.2935 2.6567C33.1488 2.6567 36.2736 5.78208 36.2736 9.63683V14.2903C36.2736 18.145 33.1488 21.2704 29.2935 21.2704C25.4388 21.2704 22.3134 18.145 22.3134 14.2903V9.63683Z" fill="white"/>
<path d="M26.967 9.63661C26.9693 8.65106 27.5901 7.77286 28.5189 7.44226L27.7418 5.2496C25.8849 5.90967 24.6431 7.6655 24.6403 9.63661V10.8H26.967V9.63661Z" fill="white"/>
</svg>
