<svg width="15" height="23" viewBox="0 0 15 23" fill="none" xmlns="http://www.w3.org/2000/svg">
<path d="M0.599218 21.5996L14.1992 11.1996L0.59922 0.799609L0.599218 21.5996Z" fill="#4F4F4F" stroke="#4F4F4F" stroke-linecap="round" stroke-linejoin="round"/>
</svg>
