<svg width="64" height="64" viewBox="0 0 64 64" fill="none" xmlns="http://www.w3.org/2000/svg">
<path d="M61 36H60V33C59.9974 31.0142 58.82 29.2183 57 28.424V13C56.9997 12.6025 56.7643 12.243 56.4 12.084C56.7901 11.4587 56.9979 10.737 57 10C57 7.79087 55.2091 6 53 6C50.7909 6 49 7.79087 49 10C49.0041 10.7042 49.1961 11.3946 49.556 12H14.444C14.8039 11.3946 14.9959 10.7042 15 10C15 7.79087 13.2091 6 11 6C8.79087 6 7 7.79087 7 10C7.00212 10.737 7.20988 11.4587 7.6 12.084C7.23575 12.243 7.00025 12.6025 7 13V28.424C5.18 29.2183 4.00262 31.0142 4 33V36H3C2.44775 36 2 36.4478 2 37V51C2 51.5522 2.44775 52 3 52H4V57C4 57.5522 4.44775 58 5 58H9C9.55225 58 10 57.5522 10 57V52H54V57C54 57.5522 54.4478 58 55 58H59C59.5522 58 60 57.5522 60 57V52H61C61.5522 52 62 51.5522 62 51V37C62 36.4478 61.5522 36 61 36ZM53 8C54.1046 8 55 8.89538 55 10C55 11.1046 54.1046 12 53 12C51.8954 12 51 11.1046 51 10C51 8.89538 51.8954 8 53 8ZM11 8C12.1046 8 13 8.89538 13 10C13 11.1046 12.1046 12 11 12C9.89538 12 9 11.1046 9 10C9 8.89538 9.89538 8 11 8ZM9 14H55V28H50.974C51.6357 27.1396 51.9964 26.0855 52 25V23C51.9967 20.24 49.76 18.0033 47 18H39C36.24 18.0033 34.0033 20.24 34 23V25C34.0036 26.0855 34.3643 27.1396 35.026 28H28.974C29.6358 27.1396 29.9964 26.0855 30 25V23C29.9967 20.24 27.76 18.0033 25 18H17C14.24 18.0033 12.0033 20.24 12 23V25C12.0036 26.0855 12.3643 27.1396 13.026 28H9V14ZM50 23V25C50 26.6569 48.6569 28 47 28H39C37.3431 28 36 26.6569 36 25V23C36 21.3431 37.3431 20 39 20H47C48.6569 20 50 21.3431 50 23ZM28 23V25C28 26.6569 26.6569 28 25 28H17C15.3431 28 14 26.6569 14 25V23C14 21.3431 15.3431 20 17 20H25C26.6569 20 28 21.3431 28 23ZM6 33C6 31.3431 7.34312 30 9 30H55C56.6569 30 58 31.3431 58 33V36H6V33ZM8 56H6V52H8V56ZM58 56H56V52H58V56ZM60 50H4V38H60V50Z" fill="white"/>
<path d="M11 46H7C6.44775 46 6 46.4477 6 47C6 47.5523 6.44775 48 7 48H11C11.5522 48 12 47.5523 12 47C12 46.4477 11.5522 46 11 46Z" fill="white"/>
<path d="M57 46H15C14.4477 46 14 46.4477 14 47C14 47.5523 14.4477 48 15 48H57C57.5522 48 58 47.5523 58 47C58 46.4477 57.5522 46 57 46Z" fill="white"/>
</svg>
