<svg width="14" height="14" viewBox="0 0 14 14" fill="none" xmlns="http://www.w3.org/2000/svg">
<path d="M5.90692 6.00923V5.92602C5.90693 5.82301 5.87215 5.72302 5.80823 5.64224C5.74431 5.56146 5.65499 5.50463 5.55474 5.48096C5.45449 5.45728 5.34918 5.46815 5.25588 5.5118C5.16257 5.55545 5.08674 5.62933 5.04067 5.72146L3.69634 8.41034L3.305 8.21466L4.22011 6.3843L3.97467 3.5H3.67991C3.54459 3.50022 3.41262 3.54215 3.30199 3.62007C3.19136 3.698 3.10744 3.80813 3.06166 3.93548L2.22645 6.27465C2.2011 6.34546 2.18815 6.42011 2.18817 6.49532V9.84375C2.18817 9.86998 2.18347 9.89599 2.17428 9.92056L0.972656 13.125H3.76719L4.60095 9.79068L5.88078 6.16131C5.89809 6.11248 5.90693 6.06104 5.90692 6.00923V6.00923Z" fill="#345F1F"/>
<path d="M11.8264 9.92056C11.8172 9.89599 11.8125 9.86998 11.8125 9.84375V6.49532C11.8125 6.42011 11.7996 6.34546 11.7742 6.27465L10.939 3.93559C10.8933 3.80822 10.8093 3.69806 10.6987 3.62011C10.5881 3.54216 10.4561 3.50022 10.3208 3.5H9.97514L9.74963 6.32245L10.6957 8.21464L10.3044 8.41031L8.96 5.72146C8.91393 5.62933 8.8381 5.55545 8.74479 5.5118C8.65149 5.46815 8.54618 5.45728 8.44593 5.48096C8.34568 5.50463 8.25636 5.56146 8.19244 5.64224C8.12852 5.72302 8.09374 5.82301 8.09375 5.92602V6.00923C8.09373 6.06111 8.10254 6.11261 8.11981 6.16153L9.39386 9.77091L10.2332 13.125H13.028L11.8264 9.92056Z" fill="#345F1F"/>
<path d="M7.70708 6.307C7.67341 6.21133 7.65622 6.11065 7.65625 6.00923V5.92602C7.65625 5.72446 7.72431 5.5288 7.84939 5.37074C7.97447 5.21268 8.14926 5.10149 8.34543 5.05517C8.5416 5.00885 8.74766 5.03012 8.93023 5.11554C9.1128 5.20096 9.26119 5.34551 9.35134 5.52579L9.37125 5.5656L9.62555 2.38883L9.625 1.3125C9.625 1.19647 9.57891 1.08519 9.49686 1.00314C9.41481 0.921094 9.30353 0.875 9.1875 0.875C9.07147 0.875 8.96019 0.921094 8.87814 1.00314C8.79609 1.08519 8.75 1.19647 8.75 1.3125V2.1875H8.3125V1.20312C8.3125 1.1161 8.27793 1.03264 8.21639 0.971106C8.15486 0.90957 8.0714 0.875 7.98438 0.875C7.89735 0.875 7.81389 0.90957 7.75236 0.971106C7.69082 1.03264 7.65625 1.1161 7.65625 1.20312V2.1875H7.21875V1.20312C7.21875 1.1161 7.18418 1.03264 7.12264 0.971106C7.06111 0.90957 6.97765 0.875 6.89062 0.875C6.8036 0.875 6.72014 0.90957 6.65861 0.971106C6.59707 1.03264 6.5625 1.1161 6.5625 1.20312V2.40625H6.125V1.64062C6.125 1.5536 6.09043 1.47014 6.02889 1.40861C5.96736 1.34707 5.8839 1.3125 5.79688 1.3125C5.70985 1.3125 5.62639 1.34707 5.56486 1.40861C5.50332 1.47014 5.46875 1.5536 5.46875 1.64062V2.625H5.03125V2.07812C5.03125 1.9911 4.99668 1.90764 4.93514 1.84611C4.87361 1.78457 4.79015 1.75 4.70312 1.75C4.6161 1.75 4.53264 1.78457 4.47111 1.84611C4.40957 1.90764 4.375 1.9911 4.375 2.07812V3.0625L4.59438 5.63432L4.64866 5.52579C4.73881 5.34551 4.8872 5.20096 5.06977 5.11554C5.25234 5.03012 5.4584 5.00885 5.65457 5.05517C5.85074 5.10149 6.02553 5.21268 6.15061 5.37074C6.27569 5.5288 6.34375 5.72446 6.34375 5.92602V6.00923C6.3438 6.11058 6.32661 6.2112 6.29292 6.30678L5.01886 9.91659L4.97429 10.095L5.08296 11.3696C5.16668 12.3539 6.00687 13.125 6.99573 13.125C7.47732 13.1225 7.94056 12.94 8.29441 12.6133C8.64827 12.2866 8.86716 11.8394 8.90807 11.3596L9.01264 10.046L8.97537 9.89685L7.70708 6.307ZM6.55482 5.27341C6.45751 5.02995 6.27801 4.82827 6.0475 4.70335C5.81699 4.57844 5.55002 4.53819 5.29293 4.58959L5.20707 4.16063C5.56436 4.08908 5.93543 4.14492 6.25585 4.31844C6.57626 4.49197 6.82579 4.77222 6.96112 5.11055L6.98441 5.16854L6.57809 5.33135L6.55482 5.27341ZM7.525 8.05C7.2309 7.82799 7.00519 7.52771 6.87367 7.18349C6.74214 6.83927 6.71012 6.46499 6.78125 6.10343L6.78552 6.08185L7.21448 6.16815L7.21022 6.18939C7.15505 6.46999 7.17993 6.76044 7.28201 7.02757C7.38409 7.29469 7.55926 7.52771 7.7875 7.7L7.525 8.05Z" fill="#345F1F"/>
</svg>
