<svg width="64" height="64" viewBox="0 0 64 64" fill="none" xmlns="http://www.w3.org/2000/svg">
<g clip-path="url(#clip0)">
<path d="M37.7494 25.9844C36.8816 25.2234 35.7878 24.5449 34.4894 23.9593C35.4211 22.9944 35.9451 21.8908 35.9451 20.7093C35.9451 17.718 32.5537 15.1405 27.4289 14.1665C27.4618 13.8942 27.4795 13.6184 27.4795 13.3405C27.4795 10.8685 26.148 8.5624 24.0049 7.32203C23.7139 7.15353 23.3551 7.15328 23.0637 7.32203C21.7855 8.0619 20.7909 9.17115 20.1973 10.4973C18.8536 9.98803 17.3601 9.89515 15.9304 10.2769C15.6054 10.3634 15.3516 10.6173 15.265 10.9423C14.9005 12.308 14.9694 13.732 15.42 15.028C12.021 16.3095 10.0196 18.3945 10.0196 20.7094C10.0196 21.8912 10.5437 22.995 11.4759 23.96C7.98438 25.536 6.01188 27.7757 6.01188 30.228C6.01188 32.2032 7.2965 34.0067 9.50438 35.436C7.04963 36.1079 4.96313 36.9617 3.39937 37.9427C0.589625 39.705 0 41.5309 0 42.7524C0 47.7378 8.96375 50.7342 17.8475 51.4923C17.8746 51.4947 17.9018 51.4957 17.9284 51.4957C18.411 51.4957 18.8215 51.1259 18.8633 50.6363C18.9075 50.1194 18.5241 49.6647 18.0072 49.6205C7.53137 48.7265 1.87875 45.4147 1.87875 42.7525C1.87875 40.45 5.80575 38.1082 11.8836 36.7864C11.9338 36.7755 11.9814 36.7599 12.0275 36.7417C14.4741 37.7558 17.5381 38.4297 20.9767 38.6254C20.9949 38.6264 21.013 38.6269 21.031 38.6269C21.5254 38.6269 21.9395 38.2408 21.968 37.7409C21.9974 37.223 21.6014 36.7792 21.0834 36.7497C17.3565 36.5377 13.9363 35.7022 11.4525 34.397C9.1555 33.1899 7.89038 31.7093 7.89038 30.2279C7.89038 28.3952 9.85363 26.5627 13.1595 25.2918C15.5188 26.7512 19.016 27.6604 22.9823 27.6604C26.9486 27.6604 30.4459 26.7512 32.8051 25.2918C34.3255 25.8765 35.6064 26.6039 36.5106 27.3968C36.9221 27.7578 37.5716 27.682 37.8919 27.2399C38.1723 26.8529 38.1082 26.2992 37.7494 25.9844ZM23.5338 9.25628C24.8209 10.2063 25.6009 11.7252 25.6009 13.3407C25.6009 14.417 25.2526 15.449 24.6408 16.2999C24.4819 14.7259 23.7907 13.2232 22.6432 12.0758C22.3959 11.8283 22.1315 11.603 21.8539 11.3987C22.2075 10.5443 22.7861 9.80553 23.5338 9.25628ZM16.9657 11.9774C18.5475 11.7389 20.1725 12.2618 21.3149 13.404C22.4571 14.5462 22.9796 16.1713 22.7414 17.753C21.1599 17.9917 19.5346 17.4687 18.3923 16.3264C17.25 15.1844 16.7275 13.5592 16.9657 11.9774ZM31.0641 24.1202C28.9211 25.1917 26.051 25.7818 22.9824 25.7818C19.9137 25.7818 17.0436 25.1917 14.9006 24.1202C12.9925 23.1662 11.8982 21.9229 11.8982 20.7094C11.8982 19.1947 13.5607 17.6909 16.2776 16.713C16.5095 17.0468 16.7715 17.3627 17.0637 17.655C18.3807 18.9722 20.1654 19.688 21.9888 19.688C22.3344 19.688 22.68 19.6622 23.0217 19.6108C23.3405 19.5628 23.7235 19.5227 24.0063 19.3584C25.35 18.5803 26.3744 17.3829 26.9514 15.9885C31.1064 16.7529 34.0664 18.6952 34.0664 20.7095C34.0665 21.9229 32.9723 23.1662 31.0641 24.1202Z" fill="white"/>
<path d="M63.4686 40.169C61.0663 39.0118 58.4704 38.4534 55.8862 38.484C55.9136 35.8723 55.3367 33.2673 54.1998 30.9073C54.0321 30.5595 53.6719 30.3504 53.2836 30.3781C50.6733 30.5734 48.1335 31.3746 45.8873 32.7011C44.6222 30.4538 42.8434 28.4901 40.6449 26.9916C40.3257 26.7743 39.9059 26.7743 39.5867 26.9916C37.3854 28.492 35.605 30.4589 34.3395 32.7098C32.0899 31.3779 29.5452 30.5739 26.9288 30.3781C26.543 30.3496 26.18 30.5593 26.0125 30.9073C24.8755 33.2674 24.2987 35.8724 24.3262 38.4839C21.7419 38.4533 19.146 39.0117 16.7438 40.169C16.3959 40.3367 16.1859 40.7001 16.2147 41.0853C16.6345 46.6954 19.7895 51.7217 24.6548 54.5307C27.2742 56.0429 30.2018 56.8044 33.1379 56.8044C35.508 56.8043 37.8839 56.3074 40.1063 55.3088C42.3289 56.3077 44.7042 56.8044 47.0747 56.8044C50.0106 56.8043 52.9387 56.0427 55.5578 54.5307C60.4231 51.7217 63.5781 46.6954 63.9979 41.0853C64.0263 40.7001 63.8164 40.3367 63.4686 40.169ZM52.7767 32.314C53.6293 34.2989 54.0503 36.4544 54.0066 38.6106C51.9499 38.8648 49.9327 39.4958 48.0607 40.5015C47.9954 38.3719 47.5308 36.3041 46.7187 34.392C48.562 33.2789 50.6342 32.5675 52.7767 32.314ZM27.4355 32.314C29.5842 32.5681 31.6615 33.2828 33.5088 34.4011C32.6977 36.314 32.2345 38.3821 32.1705 40.5121C30.293 39.5004 28.2692 38.8656 26.2057 38.6106C26.1619 36.4544 26.5827 34.2989 27.4355 32.314ZM25.5939 52.9038C21.4549 50.5142 18.7077 46.3199 18.1503 41.5921C22.5234 39.7111 27.5297 39.993 31.6682 42.3825C31.8657 42.4966 32.0602 42.6164 32.2508 42.7381C32.6968 47.1388 34.8452 51.1917 38.2409 54.0358C34.0837 55.5273 29.4603 55.1362 25.5939 52.9038ZM54.6182 52.9038C50.7553 55.1339 46.1369 55.5263 41.9832 54.0399C43.4032 52.8487 44.6362 51.4223 45.5968 49.8469C45.8668 49.4039 45.7268 48.8259 45.2839 48.5558C44.8408 48.2859 44.263 48.4258 43.9928 48.8687C42.9918 50.5102 41.6594 51.971 40.1152 53.1255C36.2999 50.2789 34.041 45.8023 34.041 41.0235C34.041 36.2444 36.2998 31.768 40.1154 28.9214C43.9312 31.768 46.1898 36.2443 46.1898 41.0235C46.1898 42.7588 45.8979 44.4599 45.3224 46.0789C45.1485 46.5676 45.4039 47.1048 45.8929 47.2785C46.3813 47.4525 46.9187 47.197 47.0926 46.708C47.5509 45.4186 47.8485 44.0835 47.9838 42.722C48.1669 42.6055 48.355 42.4913 48.5437 42.3825C52.6826 39.9928 57.6886 39.7109 62.0617 41.592C61.5044 46.3198 58.7572 50.5142 54.6182 52.9038Z" fill="white"/>
</g>
<defs>
<clipPath id="clip0">
<rect width="64" height="64" fill="white"/>
</clipPath>
</defs>
</svg>
