<svg width="55" height="53" viewBox="0 0 55 53" fill="none" xmlns="http://www.w3.org/2000/svg">
<path d="M46.5568 17.3969C46.5563 17.3969 46.5556 17.3969 46.555 17.3969H0.784507C0.351747 17.3965 0.000458153 17.7468 4.47927e-07 18.1796C4.47927e-07 18.1802 4.47927e-07 18.1808 4.47927e-07 18.1814V40.1513C-0.000457257 40.584 0.349916 40.9353 0.782676 40.9358C0.783248 40.9358 0.783935 40.9358 0.784507 40.9358H31.9084C32.3417 40.9358 32.693 40.5845 32.693 40.1513C32.693 39.718 32.3417 39.3668 31.9084 39.3668H1.56901V18.9659H45.7705V20.9276C45.77 21.3604 46.1204 21.7117 46.5532 21.7122C46.5537 21.7122 46.5544 21.7122 46.555 21.7122C46.9878 21.7126 47.3391 21.3622 47.3395 20.9295C47.3395 20.9289 47.3395 20.9282 47.3395 20.9276V18.1814C47.34 17.7487 46.9896 17.3975 46.5568 17.3969Z" fill="white"/>
<path d="M41.2345 13.7544L4.61806 5.51575C4.41484 5.47032 4.20189 5.50717 4.02579 5.61828C3.84992 5.7303 3.72553 5.90732 3.67976 6.11077L1.84894 14.3495C1.75488 14.7726 2.02173 15.1919 2.44488 15.2859C2.86802 15.38 3.28728 15.1131 3.38134 14.69L5.04098 7.21933L40.8903 15.285C40.947 15.2982 41.005 15.3047 41.0633 15.3042C41.4965 15.3034 41.8471 14.9516 41.8464 14.5183C41.8457 14.1521 41.5917 13.8351 41.2345 13.7544Z" fill="white"/>
<path d="M36.7882 9.21486L14.8184 0.0607532C14.4366 -0.0984138 13.9966 0.0651014 13.8115 0.435156L11.9806 4.0968C11.7739 4.47921 11.9162 4.95694 12.2987 5.16371C12.6812 5.37048 13.1589 5.22813 13.3656 4.8456C13.3738 4.83061 13.3814 4.81528 13.3885 4.79972V4.80155L14.8907 1.79534L36.1822 10.6666C36.5832 10.8339 37.0439 10.6446 37.2112 10.2437C37.3785 9.84294 37.1892 9.38226 36.7882 9.21486Z" fill="white"/>
<path d="M37.3431 21.0585H30.0775C29.6443 21.0585 29.293 21.4098 29.293 21.843C29.293 22.2762 29.6443 22.6275 30.0775 22.6275H37.3431C37.7763 22.6275 38.1276 22.2762 38.1276 21.843C38.1276 21.4098 37.7763 21.0585 37.3431 21.0585Z" fill="white"/>
<path d="M22.7548 21.1106C18.3058 21.1106 14.6992 24.7172 14.6992 29.1662C14.7038 33.6133 18.3078 37.2172 22.7548 37.2218C27.2038 37.2218 30.8104 33.6152 30.8104 29.1662C30.8104 24.7172 27.2038 21.1106 22.7548 21.1106ZM22.7548 35.7571C19.1147 35.7571 16.1639 32.8063 16.1639 29.1662C16.1679 25.5278 19.1164 22.5793 22.7548 22.5752C26.395 22.5752 29.3458 25.5261 29.3458 29.1662C29.3458 32.8063 26.395 35.7571 22.7548 35.7571Z" fill="white"/>
<path d="M44.7238 23.6739C39.8721 23.6739 34.6543 24.82 34.6543 27.3355V49.3054C34.6543 51.8209 39.8721 52.967 44.7238 52.967C49.5755 52.967 54.7933 51.8209 54.7933 49.3054V27.3355C54.7933 24.82 49.5755 23.6739 44.7238 23.6739ZM52.9625 49.2916C52.8243 49.7997 50.079 51.1362 44.7238 51.1362C39.3687 51.1362 36.6233 49.7997 36.4851 49.3054V47.8663C38.4331 48.8477 41.6508 49.3054 44.7238 49.3054C47.7968 49.3054 51.0154 48.8431 52.9625 47.8654V49.2916ZM52.9625 45.63C52.8243 46.138 50.079 47.4745 44.7238 47.4745C39.3687 47.4745 36.6233 46.138 36.4851 45.6437V44.2047C38.4331 45.186 41.6508 45.6437 44.7238 45.6437C47.7968 45.6437 51.0154 45.1814 52.9625 44.2038V45.63ZM52.9625 41.9683C52.8243 42.4764 50.079 43.8129 44.7238 43.8129C39.3687 43.8129 36.6233 42.4764 36.4851 41.9821V40.5431C38.4331 41.5244 41.6508 41.9821 44.7238 41.9821C47.7968 41.9821 51.0154 41.5198 52.9625 40.5421V41.9683ZM52.9625 38.3067C52.8243 38.8148 50.079 40.1513 44.7238 40.1513C39.3687 40.1513 36.6233 38.8148 36.4851 38.3204V36.8814C38.4331 37.8627 41.6508 38.3204 44.7238 38.3204C47.7968 38.3204 51.0154 37.8582 52.9625 36.8805V38.3067ZM52.9625 34.6451C52.8243 35.1531 50.079 36.4896 44.7238 36.4896C39.3687 36.4896 36.6233 35.1531 36.4851 34.6588V33.2198C38.4331 34.1965 41.6508 34.6588 44.7238 34.6588C47.7968 34.6588 51.0154 34.1965 52.9625 33.2189V34.6451ZM52.9625 30.9834C52.8243 31.4915 50.079 32.828 44.7238 32.828C39.3687 32.828 36.6233 31.4915 36.4851 30.9972V29.5581C38.4331 30.5349 41.6508 30.9972 44.7238 30.9972C47.7968 30.9972 51.0154 30.5349 52.9625 29.5572V30.9834ZM44.7238 29.1663C39.3769 29.1663 36.6325 27.8335 36.4851 27.352V27.3465C36.6325 26.8366 39.3769 25.5047 44.7238 25.5047C50.0332 25.5047 52.7794 26.8174 52.9625 27.3355C52.7794 27.8536 50.0332 29.1663 44.7238 29.1663Z" fill="white"/>
<path d="M15.4315 35.7041H8.51189L5.23106 32.1157V26.1655L8.85426 22.6275H15.4315C15.8647 22.6275 16.216 22.2762 16.216 21.843C16.216 21.4098 15.8647 21.0585 15.4315 21.0585H8.53569C8.33064 21.058 8.13348 21.1379 7.98645 21.2809L3.89731 25.2694C3.74455 25.4479 3.66079 25.6752 3.66113 25.9101V32.4205C3.66113 32.6163 3.73425 32.805 3.86619 32.9496L7.5855 37.0177C7.73414 37.1804 7.94445 37.2732 8.16495 37.2731H15.4315C15.8647 37.2731 16.216 36.9218 16.216 36.4886C16.216 36.0554 15.8648 35.7041 15.4315 35.7041Z" fill="white"/>
<path d="M23.2117 28.2509H22.2963C22.0116 28.2509 21.8386 28.0916 21.8386 28.0221C21.8386 27.9525 22.0116 27.7932 22.2963 27.7932H24.5849C25.0904 27.7932 25.5003 27.3833 25.5003 26.8778C25.5003 26.3723 25.0904 25.9624 24.5849 25.9624H23.6695C23.6695 25.4569 23.2596 25.047 22.754 25.047C22.2485 25.047 21.8386 25.4569 21.8386 25.9624V26.0036C20.8233 26.147 20.0542 26.9932 20.0078 28.0175C20.0734 29.2177 21.0957 30.1399 22.2963 30.0817H23.2117C23.4964 30.0817 23.6695 30.241 23.6695 30.3106C23.6695 30.3802 23.4964 30.5394 23.2117 30.5394H20.9232C20.4177 30.5394 20.0078 30.9493 20.0078 31.4549C20.0078 31.9604 20.4177 32.3703 20.9232 32.3703H21.8386C21.8386 32.8758 22.2485 33.2857 22.754 33.2857C23.2596 33.2857 23.6695 32.8758 23.6695 32.3703V32.3291C24.6848 32.1857 25.4539 31.3395 25.5003 30.3152C25.4347 29.115 24.4124 28.1928 23.2117 28.2509Z" fill="white"/>
</svg>
