<svg width="57" height="57" viewBox="0 0 57 57" fill="none" xmlns="http://www.w3.org/2000/svg">
<path d="M28.4989 55.8855C30.1589 55.8855 31.5047 54.5398 31.5047 52.8798C31.5047 51.2197 30.1589 49.874 28.4989 49.874C26.8389 49.874 25.4932 51.2197 25.4932 52.8798C25.4932 54.5398 26.8389 55.8855 28.4989 55.8855Z" fill="#F7911E"/>
<path d="M11.0214 27.1642V23.3792H7.45898V27.9457" fill="#D1D3D4"/>
<path d="M45.9785 27.1642V23.3792H49.5409V27.9457L45.9785 27.1642Z" fill="#D1D3D4"/>
<path d="M12.6908 27.1642H12.3573C6.14742 27.1642 1.11328 32.1983 1.11328 38.4082C1.11328 44.6183 6.14753 49.6525 12.3576 49.6525H12.6907L12.6908 27.1642Z" fill="#4AA7ED"/>
<path d="M44.3096 27.1642H44.6431C50.8531 27.1642 55.8872 32.1983 55.8872 38.4083C55.8872 44.6184 50.853 49.6526 44.6429 49.6526H44.3098L44.3096 27.1642Z" fill="#4AA7ED"/>
<path d="M50.7636 23.3791C50.7636 11.1024 40.7758 1.11438 28.499 1.11438C16.2222 1.11438 6.23438 11.1024 6.23438 23.3791H13.3678C13.3678 15.0357 20.1556 8.24794 28.499 8.24794C36.8423 8.24794 43.6301 15.0358 43.6301 23.3791H50.7636Z" fill="#F9AE18"/>
<path d="M8.7207 34.0354C9.33545 34.0354 9.83398 33.537 9.83398 32.9221V32.8247C9.83398 32.2098 9.33545 31.7114 8.7207 31.7114C8.10595 31.7114 7.60742 32.2098 7.60742 32.8247V32.9221C7.60742 33.5371 8.10595 34.0354 8.7207 34.0354Z" fill="black"/>
<path d="M8.7207 45.105C9.33545 45.105 9.83398 44.6066 9.83398 43.9918V36.1934C9.83398 35.5785 9.33545 35.0801 8.7207 35.0801C8.10595 35.0801 7.60742 35.5785 7.60742 36.1934V43.9918C7.60742 44.6067 8.10595 45.105 8.7207 45.105Z" fill="black"/>
<path d="M48.2793 31.7114C47.6645 31.7114 47.166 32.2098 47.166 32.8247V32.9221C47.166 33.537 47.6645 34.0354 48.2793 34.0354C48.894 34.0354 49.3926 33.537 49.3926 32.9221V32.8247C49.3926 32.2098 48.894 31.7114 48.2793 31.7114Z" fill="black"/>
<path d="M48.2793 35.0803C47.6645 35.0803 47.166 35.5787 47.166 36.1936V43.992C47.166 44.6069 47.6645 45.1053 48.2793 45.1053C48.894 45.1053 49.3926 44.6069 49.3926 43.992V36.1936C49.3926 35.5787 48.894 35.0803 48.2793 35.0803Z" fill="black"/>
<path d="M50.654 27.6148V24.4921H50.7634C51.3782 24.4921 51.8767 23.9937 51.8767 23.3788C51.8767 10.4883 41.3894 0.000976562 28.4988 0.000976562C15.6083 0.000976562 5.12086 10.4883 5.12086 23.3788C5.12086 23.9937 5.61939 24.4921 6.23414 24.4921H6.34602V27.6148C2.56344 29.7299 0 33.7749 0 38.408C0 43.5549 3.16327 47.9763 7.64745 49.832C7.95226 52.2376 10.01 54.1041 12.497 54.1041H24.5657C25.0884 55.7792 26.6538 56.9985 28.4989 56.9985C30.7701 56.9985 32.6179 55.1508 32.6179 52.8795C32.6179 50.6083 30.7701 48.7606 28.4989 48.7606C26.5732 48.7606 24.9525 50.0892 24.5037 51.8777H12.497C11.5267 51.8777 10.6762 51.3559 10.2106 50.5784C10.9081 50.701 11.6254 50.7655 12.3576 50.7655H12.6907C13.3055 50.7655 13.804 50.2671 13.804 49.6522L13.8041 27.1638C13.8041 26.8685 13.6868 26.5853 13.478 26.3766C13.2692 26.1678 12.9861 26.0505 12.6908 26.0505H12.3573C12.2829 26.0505 12.2089 26.052 12.1347 26.0533V24.492H13.3676C13.9823 24.492 14.4809 23.9936 14.4809 23.3787C14.4809 15.6492 20.7693 9.36076 28.4988 9.36076C36.2283 9.36076 42.5168 15.6492 42.5168 23.3787C42.5168 23.9936 43.0153 24.492 43.6301 24.492H44.8652V26.0533C44.791 26.0519 44.717 26.0505 44.6426 26.0505H44.3091C44.0138 26.0505 43.7307 26.1678 43.5219 26.3766C43.3131 26.5853 43.1958 26.8685 43.1958 27.1638L43.1959 49.6522C43.1959 50.2671 43.6944 50.7655 44.3092 50.7655H44.6423C51.4562 50.7655 56.9999 45.2219 56.9999 38.408C56.9999 33.7749 54.4366 29.7299 50.654 27.6148ZM28.4988 50.987C29.5424 50.987 30.3913 51.836 30.3913 52.8795C30.3913 53.9231 29.5423 54.772 28.4988 54.772C27.4552 54.772 26.6064 53.923 26.6064 52.8795C26.6063 51.836 27.4552 50.987 28.4988 50.987ZM11.5775 48.5093C6.35438 48.1096 2.22645 43.7317 2.22645 38.408C2.22645 33.084 6.35404 28.7061 11.5777 28.3069L11.5775 48.5093ZM9.9083 26.2684L8.57236 26.5615V24.4921H9.9083V26.2684ZM28.4988 7.13442C19.9156 7.13442 12.8658 13.8255 12.2922 22.2656H7.37625C7.95772 11.1186 17.2096 2.22742 28.4988 2.22742C39.788 2.22742 49.0399 11.1186 49.6213 22.2657H44.7055C44.1318 13.8253 37.082 7.13442 28.4988 7.13442ZM47.0917 24.4921H48.4275V26.6443C47.9921 26.5039 47.5465 26.3866 47.0917 26.2947V24.4921ZM45.4223 48.5093L45.4222 28.3067C50.6457 28.7059 54.7734 33.0839 54.7734 38.4078C54.7734 43.7317 50.6455 48.1096 45.4223 48.5093Z" fill="black"/>
</svg>
