<svg width="24" height="26" viewBox="0 0 24 26" fill="none" xmlns="http://www.w3.org/2000/svg">
<path d="M22.6666 25V22.3333C22.6666 20.9188 22.1047 19.5623 21.1045 18.5621C20.1044 17.5619 18.7478 17 17.3333 17H6.66665C5.25216 17 3.8956 17.5619 2.89541 18.5621C1.89522 19.5623 1.33331 20.9188 1.33331 22.3333V25" stroke="#EE7D22" stroke-width="2" stroke-linecap="round" stroke-linejoin="round"/>
<path d="M12 11.6667C14.9455 11.6667 17.3334 9.27885 17.3334 6.33333C17.3334 3.38781 14.9455 1 12 1C9.0545 1 6.66669 3.38781 6.66669 6.33333C6.66669 9.27885 9.0545 11.6667 12 11.6667Z" stroke="#EE7D22" stroke-width="2" stroke-linecap="round" stroke-linejoin="round"/>
</svg>
