<svg width="24" height="24" viewBox="0 0 24 24" fill="none" xmlns="http://www.w3.org/2000/svg">
<g clip-path="url(#clip0)">
<path d="M4.30149 20.9369C4.2072 20.8929 4.1391 20.8434 4.24911 20.7444C4.31721 20.6894 4.39055 20.6399 4.46389 20.5904C5.15014 20.1228 5.79449 19.6113 6.21881 18.8578C6.57503 18.2308 6.51741 17.8623 6.07213 17.4003C3.58905 14.7932 2.49943 11.6746 3.04424 7.98949C3.35332 5.91043 4.25959 4.11188 5.5797 2.54984C6.37597 1.60381 7.32415 0.839289 8.36138 0.20127C8.42424 0.162769 8.5133 0.151769 8.52378 0.0527662C8.50282 -0.00223541 8.46615 0.0142651 8.43472 0.0142651C6.66933 0.0142651 4.90393 -0.024236 3.14377 0.0252654C1.45696 0.080267 0.000634901 1.44981 0.00587346 3.41336C0.0163506 9.15003 0.00587346 14.8867 0.00587346 20.6289C0.00587346 22.4109 1.2998 23.9015 2.99185 23.9675C4.42198 24.028 5.85211 23.9785 7.28748 23.973C7.39225 23.9785 7.49702 23.984 7.60179 23.984H15.1663C17.0522 23.984 18.938 23.995 20.8239 23.984C22.5736 23.984 23.9933 22.4989 23.9933 20.6674V20.6344V17.4168C23.9933 17.3398 24.0194 17.2573 23.9723 17.1748C23.878 17.1803 23.8413 17.2628 23.7889 17.3178C22.7727 18.3903 21.573 19.2538 20.2582 19.8643C17.0364 21.3549 13.7571 21.4594 10.4306 20.2603C10.1425 20.1503 9.82818 20.1393 9.52958 20.2163C9.08954 20.3318 8.65474 20.4694 8.21994 20.6069C6.94173 21.0249 5.63733 21.2119 4.30149 20.9369V20.9369ZM8.09945 11.6691C8.18851 11.5481 8.23566 11.4766 8.28804 11.4051C8.97429 10.4921 9.66054 9.57904 10.3468 8.66051C10.5459 8.39651 10.7449 8.127 10.8707 7.80799C11.0173 7.44498 10.8602 7.10397 10.504 6.97196C10.3468 6.92246 10.1792 6.90046 10.0115 6.91146C9.07906 6.90596 8.14136 6.90596 7.2089 6.91146C7.07793 6.91146 6.94697 6.92796 6.82124 6.96096C6.52788 7.03797 6.34977 7.35148 6.42311 7.66498C6.4755 7.87399 6.63266 8.039 6.83172 8.0885C6.95745 8.1215 7.08841 8.138 7.21937 8.1325C7.78514 8.138 8.35614 8.1325 8.92191 8.138C8.98477 8.138 9.06335 8.094 9.1105 8.193C9.06335 8.259 9.0162 8.325 8.96905 8.38551C8.15708 9.46354 7.35034 10.5471 6.53836 11.6251C6.3393 11.8946 6.23452 12.1916 6.3812 12.5216C6.52788 12.8516 6.82648 12.9121 7.13032 12.9341C7.37129 12.9506 7.61751 12.9396 7.86372 12.9396C8.71237 12.9396 9.55577 12.9451 10.4044 12.9341C10.8549 12.9286 11.0959 12.6426 11.0488 12.2026C11.0121 11.8561 10.7868 11.6746 10.3678 11.6691C9.62911 11.6636 8.89048 11.6691 8.09945 11.6691V11.6691ZM14.1762 8.77602C13.5214 8.1765 12.7984 8.138 12.0912 8.57801C11.2321 9.10603 10.9178 9.96955 11.0226 10.9706C11.1221 11.9056 11.5098 12.6701 12.4422 12.9836C13.0237 13.1816 13.5633 13.1101 14.04 12.7031C14.1657 12.5986 14.2024 12.6206 14.2914 12.7361C14.4643 12.9671 14.7629 13.0551 15.0248 12.9506C15.2868 12.8681 15.4596 12.6151 15.4596 12.3291C15.4649 11.2291 15.4701 10.1291 15.4596 9.02902C15.4544 8.58901 15.0615 8.3085 14.6529 8.39651C14.4276 8.44601 14.3019 8.60551 14.1762 8.77602ZM17.8065 10.8166C17.7856 12.1916 18.8699 13.2311 20.232 13.0881C21.484 12.9561 22.296 11.9716 22.254 10.5801C22.2121 9.20503 21.2378 8.2645 19.9019 8.3085C18.6499 8.347 17.7646 9.40303 17.8065 10.8166V10.8166ZM17.3455 9.72204C17.3455 8.85852 17.3508 8.00049 17.3455 7.13697C17.3455 6.69696 17.0783 6.42195 16.6802 6.42745C16.2926 6.43295 16.0359 6.70796 16.0306 7.13147C16.0254 7.38998 16.0306 7.64298 16.0306 7.90149V12.2741C16.0306 12.6151 16.2297 12.9121 16.4916 12.9836C16.8531 13.0881 17.225 12.8626 17.3193 12.4831C17.335 12.4171 17.3455 12.3511 17.3403 12.2796C17.3508 11.4271 17.3455 10.5746 17.3455 9.72204V9.72204Z" fill="#25282B"/>
<path d="M7.2816 23.9792C5.85148 23.9792 4.41611 24.0287 2.98598 23.9737C1.29393 23.9022 0 22.4116 0 20.6351C0 14.8984 0.0104771 9.16175 0 3.41958C0 1.45602 1.46156 0.0864855 3.14314 0.0369841C4.9033 -0.0125173 6.66869 0.0259838 8.43409 0.0259838C8.46552 0.0259838 8.50743 0.00948334 8.52314 0.0644849C8.51267 0.163488 8.41837 0.174488 8.36075 0.212989C7.32351 0.851008 6.37533 1.61553 5.57907 2.56156C4.26419 4.1236 3.35268 5.91665 3.04361 8.00121C2.49879 11.6808 3.59365 14.8049 6.07149 17.412C6.51153 17.8795 6.56916 18.2425 6.21817 18.8695C5.79385 19.623 5.14951 20.1346 4.46326 20.6021C4.38992 20.6461 4.31658 20.7011 4.24324 20.7506C4.13323 20.8496 4.20133 20.8991 4.29562 20.9431C4.31658 20.9926 4.34277 21.0366 4.3742 21.0806C4.97664 21.6416 5.54764 22.2411 6.1396 22.8131C6.41724 23.0826 6.69488 23.3632 6.96205 23.6437C7.07206 23.7482 7.25541 23.7812 7.2816 23.9792V23.9792Z" fill="#25282B"/>
<path d="M7.28093 23.9782C7.25474 23.7857 7.07138 23.7527 6.96137 23.6372C6.6942 23.3512 6.41656 23.0762 6.13891 22.8067C5.54695 22.2347 4.97594 21.6352 4.3735 21.0742C4.34207 21.0302 4.31588 20.9862 4.29492 20.9367C5.63077 21.2117 6.93518 21.0247 8.21864 20.6121C8.65344 20.4746 9.08825 20.3371 9.52829 20.2216C9.82689 20.1391 10.1412 20.1556 10.4293 20.2656C13.7506 21.4647 17.03 21.3547 20.257 19.8696C21.5719 19.2591 22.7715 18.4011 23.7878 17.3285C23.8402 17.2735 23.8768 17.191 23.9711 17.1855C24.0183 17.2625 23.9921 17.3451 23.9921 17.4276V20.6451C24.0026 22.4822 22.5986 23.9782 20.8489 23.9947H20.8227C18.9368 24.0057 17.0509 23.9947 15.165 23.9947H7.59525C7.49047 23.9837 7.3857 23.9782 7.28093 23.9782V23.9782Z" fill="#25282B"/>
<path d="M8.09811 11.6684C8.88912 11.6684 9.63298 11.6629 10.3716 11.6684C10.7854 11.6739 11.0107 11.8555 11.0526 12.202C11.0998 12.6365 10.8588 12.928 10.4083 12.9335C9.55965 12.9445 8.71625 12.939 7.86762 12.939C7.62141 12.939 7.38044 12.95 7.13423 12.9335C6.8304 12.917 6.53181 12.851 6.38513 12.521C6.23846 12.191 6.34323 11.894 6.54229 11.6244C7.34901 10.5464 8.16097 9.46285 8.97294 8.3848C9.02008 8.3188 9.06723 8.25279 9.11438 8.19229C9.06199 8.09879 8.98865 8.14279 8.92579 8.13729C8.36004 8.13179 7.78904 8.13729 7.22329 8.13179C7.09233 8.13179 6.96137 8.11529 6.83564 8.08779C6.53705 8.01628 6.3537 7.70277 6.4218 7.39476C6.46895 7.18575 6.6261 7.01524 6.82517 6.96574C6.95089 6.93274 7.08185 6.91623 7.21281 6.91623C8.14526 6.91073 9.08294 6.91073 10.0154 6.91623C10.183 6.91073 10.3454 6.93274 10.5078 6.97674C10.864 7.10324 11.0159 7.44976 10.8745 7.81277C10.7488 8.12629 10.5497 8.3958 10.3507 8.66531C9.66441 9.58385 8.97818 10.4969 8.29194 11.4044C8.23431 11.4759 8.18193 11.5474 8.09811 11.6684V11.6684Z" fill="#25282B"/>
<path d="M14.1758 8.77674C14.3015 8.60624 14.4325 8.44673 14.6473 8.40273C15.0611 8.31473 15.4488 8.59524 15.454 9.03525C15.4697 10.1353 15.4645 11.2353 15.454 12.3353C15.454 12.6214 15.2759 12.8744 15.0192 12.9569C14.7573 13.0614 14.4587 12.9789 14.2858 12.7424C14.1968 12.6269 14.1601 12.6049 14.0344 12.7094C13.5577 13.1164 13.0181 13.1879 12.4366 12.9899C11.5042 12.6709 11.1218 11.9063 11.017 10.9768C10.907 9.97028 11.2265 9.11225 12.0856 8.58424C12.7981 8.13872 13.521 8.17723 14.1758 8.77674V8.77674ZM12.3214 10.7843C12.3319 11.0263 12.4052 11.2573 12.5414 11.4498C12.8243 11.8458 13.3638 11.9283 13.7462 11.6313C13.8091 11.5818 13.8667 11.5213 13.9191 11.4498C14.2125 11.0318 14.2125 10.3443 13.9191 9.92628C13.7724 9.71177 13.5419 9.58527 13.2957 9.57976C12.7195 9.54126 12.3161 10.0088 12.3214 10.7843V10.7843ZM17.8061 10.8173C17.7642 9.40376 18.6495 8.34773 19.9067 8.30923C21.2425 8.26523 22.2169 9.20575 22.2588 10.5808C22.3007 11.9723 21.4887 12.9569 20.2367 13.0889C18.8695 13.2319 17.7851 12.1923 17.8061 10.8173V10.8173ZM19.1209 10.6853C19.1105 10.9603 19.189 11.2298 19.3462 11.4553C19.6343 11.8513 20.1739 11.9283 20.551 11.6203C20.6087 11.5763 20.6558 11.5213 20.703 11.4663C21.0068 11.0483 21.0068 10.3443 20.7082 9.92628C20.5615 9.71727 20.331 9.58527 20.0848 9.57976C19.5191 9.54676 19.1209 9.99778 19.1209 10.6853V10.6853ZM17.3451 9.72277C17.3451 10.5753 17.3503 11.4278 17.3451 12.2803C17.3503 12.6709 17.057 12.9954 16.685 13.0064C16.6222 13.0064 16.5541 13.0009 16.4912 12.9844C16.2293 12.9129 16.0302 12.6214 16.0302 12.2748V7.90222C16.0302 7.64371 16.025 7.3907 16.0302 7.13219C16.0355 6.70868 16.2921 6.43367 16.6798 6.43367C17.0779 6.42817 17.3451 6.70318 17.3451 7.1432C17.3503 8.00122 17.3451 8.86474 17.3451 9.72277V9.72277Z" fill="#25282B"/>
<path d="M12.3204 10.7832C12.3151 10.0082 12.7185 9.54092 13.2895 9.5739C13.5357 9.5849 13.7662 9.71133 13.9129 9.92571C14.2063 10.338 14.2063 11.0306 13.9129 11.4484C13.63 11.8442 13.0904 11.9266 12.708 11.6298C12.6452 11.5803 12.5875 11.5198 12.5351 11.4484C12.4042 11.256 12.3308 11.0251 12.3204 10.7832V10.7832ZM19.1202 10.6843C19.1202 10.0027 19.5183 9.54642 20.0841 9.5794C20.3303 9.5849 20.5608 9.71682 20.7075 9.92571C21.0061 10.3435 21.0061 11.0526 20.7022 11.4649C20.4089 11.8551 19.864 11.9211 19.4921 11.6133C19.4345 11.5693 19.3873 11.5143 19.3454 11.4539C19.1883 11.2285 19.1149 10.9591 19.1202 10.6843V10.6843Z" fill="white"/>
</g>
<defs>
<clipPath id="clip0">
<rect width="24" height="24" fill="white"/>
</clipPath>
</defs>
</svg>
