<svg width="538" height="512" viewBox="0 0 538 512" fill="none" xmlns="http://www.w3.org/2000/svg">
<g clip-path="url(#clip0)">
<path d="M492.606 286.473C492.225 166.122 394.468 68.8641 274.238 69.2451C154.008 69.6261 56.8468 167.48 57.2274 287.831C57.4426 356.48 89.3496 417.608 139.047 457.399L411.845 456.554C461.294 416.448 492.821 355.122 492.606 286.473Z" fill="#FFF0E0"/>
<path d="M298.268 292.271H252.161V456.438H298.268V292.271Z" fill="white"/>
<path d="M392.58 509.236C411.287 501.54 420.22 480.121 412.532 461.395C404.844 442.668 383.446 433.726 364.739 441.422C346.031 449.118 337.098 470.537 344.786 489.264C352.474 507.99 373.872 516.932 392.58 509.236Z" fill="white"/>
<path d="M310.415 494.208C338.364 494.208 361.022 471.528 361.022 443.55C361.022 415.572 338.364 392.892 310.415 392.892C282.465 392.892 259.807 415.572 259.807 443.55C259.807 471.528 282.465 494.208 310.415 494.208Z" fill="white"/>
<path d="M204.531 494.457C215.087 477.186 209.658 454.62 192.405 444.053C175.152 433.486 152.608 438.92 142.051 456.191C131.495 473.462 136.924 496.028 154.177 506.595C171.431 517.162 193.975 511.727 204.531 494.457Z" fill="white"/>
<path d="M241.553 494.208C269.503 494.208 292.161 471.528 292.161 443.55C292.161 415.572 269.503 392.892 241.553 392.892C213.603 392.892 190.945 415.572 190.945 443.55C190.945 471.528 213.603 494.208 241.553 494.208Z" fill="white"/>
<path d="M409.512 146.525C406.566 146.525 403.885 147.717 401.866 149.656C398.473 140.13 389.752 133.322 379.475 133.322C366.268 133.322 355.561 144.537 355.561 158.386H398.192H403.388H420.831C420.831 151.842 415.751 146.525 409.512 146.525Z" fill="white"/>
<path d="M163.341 194.135C161.802 194.135 160.379 194.615 159.171 195.444C156.755 189.96 151.492 186.15 145.352 186.15C136.945 186.15 130.127 193.29 130.127 202.12H155.729H160.578H170.954C170.954 197.697 167.545 194.135 163.341 194.135Z" fill="white"/>
<path d="M0 457.863L538 456.438" stroke="#FF1D25" stroke-width="0.9419" stroke-miterlimit="10"/>
<path d="M233.825 185.156L209.183 215.041C201.835 223.705 197.797 234.688 197.747 246.052L193.097 360.522L240.18 268.433L233.825 185.156Z" fill="#FF464C"/>
<path opacity="0.54" d="M233.825 185.156L226.675 193.605L216.646 314.486L238.674 271.415L233.825 185.156Z" fill="#FF898E"/>
<path d="M314.519 185.156L339.161 215.041C346.509 223.705 350.547 234.688 350.596 246.052L355.247 360.522L308.164 268.433L314.519 185.156Z" fill="#FF464C"/>
<path opacity="0.54" d="M314.519 185.156L321.668 193.605L331.697 314.486L309.67 271.415L314.519 185.156Z" fill="#FF898E"/>
<path d="M251.946 303.9L244.83 324.823C244.83 324.823 272.997 338.97 304.871 324.641L297.622 303.768L251.946 303.9Z" fill="#FF7BAC"/>
<path d="M275.727 21.3367C275.247 20.9723 274.552 21.0882 274.172 21.5686C270.266 26.4721 249.315 55.6611 239.65 128.534C226.013 231.491 229.555 304.645 229.555 304.645C229.555 304.645 274.668 320.168 319.699 304.364C319.699 304.364 318.309 190.673 309.124 125.188C301.826 73.1215 283.704 27.3501 275.727 21.3367Z" fill="#FF999D"/>
<path d="M242.96 62.2709C242.96 62.2709 273.659 90.4163 308.33 62.0721L276.671 8.71362L242.96 62.2709Z" fill="#FFAB50"/>
<path opacity="0.24" d="M274.9 17.4106L276.323 326.264L328.222 311.636C328.238 311.62 337.671 55.9428 274.9 17.4106Z" fill="#BDCCD4"/>
<path d="M296.539 152.859C301.47 140.565 295.511 126.597 283.23 121.661C270.948 116.725 256.994 122.689 252.063 134.983C247.132 147.277 253.091 161.245 265.372 166.181C277.654 171.117 291.608 165.153 296.539 152.859Z" fill="#FF464C"/>
<path d="M289.595 151.084C293.557 142.616 289.911 132.537 281.451 128.572C272.992 124.606 262.923 128.256 258.962 136.724C255 145.191 258.646 155.27 267.106 159.236C275.565 163.201 285.634 159.552 289.595 151.084Z" fill="white"/>
<path d="M274.883 180.501C274.883 180.501 271.971 189.596 271.16 230.033C270.349 270.47 273.526 368.987 273.526 368.987L278.557 368.971L278.425 229.901C278.441 229.917 277.962 196.388 274.883 180.501Z" fill="#FF464C"/>
<path d="M121.472 451.087L119.618 433.71L108.911 433.229L110.797 452.33L119.552 452.264L121.472 451.087Z" fill="#DEF0FD"/>
<path d="M109.391 447.062C109.391 447.062 118.675 450.922 122.928 444.577L138.319 453.688C139.626 454.467 139.097 456.471 137.558 456.488L106.66 456.703L109.391 447.062Z" fill="black"/>
<path d="M97.6241 326.032L105.816 439.955L122.663 439.839C122.663 439.839 121.952 369.153 115.249 324.988L97.6241 326.032Z" fill="#FF999D"/>
<path d="M96.1015 451.27L96.3498 433.876L85.6589 433.395L85.4272 452.512L94.1984 452.446L96.1015 451.27Z" fill="#DEF0FD"/>
<path d="M84.0206 447.244C84.0206 447.244 93.3047 451.104 97.5579 444.759L117.616 456.637L81.3065 456.902L84.0206 447.244Z" fill="black"/>
<path d="M113.958 327.142L107.057 326.943L107.09 326.413L80.4956 336.651C77.9139 378.446 81.8858 440.121 81.8858 440.121L101.099 439.988L106.329 340.792L113.958 327.142Z" fill="#FF999D"/>
<path d="M103.085 402.102L103.847 351.809L110.003 346.822" stroke="#FF8387" stroke-width="0.7171" stroke-miterlimit="10"/>
<path d="M104.707 281.586C104.707 281.586 102.572 286.523 113.147 311.421C113.147 311.421 118.443 322.123 120.909 322.421C124.963 322.918 141.678 321.659 150.201 309.152L138.716 299.096L126.006 306.567L118.377 287.285C118.393 287.268 113.925 274.413 104.707 281.586Z" fill="#FFAB50"/>
<path d="M91.9807 274.661C87.6283 276.119 77.0533 280.956 77.0533 280.956C75.8452 281.503 75.1336 282.779 75.3156 284.087L80.4955 336.667C80.4955 336.667 96.3663 343.658 116.589 332.691L115.332 284.452C115.481 283.11 114.041 281.122 113.064 280.194L101.315 273.982L91.9807 274.661Z" fill="#FFAB50"/>
<path d="M114.173 291.757L115.15 311.587" stroke="#FF931E" stroke-width="0.7171" stroke-miterlimit="10"/>
<path d="M107.703 315.844C107.703 315.844 111.343 323.928 95.5388 321.775L79.2709 323.017L80.5617 318.064L90.9381 317.07L103.135 316.987L107.703 315.844Z" fill="#DEF0FD"/>
<path d="M77.0533 280.956C77.0533 280.956 69.1924 283.557 60.5371 308.158C60.5371 308.158 57.2769 317.617 58.9153 319.422C61.6128 322.371 77.1691 326.794 91.8483 323.282L90.1438 315.645L75.6963 312.879L82.829 294.176C82.8124 294.176 88.6874 281.685 77.0533 280.956Z" fill="#FFAB50"/>
<path d="M68.2987 314.535C71.3438 311.322 75.2659 312.763 75.2659 312.763L83.0275 295.385" stroke="#FF931E" stroke-width="0.7171" stroke-miterlimit="10"/>
<path d="M80.0487 324.939C80.0487 324.939 89.9948 324.624 91.8483 323.266" stroke="#FF931E" stroke-width="0.7171" stroke-miterlimit="10"/>
<path d="M85.5431 314.767L75.6797 312.879" stroke="#FF931E" stroke-width="0.7171" stroke-miterlimit="10"/>
<path d="M86.6685 317.351L115.431 317.153L115.415 313.906L86.6519 314.105C85.7583 314.105 85.0301 314.85 85.0467 315.745C85.0301 316.639 85.7748 317.351 86.6685 317.351Z" fill="#050001"/>
<path d="M111.641 317.169L149.771 316.904C151.972 316.888 153.875 315.413 154.454 313.293L161.703 286.506C162.348 284.137 160.544 281.818 158.095 281.834L123.077 282.083C121.604 282.099 120.33 283.093 119.982 284.518L111.641 317.169Z" fill="#050001"/>
<path d="M135.456 299.56C135.472 301.548 137.094 303.155 139.08 303.138C141.066 303.122 142.671 301.498 142.655 299.51C142.638 297.522 141.016 295.915 139.03 295.932C137.044 295.932 135.439 297.572 135.456 299.56Z" fill="white"/>
<path d="M85.5266 248.09C85.5266 248.09 85.2949 240.105 97.3097 239.558C107.719 239.095 109.076 243.369 110.003 246.301C110.93 249.233 98.2861 257.201 98.2861 257.201L85.5266 248.09Z" fill="#171E21"/>
<path d="M91.898 274.628L91.2526 258.642L101.513 258.195L102.159 273.634C102.274 276.467 100.073 277.759 97.2434 277.875C94.4135 278.008 92.0304 277.461 91.898 274.628Z" fill="#DEF0FD"/>
<path d="M91.3188 260.382C91.3188 260.382 89.879 269.89 102.142 272.176L101.778 264.838L91.3188 260.382Z" fill="#C2E3FC"/>
<path d="M104.757 241.828C104.757 241.828 112.022 241.745 110.152 253.258L106.544 248.338L104.757 241.828Z" fill="#050001"/>
<path d="M104.84 255.561C104.939 257.532 106.61 259.073 108.596 258.974C110.566 258.874 112.105 257.201 112.005 255.213C111.906 253.242 110.235 251.701 108.249 251.801C106.279 251.9 104.74 253.573 104.84 255.561Z" fill="#C2E3FC"/>
<path d="M100.173 268.963C105.667 268.698 110.003 265.169 109.738 259.669L109.225 248.686C109.109 246.284 107.057 244.429 104.658 244.545L93.371 245.091C90.9713 245.207 89.1178 247.262 89.2337 249.664L89.6805 259.09C89.9453 264.573 95.5389 269.195 100.173 268.963Z" fill="#DEF0FD"/>
<path d="M90.3092 256.008C90.3092 256.008 95.7539 252.364 93.3708 245.091L87.7606 245.356C87.7606 245.356 86.9331 244.114 85.7747 245.82C84.6328 247.51 87.231 255.462 87.231 255.462L90.3092 256.008Z" fill="#050001"/>
<path d="M91.8318 252.016L93.8508 246.499C93.8508 246.499 107.206 248.156 110.466 244.379C113.611 240.751 111.045 235.334 108.381 234.754C106.296 234.307 104.045 236.245 102.456 237.107C100.868 237.985 97.0614 237.173 95.9195 237.107C94.7776 237.04 89.8293 236.03 88.3399 241.248C88.3399 241.248 80.297 244.23 88.6378 257.781C88.6378 257.797 91.898 255.809 91.8318 252.016Z" fill="#050001"/>
<path d="M84.9968 256.787C85.0299 258.824 86.718 260.431 88.7535 260.398C90.7891 260.365 92.3944 258.675 92.3613 256.638C92.3282 254.6 90.6401 252.993 88.6046 253.026C86.569 253.076 84.9637 254.749 84.9968 256.787Z" fill="#DEF0FD"/>
<path d="M93.1061 251.221C93.1061 251.221 92.742 258.559 94.3804 260.68C96.0187 262.8 96.8628 260.614 102.655 259.702C108.447 258.791 109.92 261.442 109.92 261.442C109.92 261.442 109.655 268.83 102.059 269.195C96.1511 269.476 90.1272 268.101 91.2691 258.642C92.411 249.183 89.1674 246.897 89.1674 246.897L93.1061 251.221Z" fill="#050001"/>
<path d="M93.3378 273.651L87.4794 276.384C87.4794 276.384 88.6709 280.84 97.7399 280.476C98.8984 280.426 100.057 280.261 101.166 279.863C102.738 279.3 104.707 278.206 105.386 276.119L100.421 273.071L93.3378 273.651Z" fill="#DEF0FD"/>
<path d="M401.733 450.392L405.738 430.943L416.164 432.318L411.216 452.744L401.237 450.971L401.733 450.392Z" fill="#99D1FA"/>
<path d="M412.672 447.774C412.672 447.774 405.655 451.402 401.75 446.018L384.274 454.318C383.33 454.765 383.661 456.173 384.704 456.173L415.237 455.991L412.672 447.774Z" fill="black"/>
<path d="M421.89 342.101L399.449 436.857H419.888L439.764 363.719L441.617 324.889L421.89 342.101Z" fill="#FFAB50"/>
<path d="M441.17 450.392L441.385 430.943L451.811 432.318L450.636 452.744L440.674 450.971L441.17 450.392Z" fill="#99D1FA"/>
<path d="M452.093 447.774C452.093 447.774 445.076 451.402 441.17 446.018L423.016 454.649C422.238 455.013 422.503 456.19 423.363 456.173L454.658 455.991L452.093 447.774Z" fill="black"/>
<path d="M456.677 317.915C456.677 317.915 464.306 325.419 462.42 352.14L455.353 436.841H436.586L440.426 337.86L437.645 318.047L456.677 317.915Z" fill="#FFAB50"/>
<path d="M433.806 318.958C433.806 318.958 425.73 326.396 421.89 342.515L445.837 338.092L456.644 317.235L433.806 318.958Z" fill="#FFAB50"/>
<path d="M439.416 365.442L440.574 346.424L434.997 340.958" stroke="#FF931E" stroke-width="0.7171" stroke-miterlimit="10"/>
<path d="M467.6 240.884C467.765 245.108 464.472 248.653 460.252 248.819C456.032 248.984 452.49 245.688 452.325 241.463C452.159 237.239 455.452 233.694 459.672 233.528C463.893 233.363 467.451 236.659 467.6 240.884Z" fill="#3FA9F5"/>
<path d="M460.219 247.725C460.351 251.221 457.62 254.153 454.145 254.285C450.67 254.418 447.724 251.684 447.592 248.206C447.459 244.71 450.19 241.778 453.665 241.646C457.157 241.513 460.086 244.246 460.219 247.725Z" fill="#FF999D"/>
<path d="M437.86 244.064C437.86 244.064 453.88 237.471 458.944 247.676C462.502 254.865 458.398 263.662 449.495 267.422C441.005 271.017 445.225 244.926 445.225 244.926L437.86 244.064Z" fill="#3FA9F5"/>
<path d="M439.251 259.868C439.499 262.171 437.827 264.241 435.527 264.473C433.227 264.722 431.158 263.049 430.926 260.746C430.678 258.443 432.35 256.373 434.65 256.141C436.934 255.892 439.002 257.565 439.251 259.868Z" fill="#7CC5F8"/>
<path d="M440.756 271.017L439.763 281.884C440.078 285.081 442.213 286.589 445.341 286.257C448.022 285.976 450.388 284.319 450.438 281.619L450.206 265.616L440.756 271.017Z" fill="#99D1FA"/>
<path d="M440.111 277.958L451.679 267.77L440.641 270.089L440.111 277.958Z" fill="#7CC5F8"/>
<path d="M443.57 272.392C438.191 272.607 433.591 268.532 433.276 264.142L432.581 253.789C432.167 248.289 436.205 243.451 441.683 242.872C447.293 242.275 453.301 246.235 453.913 251.834L454.393 260.166C454.741 266.627 449.991 271.696 443.57 272.392Z" fill="#99D1FA"/>
<path d="M435.295 246.052C435.295 246.052 435.792 247.03 439.3 247.03C442.809 247.03 444.761 244.926 450.024 246.814C455.287 248.719 449.511 252.579 451.811 257.947L459.159 254.153L456.66 245.622L450.107 242.06C450.14 242.06 439.416 240.718 435.295 246.052Z" fill="#3FA9F5"/>
<path d="M459.556 259.321C459.805 261.624 458.133 263.695 455.833 263.927C453.533 264.175 451.464 262.502 451.232 260.199C450.984 257.897 452.655 255.826 454.956 255.594C457.256 255.362 459.325 257.019 459.556 259.321Z" fill="#99D1FA"/>
<path d="M453.781 253.358C453.781 253.358 445.788 251.27 445.407 244.379L452.358 244.859L453.781 253.358Z" fill="#3FA9F5"/>
<path d="M449.445 244.876C449.445 244.876 446.516 251.916 432.664 251.535C432.664 251.535 432.929 247.261 436.685 244.661L449.445 244.876Z" fill="#3FA9F5"/>
<path d="M377.125 257.416C377.389 261.144 380.633 263.96 384.373 263.678C388.097 263.413 390.91 260.166 390.629 256.422C390.364 252.695 387.12 249.879 383.38 250.161C379.657 250.442 376.86 253.689 377.125 257.416Z" fill="#99D1FA"/>
<path d="M388.428 251.917C388.428 251.917 391.307 250.79 391.837 254.302C392.366 257.814 391.109 262.651 384.373 263.678L388.428 251.917Z" fill="#99D1FA"/>
<path d="M388.461 251.9L384.373 244.992C384.075 244.379 383.314 244.114 382.718 244.412C382.189 244.661 381.957 245.24 382.155 245.804L385.217 253.904L388.461 251.9Z" fill="#99D1FA"/>
<path d="M381.891 261.243L394.435 274.86L398.407 266.345L390.049 258.576L381.891 261.243Z" fill="#99D1FA"/>
<path d="M435.825 281.437L410.918 277.809L392.35 258.924L385.3 266.975L403.57 287.632C404.878 289.339 406.913 290.349 409.065 290.366L435.312 295.435L435.825 281.437Z" fill="#FF999D"/>
<path d="M431.092 287.434L430.761 283.59C430.645 282.232 431.721 281.089 433.061 281.139H460.88C463.727 281.884 463.892 286.771 463.727 287.765L456.644 318.826L433.789 318.958L430.198 301.78C430.198 301.78 428.907 300.073 428.444 296.28C428.08 293.149 429.635 289.339 431.092 287.434Z" fill="#FF999D"/>
<path d="M428.493 294.01C428.493 294.01 429.073 289.504 431.092 286.257" stroke="#FF8387" stroke-width="0.7171" stroke-miterlimit="10"/>
<path d="M437.496 281.139H453.83C453.83 281.139 452.308 285.909 444.943 285.86C436.851 285.81 437.496 281.139 437.496 281.139Z" fill="#99D1FA"/>
<path d="M454.459 294.756L473.938 315.463C476.652 318.031 479.928 319.505 482.692 316.97C485.572 314.32 485.787 309.831 483.139 306.932L465.729 283.723C463.214 280.956 459.093 280.343 455.866 282.249C451.348 284.916 450.653 291.161 454.459 294.756Z" fill="#FF999D"/>
<path d="M460.632 301.332L454.459 294.756" stroke="#FF8387" stroke-width="0.7171" stroke-miterlimit="10"/>
<path d="M437.678 325.916L453.234 330.588C454.774 331.051 455.369 333.155 454.36 334.481L449.213 341.239C448.7 341.919 447.873 342.2 447.095 341.968L431.472 337.363C429.933 336.916 429.321 334.795 430.33 333.453L435.527 326.612C436.073 325.966 436.9 325.668 437.678 325.916Z" fill="#010101"/>
<path d="M455.998 327.523L445.969 328.003C445.456 328.02 445.043 328.451 444.976 329.014C444.894 329.66 445.258 330.273 445.82 330.422L448.601 331.151L444.199 336.005C443.636 336.651 443.818 337.727 444.563 338.125L446.482 339.169C448.187 340.096 450.156 340.113 451.844 339.202C454.757 337.611 459.01 335.11 460.136 331.598L455.998 327.523Z" fill="#99D1FA"/>
<path d="M473.888 308.124L454.294 326.545L462.204 334.828L483.321 316.308C486.101 313.392 485.439 308.654 481.981 306.617C479.283 305.026 475.824 305.673 473.888 308.124Z" fill="#FF999D"/>
<path d="M110.566 58.6763H102.754C100.702 58.6763 99.0309 57.0032 99.0309 54.949V47.6104C99.0309 45.5562 100.702 43.8831 102.754 43.8831H110.566C112.618 43.8831 114.289 45.5562 114.289 47.6104V54.949C114.289 57.0197 112.618 58.6763 110.566 58.6763Z" fill="#FFF0E0"/>
<path d="M79.6019 221.27L32.7675 221.336C30.8974 221.336 29.3749 219.829 29.3749 217.957C29.3749 216.085 30.8809 214.561 32.7509 214.561L79.5853 214.494C81.4554 214.494 82.9779 216.002 82.9779 217.874C82.9945 219.746 81.4719 221.27 79.6019 221.27Z" fill="#FFAB50"/>
<path d="M508.41 188.188L416.678 188.254C414.807 188.254 413.285 186.747 413.285 184.875C413.285 183.003 414.791 181.479 416.661 181.479L508.394 181.413C510.264 181.413 511.786 182.92 511.786 184.792C511.803 186.664 510.28 188.171 508.41 188.188Z" fill="#FF999D"/>
<path d="M531.893 293.248H527.557C526.416 293.248 525.489 292.321 525.489 291.194V287.119C525.489 285.976 526.416 285.048 527.541 285.048H531.877C533.019 285.048 533.945 285.976 533.945 287.102V291.178C533.962 292.321 533.035 293.248 531.893 293.248Z" fill="#FF999D"/>
<path d="M370.29 34.9872H365.954C364.812 34.9872 363.885 34.0595 363.885 32.933V28.8578C363.885 27.7148 364.812 26.7871 365.937 26.7871H370.273C371.415 26.7871 372.342 27.7148 372.342 28.8413V32.9165C372.342 34.0595 371.415 34.9872 370.29 34.9872Z" fill="#FFAB50"/>
<path d="M20.5708 359.976L10.8729 359.992C8.24161 359.992 6.10676 357.872 6.10676 355.238L6.09021 345.53C6.09021 342.896 8.20852 340.759 10.8398 340.759L20.5377 340.743C23.169 340.743 25.3039 342.863 25.3039 345.497L25.3205 355.205C25.337 357.822 23.2021 359.959 20.5708 359.976Z" fill="#FFF0E0"/>
<path d="M45.5271 166.056H130.243C133.106 166.056 135.423 163.737 135.423 160.871V92.5699C135.423 89.704 133.106 87.3848 130.243 87.3848H45.5271C42.6641 87.3848 40.3472 89.704 40.3472 92.5699V160.871C40.3637 163.737 42.6806 166.056 45.5271 166.056Z" fill="#F65D2D"/>
<path d="M106.743 121.262L103.615 120.715C103.251 119.357 102.705 118.048 102.01 116.822L103.83 114.221C104.492 113.261 104.393 111.968 103.565 111.14L101.695 109.268C100.851 108.457 99.5604 108.357 98.6171 109.053L96.0189 110.875C94.7942 110.163 93.4868 109.633 92.1298 109.268L91.6002 106.071C91.4016 104.928 90.4252 104.1 89.2833 104.083H86.5527C85.3777 104.083 84.3847 104.928 84.1862 106.071L83.64 109.185C82.283 109.55 80.9756 110.097 79.7509 110.792L77.1693 109.053C76.2094 108.39 74.9186 108.49 74.0911 109.318L72.221 111.19C71.3936 112.018 71.2777 113.31 71.9562 114.271L73.7767 116.872C73.0651 118.098 72.5355 119.407 72.1714 120.765L69.0601 121.312C67.9017 121.51 67.0577 122.521 67.0742 123.681V126.331C67.0742 127.507 67.9182 128.501 69.0601 128.7L72.1714 129.247C72.5355 130.605 73.0816 131.914 73.7767 133.14L71.9562 135.74C71.2943 136.701 71.3936 137.993 72.221 138.822L74.0911 140.694C74.9186 141.522 76.2094 141.638 77.1693 140.959L79.7675 139.136C80.9921 139.849 82.2995 140.379 83.6566 140.743L84.2027 143.858C84.4013 145.017 85.4108 145.862 86.5693 145.846H89.2502C90.4252 145.846 91.4182 145.001 91.6168 143.858L92.1629 140.743C93.5199 140.379 94.8273 139.832 96.052 139.136L98.584 140.926C99.5439 141.588 100.835 141.489 101.662 140.66L103.532 138.789C104.36 137.96 104.476 136.668 103.797 135.707L101.977 133.09C102.688 131.864 103.218 130.555 103.582 129.197L106.71 128.65C107.868 128.451 108.712 127.441 108.696 126.281V123.631C108.729 122.455 107.885 121.461 106.743 121.262ZM87.8766 132.113C83.9214 132.113 80.7274 128.915 80.7274 124.956C80.7274 120.997 83.9214 117.8 87.8766 117.8C91.8319 117.8 95.0259 120.997 95.0259 124.956C95.0259 124.973 95.0259 124.989 95.0259 124.989C95.0094 128.932 91.8154 132.113 87.8766 132.113Z" fill="white"/>
<path d="M221.264 25.3706C221.337 11.4274 210.126 0.0652638 196.225 -0.00749501C182.323 -0.0802538 170.994 11.1639 170.921 25.1071C170.849 39.0502 182.059 50.4124 195.961 50.4851C209.863 50.5579 221.191 39.3137 221.264 25.3706Z" fill="#FF999D"/>
<path d="M201.421 15.2407C196.523 15.191 196.125 18.1728 196.125 18.1728C196.125 18.1728 195.794 15.1744 190.896 15.1247C185.997 15.075 184.21 20.6743 185.451 24.0537C186.394 26.6545 192.104 32.3697 194.669 34.8712C195.381 35.5504 196.49 35.5669 197.201 34.9043C199.832 32.4691 205.658 26.8865 206.667 24.3022C207.975 20.9393 206.32 15.2904 201.421 15.2407Z" fill="white"/>
<path d="M496.594 108.506H424.671C418.548 108.506 413.583 103.536 413.583 97.4071V42.6239C413.583 37.8364 417.455 33.96 422.238 33.96H496.594C501.377 33.96 505.249 37.8364 505.249 42.6239V99.8588C505.249 104.63 501.377 108.506 496.594 108.506Z" fill="#7AC943"/>
<path d="M446.814 71.73H436.834V88.859H446.814V71.73Z" fill="white"/>
<path d="M462.105 50.2607H452.126V88.8591H462.105V50.2607Z" fill="white"/>
<path d="M477.38 58.262H467.401V88.859H477.38V58.262Z" fill="white"/>
<path d="M426.557 88.8591H491.083" stroke="white" stroke-width="0.8796" stroke-miterlimit="10"/>
</g>
<defs>
<clipPath id="clip0">
<rect width="538" height="512" fill="white"/>
</clipPath>
</defs>
</svg>
