<svg width="20" height="20" viewBox="0 0 20 20" fill="none" xmlns="http://www.w3.org/2000/svg">
<path d="M10.0013 18.3327C14.6037 18.3327 18.3346 14.6017 18.3346 9.99935C18.3346 5.39698 14.6037 1.66602 10.0013 1.66602C5.39893 1.66602 1.66797 5.39698 1.66797 9.99935C1.66797 14.6017 5.39893 18.3327 10.0013 18.3327Z" stroke="#333D36" stroke-linecap="round" stroke-linejoin="round"/>
<path d="M10 5V10L13.3333 11.6667" stroke="#333D36" stroke-linecap="round" stroke-linejoin="round"/>
</svg>
